ISO-10303-21;
HEADER;
FILE_DESCRIPTION (( 'STEP AP214' ),
    '1' );
FILE_NAME ('Back Wall Mid.step',
    '2018-09-03T05:38:53',
    ( '' ),
    ( '' ),
    'SwSTEP 2.0',
    'SolidWorks 2018',
    '' );
FILE_SCHEMA (( 'AUTOMOTIVE_DESIGN' ));
ENDSEC;

DATA;
#1 = EDGE_CURVE ( 'NONE', #277, #394, #564, .T. ) ;
#2 = ORIENTED_EDGE ( 'NONE', *, *, #202, .T. ) ;
#3 = CIRCLE ( 'NONE', #333, 0.1250000000000000278 ) ;
#4 = PRODUCT_DEFINITION_FORMATION_WITH_SPECIFIED_SOURCE ( 'ANY', '', #573, .NOT_KNOWN. ) ;
#5 = EDGE_LOOP ( 'NONE', ( #595, #479, #568, #561 ) ) ;
#6 = EDGE_CURVE ( 'NONE', #90, #560, #521, .T. ) ;
#7 = FACE_BOUND ( 'NONE', #360, .T. ) ;
#8 = VECTOR ( 'NONE', #432, 39.37007874015748143 ) ;
#9 = PLANE ( 'NONE',  #627 ) ;
#10 = ORIENTED_EDGE ( 'NONE', *, *, #547, .T. ) ;
#11 = CARTESIAN_POINT ( 'NONE',  ( 0.0000000000000000000, 0.1250000000000000000, 21.50000000000000355 ) ) ;
#12 = ADVANCED_FACE ( 'NONE', ( #396 ), #623, .F. ) ;
#13 = ORIENTED_EDGE ( 'NONE', *, *, #44, .T. ) ;
#14 = DIRECTION ( 'NONE',  ( 0.0000000000000000000, 0.0000000000000000000, -1.000000000000000000 ) ) ;
#15 = AXIS2_PLACEMENT_3D ( 'NONE', #306, #552, #228 ) ;
#16 = CARTESIAN_POINT ( 'NONE',  ( 0.1250000000000000000, 0.1250000000000000000, 0.0000000000000000000 ) ) ;
#17 = ORIENTED_EDGE ( 'NONE', *, *, #586, .F. ) ;
#18 = DIRECTION ( 'NONE',  ( 0.0000000000000000000, 0.0000000000000000000, -1.000000000000000000 ) ) ;
#19 = CARTESIAN_POINT ( 'NONE',  ( 0.2500000000000000000, 0.7500000319142972049, 0.0000000000000000000 ) ) ;
#20 = EDGE_CURVE ( 'NONE', #239, #560, #178, .T. ) ;
#21 = DIRECTION ( 'NONE',  ( -1.000000000000000000, 0.0000000000000000000, 0.0000000000000000000 ) ) ;
#22 = CARTESIAN_POINT ( 'NONE',  ( 0.8750000000000001110, 0.2500000000000000000, 21.50000000000000355 ) ) ;
#23 = ORIENTED_EDGE ( 'NONE', *, *, #259, .T. ) ;
#24 = DIRECTION ( 'NONE',  ( -0.0000000000000000000, 0.0000000000000000000, -1.000000000000000000 ) ) ;
#25 = CARTESIAN_POINT ( 'NONE',  ( 0.1250000000000000000, 0.1250000000000000000, 21.50000000000000355 ) ) ;
#26 = ORIENTED_EDGE ( 'NONE', *, *, #403, .F. ) ;
#27 = CARTESIAN_POINT ( 'NONE',  ( 0.2500000000000000000, 0.8750000319142973160, 21.50000000000000355 ) ) ;
#28 = LINE ( 'NONE', #529, #514 ) ;
#29 = DIRECTION ( 'NONE',  ( -1.000000000000000000, 0.0000000000000000000, -0.0000000000000000000 ) ) ;
#30 = CARTESIAN_POINT ( 'NONE',  ( 1.000000000000000000, 0.1250000000000000278, 0.0000000000000000000 ) ) ;
#31 = DIRECTION ( 'NONE',  ( 1.000000000000000000, 0.0000000000000000000, 0.0000000000000000000 ) ) ;
#32 = ORIENTED_EDGE ( 'NONE', *, *, #51, .F. ) ;
#33 = LINE ( 'NONE', #315, #145 ) ;
#34 = EDGE_CURVE ( 'NONE', #182, #52, #466, .T. ) ;
#35 = VECTOR ( 'NONE', #480, 39.37007874015748143 ) ;
#36 = CARTESIAN_POINT ( 'NONE',  ( 0.1250000000000000000, 0.2500000000000000000, 0.0000000000000000000 ) ) ;
#37 = DIRECTION ( 'NONE',  ( -0.0000000000000000000, 0.0000000000000000000, -1.000000000000000000 ) ) ;
#38 = EDGE_LOOP ( 'NONE', ( #311, #562, #191, #426 ) ) ;
#39 = AXIS2_PLACEMENT_3D ( 'NONE', #223, #272, #318 ) ;
#40 = ORIENTED_EDGE ( 'NONE', *, *, #217, .T. ) ;
#41 = LINE ( 'NONE', #601, #155 ) ;
#42 = CIRCLE ( 'NONE', #359, 0.1250000000000000278 ) ;
#43 = APPLICATION_PROTOCOL_DEFINITION ( 'draft international standard', 'automotive_design', 1998, #612 ) ;
#44 = EDGE_CURVE ( 'NONE', #142, #90, #136, .T. ) ;
#45 = CARTESIAN_POINT ( 'NONE',  ( 0.8750000000000001110, 0.0000000000000000000, 21.50000000000000355 ) ) ;
#46 = ORIENTED_EDGE ( 'NONE', *, *, #374, .T. ) ;
#47 = ORIENTED_EDGE ( 'NONE', *, *, #374, .F. ) ;
#48 = VECTOR ( 'NONE', #298, 39.37007874015748143 ) ;
#49 = ORIENTED_EDGE ( 'NONE', *, *, #230, .F. ) ;
#50 = DIRECTION ( 'NONE',  ( 1.000000000000000000, 0.0000000000000000000, 0.0000000000000000000 ) ) ;
#51 = EDGE_CURVE ( 'NONE', #537, #182, #3, .T. ) ;
#52 = VERTEX_POINT ( 'NONE', #190 ) ;
#53 = ORIENTED_EDGE ( 'NONE', *, *, #185, .F. ) ;
#54 = LINE ( 'NONE', #104, #48 ) ;
#55 =( NAMED_UNIT ( * ) SI_UNIT ( $, .STERADIAN. ) SOLID_ANGLE_UNIT ( ) );
#56 = ORIENTED_EDGE ( 'NONE', *, *, #240, .T. ) ;
#57 = AXIS2_PLACEMENT_3D ( 'NONE', #122, #502, #453 ) ;
#58 = ORIENTED_EDGE ( 'NONE', *, *, #296, .F. ) ;
#59 = LINE ( 'NONE', #494, #109 ) ;
#60 = CIRCLE ( 'NONE', #15, 0.1249999999999999029 ) ;
#61 = DIRECTION ( 'NONE',  ( 1.000000000000000000, 0.0000000000000000000, 0.0000000000000000000 ) ) ;
#62 = ADVANCED_BREP_SHAPE_REPRESENTATION ( 'Back Wall Mid', ( #341, #400 ), #118 ) ;
#63 = EDGE_CURVE ( 'NONE', #121, #282, #28, .T. ) ;
#64 = CARTESIAN_POINT ( 'NONE',  ( 0.8750000000000001110, 1.000000031914298093, 0.0000000000000000000 ) ) ;
#65 = CARTESIAN_POINT ( 'NONE',  ( 0.8750000000000001110, 0.7500000319142972049, 21.50000000000000355 ) ) ;
#66 = ORIENTED_EDGE ( 'NONE', *, *, #324, .T. ) ;
#67 = DIRECTION ( 'NONE',  ( 0.0000000000000000000, 0.0000000000000000000, -1.000000000000000000 ) ) ;
#68 = ORIENTED_EDGE ( 'NONE', *, *, #558, .F. ) ;
#69 = PLANE ( 'NONE',  #246 ) ;
#70 = AXIS2_PLACEMENT_3D ( 'NONE', #346, #210, #594 ) ;
#71 = FACE_OUTER_BOUND ( 'NONE', #158, .T. ) ;
#72 = DIRECTION ( 'NONE',  ( 0.0000000000000000000, 0.0000000000000000000, -1.000000000000000000 ) ) ;
#73 = CARTESIAN_POINT ( 'NONE',  ( 0.8750000000000001110, 0.8750000319142973160, 21.50000000000000355 ) ) ;
#74 = DIRECTION ( 'NONE',  ( 0.0000000000000000000, 0.0000000000000000000, -1.000000000000000000 ) ) ;
#75 = CARTESIAN_POINT ( 'NONE',  ( 0.8750000000000001110, 0.0000000000000000000, 0.0000000000000000000 ) ) ;
#76 = EDGE_CURVE ( 'NONE', #433, #160, #337, .T. ) ;
#77 = DIRECTION ( 'NONE',  ( 1.000000000000000000, 0.0000000000000000000, 0.0000000000000000000 ) ) ;
#78 = DIRECTION ( 'NONE',  ( -0.0000000000000000000, 0.0000000000000000000, -1.000000000000000000 ) ) ;
#79 = CARTESIAN_POINT ( 'NONE',  ( 1.000000000000000000, 0.8750000319142973160, 21.50000000000000355 ) ) ;
#80 = PRODUCT_DEFINITION_CONTEXT ( 'detailed design', #612, 'design' ) ;
#81 = ORIENTED_EDGE ( 'NONE', *, *, #202, .F. ) ;
#82 = VERTEX_POINT ( 'NONE', #290 ) ;
#83 = PRESENTATION_STYLE_ASSIGNMENT (( #222 ) ) ;
#84 = FACE_OUTER_BOUND ( 'NONE', #327, .T. ) ;
#85 = DIRECTION ( 'NONE',  ( -0.0000000000000000000, 0.0000000000000000000, -1.000000000000000000 ) ) ;
#86 = CARTESIAN_POINT ( 'NONE',  ( 1.000000000000000000, 0.8750000319142973160, 0.0000000000000000000 ) ) ;
#87 = CARTESIAN_POINT ( 'NONE',  ( 0.8750000000000001110, 0.1250000000000000000, 21.50000000000000355 ) ) ;
#88 = AXIS2_PLACEMENT_3D ( 'NONE', #169, #515, #411 ) ;
#89 = CARTESIAN_POINT ( 'NONE',  ( 0.7500000000000001110, 0.2500000000000000000, 21.50000000000000355 ) ) ;
#90 = VERTEX_POINT ( 'NONE', #382 ) ;
#91 = LENGTH_MEASURE_WITH_UNIT ( LENGTH_MEASURE( 0.02539999999999999897 ), #237 );
#92 = EDGE_CURVE ( 'NONE', #277, #607, #227, .T. ) ;
#93 = VECTOR ( 'NONE', #410, 39.37007874015748143 ) ;
#94 =( NAMED_UNIT ( * ) PLANE_ANGLE_UNIT ( ) SI_UNIT ( $, .RADIAN. ) );
#95 = CARTESIAN_POINT ( 'NONE',  ( 0.0000000000000000000, 0.1250000000000000000, 0.0000000000000000000 ) ) ;
#96 = AXIS2_PLACEMENT_3D ( 'NONE', #599, #310, #21 ) ;
#97 = ORIENTED_EDGE ( 'NONE', *, *, #153, .T. ) ;
#98 = CYLINDRICAL_SURFACE ( 'NONE', #526, 0.1250000000000009714 ) ;
#99 = VECTOR ( 'NONE', #605, 39.37007874015748143 ) ;
#100 = EDGE_CURVE ( 'NONE', #534, #276, #146, .T. ) ;
#101 = EDGE_LOOP ( 'NONE', ( #390, #575, #291, #97 ) ) ;
#102 = VECTOR ( 'NONE', #505, 39.37007874015748143 ) ;
#103 = PRODUCT_RELATED_PRODUCT_CATEGORY ( 'part', '', ( #573 ) ) ;
#104 = CARTESIAN_POINT ( 'NONE',  ( 0.7500000000000001110, 0.8750000319142973160, 21.50000000000000355 ) ) ;
#105 = AXIS2_PLACEMENT_3D ( 'NONE', #244, #335, #147 ) ;
#106 = ORIENTED_EDGE ( 'NONE', *, *, #63, .T. ) ;
#107 = ORIENTED_EDGE ( 'NONE', *, *, #362, .T. ) ;
#108 = COLOUR_RGB ( '',0.7921568627450980005, 0.8196078431372548767, 0.9333333333333333481 ) ;
#109 = VECTOR ( 'NONE', #448, 39.37007874015748143 ) ;
#110 = DIRECTION ( 'NONE',  ( 0.0000000000000000000, 0.0000000000000000000, 1.000000000000000000 ) ) ;
#111 = ORIENTED_EDGE ( 'NONE', *, *, #523, .F. ) ;
#112 = DIRECTION ( 'NONE',  ( 0.0000000000000000000, 0.0000000000000000000, -1.000000000000000000 ) ) ;
#113 = ADVANCED_FACE ( 'NONE', ( #386 ), #9, .T. ) ;
#114 = DIRECTION ( 'NONE',  ( -1.000000000000000000, 0.0000000000000000000, 0.0000000000000000000 ) ) ;
#115 = ORIENTED_EDGE ( 'NONE', *, *, #76, .F. ) ;
#116 = ADVANCED_FACE ( 'NONE', ( #490 ), #69, .T. ) ;
#117 = CARTESIAN_POINT ( 'NONE',  ( -9.732208477428937346E-16, 0.8750000319142973160, 21.50000000000000355 ) ) ;
#118 =( GEOMETRIC_REPRESENTATION_CONTEXT ( 3 ) GLOBAL_UNCERTAINTY_ASSIGNED_CONTEXT ( ( #179 ) ) GLOBAL_UNIT_ASSIGNED_CONTEXT ( ( #323, #527, #620 ) ) REPRESENTATION_CONTEXT ( 'NONE', 'WORKASPACE' ) );
#119 = DIRECTION ( 'NONE',  ( 0.0000000000000000000, 0.0000000000000000000, -1.000000000000000000 ) ) ;
#120 = ORIENTED_EDGE ( 'NONE', *, *, #403, .T. ) ;
#121 = VERTEX_POINT ( 'NONE', #125 ) ;
#122 = CARTESIAN_POINT ( 'NONE',  ( 0.2500000000000000000, 0.7500000319142972049, 21.50000000000000355 ) ) ;
#123 = DIRECTION ( 'NONE',  ( 0.0000000000000000000, 0.0000000000000000000, -1.000000000000000000 ) ) ;
#124 = DIRECTION ( 'NONE',  ( -1.000000000000000000, 0.0000000000000000000, 0.0000000000000000000 ) ) ;
#125 = CARTESIAN_POINT ( 'NONE',  ( 1.000000000000000000, 0.8750000319142973160, 21.50000000000000355 ) ) ;
#126 = CARTESIAN_POINT ( 'NONE',  ( 0.0000000000000000000, 0.1250000000000000000, 21.50000000000000355 ) ) ;
#127 = ORIENTED_EDGE ( 'NONE', *, *, #619, .T. ) ;
#128 = AXIS2_PLACEMENT_3D ( 'NONE', #261, #498, #591 ) ;
#129 = LENGTH_MEASURE_WITH_UNIT ( LENGTH_MEASURE( 0.02539999999999999897 ), #622 );
#130 = LENGTH_MEASURE_WITH_UNIT ( LENGTH_MEASURE( 0.02539999999999999897 ), #361 );
#131 = LINE ( 'NONE', #496, #260 ) ;
#132 = VERTEX_POINT ( 'NONE', #307 ) ;
#133 = DIRECTION ( 'NONE',  ( 1.000000000000000000, -0.0000000000000000000, -0.0000000000000000000 ) ) ;
#134 = EDGE_LOOP ( 'NONE', ( #551, #461, #120, #482 ) ) ;
#135 = LINE ( 'NONE', #404, #377 ) ;
#136 = LINE ( 'NONE', #95, #35 ) ;
#137 = CARTESIAN_POINT ( 'NONE',  ( 0.0000000000000000000, 0.0000000000000000000, 0.0000000000000000000 ) ) ;
#138 = DIRECTION ( 'NONE',  ( -1.000000000000000000, 0.0000000000000000000, 0.0000000000000000000 ) ) ;
#139 = AXIS2_PLACEMENT_3D ( 'NONE', #19, #166, #257 ) ;
#140 = EDGE_LOOP ( 'NONE', ( #127, #13, #376, #434, #340, #23, #516, #294 ) ) ;
#141 =( NAMED_UNIT ( * ) SI_UNIT ( $, .STERADIAN. ) SOLID_ANGLE_UNIT ( ) );
#142 = VERTEX_POINT ( 'NONE', #399 ) ;
#143 = DIRECTION ( 'NONE',  ( -1.000000000000000000, 0.0000000000000000000, 0.0000000000000000000 ) ) ;
#144 = PRESENTATION_STYLE_ASSIGNMENT (( #274 ) ) ;
#145 = VECTOR ( 'NONE', #356, 39.37007874015748143 ) ;
#146 = CIRCLE ( 'NONE', #391, 0.1249999999999999584 ) ;
#147 = DIRECTION ( 'NONE',  ( -0.0000000000000000000, 0.0000000000000000000, 1.000000000000000000 ) ) ;
#148 = DIRECTION ( 'NONE',  ( 0.0000000000000000000, 0.0000000000000000000, -1.000000000000000000 ) ) ;
#149 = ORIENTED_EDGE ( 'NONE', *, *, #508, .T. ) ;
#150 = EDGE_LOOP ( 'NONE', ( #10, #255, #525, #266 ) ) ;
#151 = LINE ( 'NONE', #167, #102 ) ;
#152 = CARTESIAN_POINT ( 'NONE',  ( 0.7500000000000001110, 0.1249999999999999861, 21.50000000000000355 ) ) ;
#153 = EDGE_CURVE ( 'NONE', #368, #90, #252, .T. ) ;
#154 = ORIENTED_EDGE ( 'NONE', *, *, #63, .F. ) ;
#155 = VECTOR ( 'NONE', #365, 39.37007874015748143 ) ;
#156 = VECTOR ( 'NONE', #478, 39.37007874015748143 ) ;
#157 = CARTESIAN_POINT ( 'NONE',  ( -9.732208477428937346E-16, 0.8750000319142973160, 21.50000000000000355 ) ) ;
#158 = EDGE_LOOP ( 'NONE', ( #389, #58, #548, #197 ) ) ;
#159 = ORIENTED_EDGE ( 'NONE', *, *, #217, .F. ) ;
#160 = VERTEX_POINT ( 'NONE', #447 ) ;
#161 = CARTESIAN_POINT ( 'NONE',  ( 1.000000000000000000, 0.1250000000000000278, 21.50000000000000355 ) ) ;
#162 = FACE_OUTER_BOUND ( 'NONE', #176, .T. ) ;
#163 = CARTESIAN_POINT ( 'NONE',  ( 0.7500000000000001110, 0.1249999999999999861, 0.0000000000000000000 ) ) ;
#164 = EDGE_CURVE ( 'NONE', #394, #534, #243, .T. ) ;
#165 = ADVANCED_FACE ( 'NONE', ( #84 ), #378, .T. ) ;
#166 = DIRECTION ( 'NONE',  ( -0.0000000000000000000, 0.0000000000000000000, -1.000000000000000000 ) ) ;
#167 = CARTESIAN_POINT ( 'NONE',  ( 0.8750000000000001110, 0.7500000319142972049, 21.50000000000000355 ) ) ;
#168 = AXIS2_PLACEMENT_3D ( 'NONE', #309, #67, #401 ) ;
#169 = CARTESIAN_POINT ( 'NONE',  ( 0.8750000000000001110, 0.8750000319142973160, 21.50000000000000355 ) ) ;
#170 = ORIENTED_EDGE ( 'NONE', *, *, #477, .F. ) ;
#171 = VECTOR ( 'NONE', #440, 39.37007874015748143 ) ;
#172 = EDGE_CURVE ( 'NONE', #198, #495, #131, .T. ) ;
#173 = DIRECTION ( 'NONE',  ( 0.0000000000000000000, 0.0000000000000000000, -1.000000000000000000 ) ) ;
#174 = PLANE ( 'NONE',  #436 ) ;
#175 = EDGE_LOOP ( 'NONE', ( #343, #154, #393, #431 ) ) ;
#176 = EDGE_LOOP ( 'NONE', ( #250, #469, #111, #579 ) ) ;
#177 = PLANE ( 'NONE',  #483 ) ;
#178 = LINE ( 'NONE', #430, #618 ) ;
#179 = UNCERTAINTY_MEASURE_WITH_UNIT (LENGTH_MEASURE( 1.000000000000000082E-05 ), #323, 'distance_accuracy_value', 'NONE');
#180 = CARTESIAN_POINT ( 'NONE',  ( 0.7500000000000001110, 0.2500000000000000000, 0.0000000000000000000 ) ) ;
#181 = AXIS2_PLACEMENT_3D ( 'NONE', #16, #119, #253 ) ;
#182 = VERTEX_POINT ( 'NONE', #27 ) ;
#183 = APPLICATION_CONTEXT ( 'automotive_design' ) ;
#184 = VERTEX_POINT ( 'NONE', #64 ) ;
#185 = EDGE_CURVE ( 'NONE', #537, #450, #372, .T. ) ;
#186 = FACE_OUTER_BOUND ( 'NONE', #5, .T. ) ;
#187 = LINE ( 'NONE', #299, #226 ) ;
#188 = DIRECTION ( 'NONE',  ( 1.000000000000000000, 0.0000000000000000000, 0.0000000000000000000 ) ) ;
#189 = DIRECTION ( 'NONE',  ( 0.0000000000000000000, 1.000000000000000000, 0.0000000000000000000 ) ) ;
#190 = CARTESIAN_POINT ( 'NONE',  ( 0.2500000000000000000, 0.8750000319142973160, 0.0000000000000000000 ) ) ;
#191 = ORIENTED_EDGE ( 'NONE', *, *, #196, .T. ) ;
#192 = EDGE_LOOP ( 'NONE', ( #519, #624, #224, #574 ) ) ;
#193 = DIRECTION ( 'NONE',  ( -1.000000000000000000, 0.0000000000000000000, 0.0000000000000000000 ) ) ;
#194 = SURFACE_STYLE_FILL_AREA ( #512 ) ;
#195 = ORIENTED_EDGE ( 'NONE', *, *, #51, .T. ) ;
#196 = EDGE_CURVE ( 'NONE', #239, #203, #528, .T. ) ;
#197 = ORIENTED_EDGE ( 'NONE', *, *, #34, .T. ) ;
#198 = VERTEX_POINT ( 'NONE', #161 ) ;
#199 = CYLINDRICAL_SURFACE ( 'NONE', #473, 0.1250000000000000278 ) ;
#200 = LINE ( 'NONE', #616, #443 ) ;
#201 = AXIS2_PLACEMENT_3D ( 'NONE', #180, #37, #188 ) ;
#202 = EDGE_CURVE ( 'NONE', #433, #302, #499, .T. ) ;
#203 = VERTEX_POINT ( 'NONE', #355 ) ;
#204 = ORIENTED_EDGE ( 'NONE', *, *, #34, .F. ) ;
#205 = CIRCLE ( 'NONE', #70, 0.1250000000000000278 ) ;
#206 = FACE_OUTER_BOUND ( 'NONE', #301, .T. ) ;
#207 = CARTESIAN_POINT ( 'NONE',  ( 0.1250000000000000000, 0.7500000319142972049, 0.0000000000000000000 ) ) ;
#208 = ADVANCED_FACE ( 'NONE', ( #206 ), #234, .T. ) ;
#209 = DIRECTION ( 'NONE',  ( 0.0000000000000000000, 0.0000000000000000000, -1.000000000000000000 ) ) ;
#210 = DIRECTION ( 'NONE',  ( -0.0000000000000000000, 0.0000000000000000000, -1.000000000000000000 ) ) ;
#211 = PRESENTATION_LAYER_ASSIGNMENT (  '', '', ( #501 ) ) ;
#212 = CARTESIAN_POINT ( 'NONE',  ( 0.8750000000000001110, 0.7500000319142972049, 0.0000000000000000000 ) ) ;
#213 = ORIENTED_EDGE ( 'NONE', *, *, #271, .T. ) ;
#214 = DIRECTION ( 'NONE',  ( -0.0000000000000000000, 1.000000000000000000, -0.0000000000000000000 ) ) ;
#215 = CARTESIAN_POINT ( 'NONE',  ( 0.8750000000000001110, 0.0000000000000000000, 21.50000000000000355 ) ) ;
#216 = FACE_OUTER_BOUND ( 'NONE', #322, .T. ) ;
#217 = EDGE_CURVE ( 'NONE', #258, #537, #354, .T. ) ;
#218 =( CONVERSION_BASED_UNIT ( 'INCH', #130 ) LENGTH_UNIT ( ) NAMED_UNIT ( #455 ) );
#219 = DIRECTION ( 'NONE',  ( 1.000000000000000000, 0.0000000000000000000, 0.0000000000000000000 ) ) ;
#220 = DIRECTION ( 'NONE',  ( 0.0000000000000000000, 0.0000000000000000000, -1.000000000000000000 ) ) ;
#221 = CARTESIAN_POINT ( 'NONE',  ( 0.0000000000000000000, 0.1250000000000000000, 21.50000000000000355 ) ) ;
#222 = SURFACE_STYLE_USAGE ( .BOTH. , #451 ) ;
#223 = CARTESIAN_POINT ( 'NONE',  ( 0.8750000000000001110, 0.1250000000000000000, 0.0000000000000000000 ) ) ;
#224 = ORIENTED_EDGE ( 'NONE', *, *, #508, .F. ) ;
#225 = FACE_OUTER_BOUND ( 'NONE', #445, .T. ) ;
#226 = VECTOR ( 'NONE', #72, 39.37007874015748143 ) ;
#227 = LINE ( 'NONE', #625, #487 ) ;
#228 = DIRECTION ( 'NONE',  ( -1.000000000000000000, 0.0000000000000000000, 0.0000000000000000000 ) ) ;
#229 = DIRECTION ( 'NONE',  ( 0.0000000000000000000, 0.0000000000000000000, -1.000000000000000000 ) ) ;
#230 = EDGE_CURVE ( 'NONE', #184, #282, #598, .T. ) ;
#231 = ORIENTED_EDGE ( 'NONE', *, *, #240, .F. ) ;
#232 = CARTESIAN_POINT ( 'NONE',  ( 0.2500000000000000000, 0.1250000000000000000, 21.50000000000000355 ) ) ;
#233 = FACE_BOUND ( 'NONE', #270, .T. ) ;
#234 = CYLINDRICAL_SURFACE ( 'NONE', #429, 0.1250000000000000000 ) ;
#235 = PLANE ( 'NONE',  #582 ) ;
#236 = UNCERTAINTY_MEASURE_WITH_UNIT (LENGTH_MEASURE( 1.000000000000000082E-05 ), #218, 'distance_accuracy_value', 'NONE');
#237 =( LENGTH_UNIT ( ) NAMED_UNIT ( * ) SI_UNIT ( $, .METRE. ) );
#238 = DIRECTION ( 'NONE',  ( -0.0000000000000000000, -1.000000000000000000, -0.0000000000000000000 ) ) ;
#239 = VERTEX_POINT ( 'NONE', #549 ) ;
#240 = EDGE_CURVE ( 'NONE', #198, #433, #60, .T. ) ;
#241 = DIRECTION ( 'NONE',  ( 0.0000000000000000000, 0.0000000000000000000, -1.000000000000000000 ) ) ;
#242 = FACE_OUTER_BOUND ( 'NONE', #416, .T. ) ;
#243 = LINE ( 'NONE', #452, #99 ) ;
#244 = CARTESIAN_POINT ( 'NONE',  ( 0.1250000000000000000, 0.7500000319142972049, 21.50000000000000355 ) ) ;
#245 = CLOSED_SHELL ( 'NONE', ( #208, #113, #263, #116, #165, #357, #507, #459, #553, #449, #596, #592, #407, #12, #347, #606, #589, #503 ) ) ;
#246 = AXIS2_PLACEMENT_3D ( 'NONE', #509, #77, #209 ) ;
#247 = VECTOR ( 'NONE', #133, 39.37007874015748143 ) ;
#248 = VECTOR ( 'NONE', #14, 39.37007874015748143 ) ;
#249 = EDGE_CURVE ( 'NONE', #345, #367, #151, .T. ) ;
#250 = ORIENTED_EDGE ( 'NONE', *, *, #100, .T. ) ;
#251 = LINE ( 'NONE', #421, #474 ) ;
#252 = LINE ( 'NONE', #117, #419 ) ;
#253 = DIRECTION ( 'NONE',  ( -1.000000000000000000, 0.0000000000000000000, -0.0000000000000000000 ) ) ;
#254 = DIMENSIONAL_EXPONENTS ( 1.000000000000000000, 0.0000000000000000000, 0.0000000000000000000, 0.0000000000000000000, 0.0000000000000000000, 0.0000000000000000000, 0.0000000000000000000 ) ;
#255 = ORIENTED_EDGE ( 'NONE', *, *, #423, .F. ) ;
#256 = DIRECTION ( 'NONE',  ( 0.0000000000000000000, 0.0000000000000000000, -1.000000000000000000 ) ) ;
#257 = DIRECTION ( 'NONE',  ( 1.000000000000000000, 0.0000000000000000000, 0.0000000000000000000 ) ) ;
#258 = VERTEX_POINT ( 'NONE', #280 ) ;
#259 = EDGE_CURVE ( 'NONE', #282, #495, #406, .T. ) ;
#260 = VECTOR ( 'NONE', #18, 39.37007874015748143 ) ;
#261 = CARTESIAN_POINT ( 'NONE',  ( 0.1250000000000000000, 1.000000031914299203, 21.50000000000000355 ) ) ;
#262 = CARTESIAN_POINT ( 'NONE',  ( 0.1250000000000000000, 1.000000031914299203, 21.50000000000000355 ) ) ;
#263 = ADVANCED_FACE ( 'NONE', ( #295 ), #418, .T. ) ;
#264 = ORIENTED_EDGE ( 'NONE', *, *, #566, .F. ) ;
#265 = DIRECTION ( 'NONE',  ( 0.0000000000000000000, 0.0000000000000000000, -1.000000000000000000 ) ) ;
#266 = ORIENTED_EDGE ( 'NONE', *, *, #249, .T. ) ;
#267 = VECTOR ( 'NONE', #460, 39.37007874015748143 ) ;
#268 = CARTESIAN_POINT ( 'NONE',  ( 0.8750000000000001110, 0.2500000000000000000, 21.50000000000000355 ) ) ;
#269 = FACE_OUTER_BOUND ( 'NONE', #101, .T. ) ;
#270 = EDGE_LOOP ( 'NONE', ( #66, #107, #531, #149, #489, #320, #40, #195 ) ) ;
#271 = EDGE_CURVE ( 'NONE', #276, #450, #200, .T. ) ;
#272 = DIRECTION ( 'NONE',  ( 0.0000000000000000000, 0.0000000000000000000, -1.000000000000000000 ) ) ;
#273 = DIRECTION ( 'NONE',  ( 0.0000000000000000000, 0.0000000000000000000, -1.000000000000000000 ) ) ;
#274 = SURFACE_STYLE_USAGE ( .BOTH. , #470 ) ;
#275 = DIRECTION ( 'NONE',  ( -1.000000000000000000, 0.0000000000000000000, 0.0000000000000000000 ) ) ;
#276 = VERTEX_POINT ( 'NONE', #36 ) ;
#277 = VERTEX_POINT ( 'NONE', #279 ) ;
#278 = DIRECTION ( 'NONE',  ( 0.0000000000000000000, -0.0000000000000000000, -1.000000000000000000 ) ) ;
#279 = CARTESIAN_POINT ( 'NONE',  ( 0.7500000000000001110, 0.1249999999999999861, 21.50000000000000355 ) ) ;
#280 = CARTESIAN_POINT ( 'NONE',  ( 0.1250000000000000000, 0.2500000000000000000, 21.50000000000000355 ) ) ;
#281 = PRODUCT_DEFINITION_SHAPE ( 'NONE', 'NONE',  #535 ) ;
#282 = VERTEX_POINT ( 'NONE', #422 ) ;
#283 = DIRECTION ( 'NONE',  ( 0.0000000000000000000, 0.0000000000000000000, -1.000000000000000000 ) ) ;
#284 = EDGE_CURVE ( 'NONE', #302, #82, #314, .T. ) ;
#285 = ORIENTED_EDGE ( 'NONE', *, *, #100, .F. ) ;
#286 = CARTESIAN_POINT ( 'NONE',  ( 0.1250000000000000000, 0.1250000000000000000, 0.0000000000000000000 ) ) ;
#287 = FACE_OUTER_BOUND ( 'NONE', #134, .T. ) ;
#288 = VECTOR ( 'NONE', #415, 39.37007874015748143 ) ;
#289 = DIRECTION ( 'NONE',  ( 0.0000000000000000000, 0.0000000000000000000, -1.000000000000000000 ) ) ;
#290 = CARTESIAN_POINT ( 'NONE',  ( 0.1250000000000000000, 0.0000000000000000000, 0.0000000000000000000 ) ) ;
#291 = ORIENTED_EDGE ( 'NONE', *, *, #558, .T. ) ;
#292 = STYLED_ITEM ( 'NONE', ( #83 ), #341 ) ;
#293 = DIRECTION ( 'NONE',  ( -1.000000000000000000, 0.0000000000000000000, 0.0000000000000000000 ) ) ;
#294 = ORIENTED_EDGE ( 'NONE', *, *, #284, .T. ) ;
#295 = FACE_OUTER_BOUND ( 'NONE', #435, .T. ) ;
#296 = EDGE_CURVE ( 'NONE', #132, #536, #363, .T. ) ;
#297 = ORIENTED_EDGE ( 'NONE', *, *, #1, .T. ) ;
#298 = DIRECTION ( 'NONE',  ( 1.000000000000000000, -0.0000000000000000000, -0.0000000000000000000 ) ) ;
#299 = CARTESIAN_POINT ( 'NONE',  ( 0.1250000000000000000, 0.0000000000000000000, 21.50000000000000355 ) ) ;
#300 = PLANE ( 'NONE',  #181 ) ;
#301 = EDGE_LOOP ( 'NONE', ( #524, #170, #334, #414 ) ) ;
#302 = VERTEX_POINT ( 'NONE', #75 ) ;
#303 = CIRCLE ( 'NONE', #139, 0.1250000000000000278 ) ;
#304 = DIRECTION ( 'NONE',  ( 1.000000000000000000, 0.0000000000000000000, 0.0000000000000000000 ) ) ;
#305 = VECTOR ( 'NONE', #546, 39.37007874015748143 ) ;
#306 = CARTESIAN_POINT ( 'NONE',  ( 0.8750000000000001110, 0.1250000000000000000, 21.50000000000000355 ) ) ;
#307 = CARTESIAN_POINT ( 'NONE',  ( 0.7500000000000001110, 0.8750000319142973160, 21.50000000000000355 ) ) ;
#308 = MECHANICAL_DESIGN_GEOMETRIC_PRESENTATION_REPRESENTATION (  '', ( #501 ), #339 ) ;
#309 = CARTESIAN_POINT ( 'NONE',  ( 0.1250000000000000000, 0.8750000319142973160, 21.50000000000000355 ) ) ;
#310 = DIRECTION ( 'NONE',  ( 0.0000000000000000000, 0.0000000000000000000, -1.000000000000000000 ) ) ;
#311 = ORIENTED_EDGE ( 'NONE', *, *, #439, .F. ) ;
#312 = CIRCLE ( 'NONE', #201, 0.1250000000000000278 ) ;
#313 = EDGE_CURVE ( 'NONE', #121, #198, #554, .T. ) ;
#314 = LINE ( 'NONE', #371, #344 ) ;
#315 = CARTESIAN_POINT ( 'NONE',  ( 0.0000000000000000000, 0.1250000000000000000, 21.50000000000000355 ) ) ;
#316 = DIRECTION ( 'NONE',  ( 0.0000000000000000000, 0.0000000000000000000, -1.000000000000000000 ) ) ;
#317 = DIRECTION ( 'NONE',  ( 0.0000000000000000000, 0.0000000000000000000, -1.000000000000000000 ) ) ;
#318 = DIRECTION ( 'NONE',  ( -1.000000000000000000, 0.0000000000000000000, 0.0000000000000000000 ) ) ;
#319 = ORIENTED_EDGE ( 'NONE', *, *, #185, .T. ) ;
#320 = ORIENTED_EDGE ( 'NONE', *, *, #523, .T. ) ;
#321 = VECTOR ( 'NONE', #366, 39.37007874015748143 ) ;
#322 = EDGE_LOOP ( 'NONE', ( #46, #204, #32, #319 ) ) ;
#323 =( CONVERSION_BASED_UNIT ( 'INCH', #129 ) LENGTH_UNIT ( ) NAMED_UNIT ( #254 ) );
#324 = EDGE_CURVE ( 'NONE', #182, #132, #54, .T. ) ;
#325 =( NAMED_UNIT ( * ) PLANE_ANGLE_UNIT ( ) SI_UNIT ( $, .RADIAN. ) );
#326 = APPLICATION_PROTOCOL_DEFINITION ( 'draft international standard', 'automotive_design', 1998, #183 ) ;
#327 = EDGE_LOOP ( 'NONE', ( #49, #484, #442, #106 ) ) ;
#328 = SHAPE_DEFINITION_REPRESENTATION ( #281, #62 ) ;
#329 = VECTOR ( 'NONE', #61, 39.37007874015748143 ) ;
#330 = FILL_AREA_STYLE_COLOUR ( '', #108 ) ;
#331 = AXIS2_PLACEMENT_3D ( 'NONE', #559, #78, #31 ) ;
#332 = PRODUCT_CONTEXT ( 'NONE', #183, 'mechanical' ) ;
#333 = AXIS2_PLACEMENT_3D ( 'NONE', #338, #379, #50 ) ;
#334 = ORIENTED_EDGE ( 'NONE', *, *, #532, .T. ) ;
#335 = DIRECTION ( 'NONE',  ( -1.000000000000000000, 0.0000000000000000000, -0.0000000000000000000 ) ) ;
#336 = FACE_OUTER_BOUND ( 'NONE', #140, .T. ) ;
#337 = LINE ( 'NONE', #45, #577 ) ;
#338 = CARTESIAN_POINT ( 'NONE',  ( 0.2500000000000000000, 0.7500000319142972049, 21.50000000000000355 ) ) ;
#339 =( GEOMETRIC_REPRESENTATION_CONTEXT ( 3 ) GLOBAL_UNCERTAINTY_ASSIGNED_CONTEXT ( ( #468 ) ) GLOBAL_UNIT_ASSIGNED_CONTEXT ( ( #369, #94, #141 ) ) REPRESENTATION_CONTEXT ( 'NONE', 'WORKASPACE' ) );
#340 = ORIENTED_EDGE ( 'NONE', *, *, #230, .T. ) ;
#341 = MANIFOLD_SOLID_BREP ( 'Boss-Extrude1', #245 ) ;
#342 = EDGE_CURVE ( 'NONE', #258, #276, #59, .T. ) ;
#343 = ORIENTED_EDGE ( 'NONE', *, *, #259, .F. ) ;
#344 = VECTOR ( 'NONE', #504, 39.37007874015748143 ) ;
#345 = VERTEX_POINT ( 'NONE', #65 ) ;
#346 = CARTESIAN_POINT ( 'NONE',  ( 0.7500000000000001110, 0.7500000319142972049, 21.50000000000000355 ) ) ;
#347 = ADVANCED_FACE ( 'NONE', ( #162 ), #587, .F. ) ;
#348 = PLANE ( 'NONE',  #128 ) ;
#349 = ORIENTED_EDGE ( 'NONE', *, *, #477, .T. ) ;
#350 = DIRECTION ( 'NONE',  ( 0.0000000000000000000, -1.000000000000000000, -0.0000000000000000000 ) ) ;
#351 = EDGE_LOOP ( 'NONE', ( #583, #81, #472, #349 ) ) ;
#352 = DIRECTION ( 'NONE',  ( -1.000000000000000000, 0.0000000000000000000, 0.0000000000000000000 ) ) ;
#353 = CARTESIAN_POINT ( 'NONE',  ( 0.7500000000000001110, 0.7500000319142972049, 0.0000000000000000000 ) ) ;
#354 = LINE ( 'NONE', #493, #543 ) ;
#355 = CARTESIAN_POINT ( 'NONE',  ( 0.8750000000000001110, 1.000000031914298093, 21.50000000000000355 ) ) ;
#356 = DIRECTION ( 'NONE',  ( 0.0000000000000000000, 0.0000000000000000000, -1.000000000000000000 ) ) ;
#357 = ADVANCED_FACE ( 'NONE', ( #465 ), #348, .T. ) ;
#358 = CARTESIAN_POINT ( 'NONE',  ( 0.8750000000000001110, 0.0000000000000000000, 21.50000000000000355 ) ) ;
#359 = AXIS2_PLACEMENT_3D ( 'NONE', #565, #85, #219 ) ;
#360 = EDGE_LOOP ( 'NONE', ( #610, #511, #47, #613, #285, #441, #17, #454 ) ) ;
#361 =( LENGTH_UNIT ( ) NAMED_UNIT ( * ) SI_UNIT ( $, .METRE. ) );
#362 = EDGE_CURVE ( 'NONE', #132, #345, #205, .T. ) ;
#363 = LINE ( 'NONE', #621, #321 ) ;
#364 = VECTOR ( 'NONE', #316, 39.37007874015748143 ) ;
#365 = DIRECTION ( 'NONE',  ( -0.0000000000000000000, -1.000000000000000000, -0.0000000000000000000 ) ) ;
#366 = DIRECTION ( 'NONE',  ( 0.0000000000000000000, 0.0000000000000000000, -1.000000000000000000 ) ) ;
#367 = VERTEX_POINT ( 'NONE', #212 ) ;
#368 = VERTEX_POINT ( 'NONE', #157 ) ;
#369 =( CONVERSION_BASED_UNIT ( 'INCH', #91 ) LENGTH_UNIT ( ) NAMED_UNIT ( #539 ) );
#370 = LINE ( 'NONE', #424, #247 ) ;
#371 = CARTESIAN_POINT ( 'NONE',  ( 0.8750000000000001110, 0.0000000000000000000, 0.0000000000000000000 ) ) ;
#372 = LINE ( 'NONE', #555, #364 ) ;
#373 = DIRECTION ( 'NONE',  ( 0.0000000000000000000, -0.0000000000000000000, 1.000000000000000000 ) ) ;
#374 = EDGE_CURVE ( 'NONE', #450, #52, #303, .T. ) ;
#375 = DIRECTION ( 'NONE',  ( 0.0000000000000000000, 0.0000000000000000000, -1.000000000000000000 ) ) ;
#376 = ORIENTED_EDGE ( 'NONE', *, *, #6, .T. ) ;
#377 = VECTOR ( 'NONE', #173, 39.37007874015748143 ) ;
#378 = CYLINDRICAL_SURFACE ( 'NONE', #578, 0.1250000000000009992 ) ;
#379 = DIRECTION ( 'NONE',  ( -0.0000000000000000000, 0.0000000000000000000, -1.000000000000000000 ) ) ;
#380 = ORIENTED_EDGE ( 'NONE', *, *, #342, .T. ) ;
#381 =( GEOMETRIC_REPRESENTATION_CONTEXT ( 3 ) GLOBAL_UNCERTAINTY_ASSIGNED_CONTEXT ( ( #236 ) ) GLOBAL_UNIT_ASSIGNED_CONTEXT ( ( #218, #325, #55 ) ) REPRESENTATION_CONTEXT ( 'NONE', 'WORKASPACE' ) );
#382 = CARTESIAN_POINT ( 'NONE',  ( -9.732208477428937346E-16, 0.8750000319142973160, 0.0000000000000000000 ) ) ;
#383 = VERTEX_POINT ( 'NONE', #491 ) ;
#384 = DIRECTION ( 'NONE',  ( -1.000000000000000000, -0.0000000000000000000, -0.0000000000000000000 ) ) ;
#385 = CIRCLE ( 'NONE', #600, 0.1250000000000000000 ) ;
#386 = FACE_OUTER_BOUND ( 'NONE', #351, .T. ) ;
#387 = EDGE_CURVE ( 'NONE', #536, #367, #481, .T. ) ;
#388 = PRESENTATION_LAYER_ASSIGNMENT (  '', '', ( #292 ) ) ;
#389 = ORIENTED_EDGE ( 'NONE', *, *, #593, .T. ) ;
#390 = ORIENTED_EDGE ( 'NONE', *, *, #44, .F. ) ;
#391 = AXIS2_PLACEMENT_3D ( 'NONE', #457, #24, #602 ) ;
#392 = PLANE ( 'NONE',  #518 ) ;
#393 = ORIENTED_EDGE ( 'NONE', *, *, #313, .T. ) ;
#394 = VERTEX_POINT ( 'NONE', #163 ) ;
#395 = LINE ( 'NONE', #611, #581 ) ;
#396 = FACE_OUTER_BOUND ( 'NONE', #412, .T. ) ;
#397 = DIRECTION ( 'NONE',  ( -1.000000000000000000, 0.0000000000000000000, 0.0000000000000000000 ) ) ;
#398 = DIRECTION ( 'NONE',  ( -1.000000000000000000, 0.0000000000000000000, 0.0000000000000000000 ) ) ;
#399 = CARTESIAN_POINT ( 'NONE',  ( 0.0000000000000000000, 0.1250000000000000000, 0.0000000000000000000 ) ) ;
#400 = AXIS2_PLACEMENT_3D ( 'NONE', #137, #476, #522 ) ;
#401 = DIRECTION ( 'NONE',  ( -1.000000000000000000, 0.0000000000000000000, 0.0000000000000000000 ) ) ;
#402 = ORIENTED_EDGE ( 'NONE', *, *, #164, .T. ) ;
#403 = EDGE_CURVE ( 'NONE', #368, #239, #572, .T. ) ;
#404 = CARTESIAN_POINT ( 'NONE',  ( 0.2500000000000000000, 0.1250000000000000000, 21.50000000000000355 ) ) ;
#405 = CYLINDRICAL_SURFACE ( 'NONE', #57, 0.1250000000000000278 ) ;
#406 = LINE ( 'NONE', #86, #288 ) ;
#407 = ADVANCED_FACE ( 'NONE', ( #216 ), #405, .F. ) ;
#408 = CARTESIAN_POINT ( 'NONE',  ( 0.8750000000000001110, 0.0000000000000000000, 21.50000000000000355 ) ) ;
#409 = CARTESIAN_POINT ( 'NONE',  ( 0.2500000000000000000, 0.1250000000000000000, 0.0000000000000000000 ) ) ;
#410 = DIRECTION ( 'NONE',  ( 0.0000000000000000000, -1.000000000000000000, 0.0000000000000000000 ) ) ;
#411 = DIRECTION ( 'NONE',  ( -1.000000000000000000, 0.0000000000000000000, 0.0000000000000000000 ) ) ;
#412 = EDGE_LOOP ( 'NONE', ( #213, #53, #159, #380 ) ) ;
#413 = CARTESIAN_POINT ( 'NONE',  ( 0.1250000000000000000, 0.7500000319142972049, 21.50000000000000355 ) ) ;
#414 = ORIENTED_EDGE ( 'NONE', *, *, #486, .T. ) ;
#415 = DIRECTION ( 'NONE',  ( 0.0000000000000000000, -1.000000000000000000, 0.0000000000000000000 ) ) ;
#416 = EDGE_LOOP ( 'NONE', ( #402, #540, #471, #297 ) ) ;
#417 = AXIS2_PLACEMENT_3D ( 'NONE', #87, #570, #275 ) ;
#418 = CYLINDRICAL_SURFACE ( 'NONE', #417, 0.1249999999999999029 ) ;
#419 = VECTOR ( 'NONE', #256, 39.37007874015748143 ) ;
#420 = CARTESIAN_POINT ( 'NONE',  ( 0.7500000000000001110, 0.8750000319142973160, 21.50000000000000355 ) ) ;
#421 = CARTESIAN_POINT ( 'NONE',  ( 0.8750000000000001110, 0.2500000000000000000, 21.50000000000000355 ) ) ;
#422 = CARTESIAN_POINT ( 'NONE',  ( 1.000000000000000000, 0.8750000319142973160, 0.0000000000000000000 ) ) ;
#423 = EDGE_CURVE ( 'NONE', #571, #383, #576, .T. ) ;
#424 = CARTESIAN_POINT ( 'NONE',  ( 0.7500000000000001110, 0.8750000319142973160, 0.0000000000000000000 ) ) ;
#425 = DIRECTION ( 'NONE',  ( -0.0000000000000000000, 1.000000000000000000, -0.0000000000000000000 ) ) ;
#426 = ORIENTED_EDGE ( 'NONE', *, *, #538, .T. ) ;
#427 = DIRECTION ( 'NONE',  ( -1.000000000000000000, 0.0000000000000000000, 0.0000000000000000000 ) ) ;
#428 = FACE_OUTER_BOUND ( 'NONE', #150, .T. ) ;
#429 = AXIS2_PLACEMENT_3D ( 'NONE', #500, #123, #352 ) ;
#430 = CARTESIAN_POINT ( 'NONE',  ( 0.1250000000000000000, 1.000000031914299203, 21.50000000000000355 ) ) ;
#431 = ORIENTED_EDGE ( 'NONE', *, *, #172, .T. ) ;
#432 = DIRECTION ( 'NONE',  ( 0.0000000000000000000, 0.0000000000000000000, -1.000000000000000000 ) ) ;
#433 = VERTEX_POINT ( 'NONE', #215 ) ;
#434 = ORIENTED_EDGE ( 'NONE', *, *, #439, .T. ) ;
#435 = EDGE_LOOP ( 'NONE', ( #264, #617, #56, #2 ) ) ;
#436 = AXIS2_PLACEMENT_3D ( 'NONE', #268, #517, #229 ) ;
#437 = ORIENTED_EDGE ( 'NONE', *, *, #462, .F. ) ;
#438 = CIRCLE ( 'NONE', #88, 0.1250000000000009992 ) ;
#439 = EDGE_CURVE ( 'NONE', #560, #184, #456, .T. ) ;
#440 = DIRECTION ( 'NONE',  ( 0.0000000000000000000, 0.0000000000000000000, -1.000000000000000000 ) ) ;
#441 = ORIENTED_EDGE ( 'NONE', *, *, #164, .F. ) ;
#442 = ORIENTED_EDGE ( 'NONE', *, *, #462, .T. ) ;
#443 = VECTOR ( 'NONE', #425, 39.37007874015748143 ) ;
#444 = DIRECTION ( 'NONE',  ( -0.0000000000000000000, 0.0000000000000000000, -1.000000000000000000 ) ) ;
#445 = EDGE_LOOP ( 'NONE', ( #485, #115, #231, #626, #437, #590, #26, #68 ) ) ;
#446 = AXIS2_PLACEMENT_3D ( 'NONE', #545, #112, #398 ) ;
#447 = CARTESIAN_POINT ( 'NONE',  ( 0.1250000000000000000, 0.0000000000000000000, 21.50000000000000355 ) ) ;
#448 = DIRECTION ( 'NONE',  ( 0.0000000000000000000, 0.0000000000000000000, -1.000000000000000000 ) ) ;
#449 = ADVANCED_FACE ( 'NONE', ( #7, #336 ), #300, .T. ) ;
#450 = VERTEX_POINT ( 'NONE', #207 ) ;
#451 = SURFACE_SIDE_STYLE ('',( #194 ) ) ;
#452 = CARTESIAN_POINT ( 'NONE',  ( 0.2500000000000000000, 0.1250000000000000000, 0.0000000000000000000 ) ) ;
#453 = DIRECTION ( 'NONE',  ( -1.000000000000000000, 0.0000000000000000000, 0.0000000000000000000 ) ) ;
#454 = ORIENTED_EDGE ( 'NONE', *, *, #547, .F. ) ;
#455 = DIMENSIONAL_EXPONENTS ( 1.000000000000000000, 0.0000000000000000000, 0.0000000000000000000, 0.0000000000000000000, 0.0000000000000000000, 0.0000000000000000000, 0.0000000000000000000 ) ;
#456 = LINE ( 'NONE', #550, #329 ) ;
#457 = CARTESIAN_POINT ( 'NONE',  ( 0.2500000000000000000, 0.2500000000000000000, 0.0000000000000000000 ) ) ;
#458 = MECHANICAL_DESIGN_GEOMETRIC_PRESENTATION_REPRESENTATION (  '', ( #292 ), #381 ) ;
#459 = ADVANCED_FACE ( 'NONE', ( #269 ), #392, .T. ) ;
#460 = DIRECTION ( 'NONE',  ( 0.0000000000000000000, 1.000000000000000000, 0.0000000000000000000 ) ) ;
#461 = ORIENTED_EDGE ( 'NONE', *, *, #153, .F. ) ;
#462 = EDGE_CURVE ( 'NONE', #203, #121, #438, .T. ) ;
#463 = SURFACE_STYLE_FILL_AREA ( #467 ) ;
#464 = CARTESIAN_POINT ( 'NONE',  ( 0.7500000000000001110, 0.8750000319142973160, 0.0000000000000000000 ) ) ;
#465 = FACE_OUTER_BOUND ( 'NONE', #38, .T. ) ;
#466 = LINE ( 'NONE', #530, #8 ) ;
#467 = FILL_AREA_STYLE ('',( #330 ) ) ;
#468 = UNCERTAINTY_MEASURE_WITH_UNIT (LENGTH_MEASURE( 1.000000000000000082E-05 ), #369, 'distance_accuracy_value', 'NONE');
#469 = ORIENTED_EDGE ( 'NONE', *, *, #342, .F. ) ;
#470 = SURFACE_SIDE_STYLE ('',( #463 ) ) ;
#471 = ORIENTED_EDGE ( 'NONE', *, *, #92, .F. ) ;
#472 = ORIENTED_EDGE ( 'NONE', *, *, #76, .T. ) ;
#473 = AXIS2_PLACEMENT_3D ( 'NONE', #89, #375, #143 ) ;
#474 = VECTOR ( 'NONE', #238, 39.37007874015748143 ) ;
#475 = DIRECTION ( 'NONE',  ( 0.0000000000000000000, 0.0000000000000000000, -1.000000000000000000 ) ) ;
#476 = DIRECTION ( 'NONE',  ( 0.0000000000000000000, 0.0000000000000000000, 1.000000000000000000 ) ) ;
#477 = EDGE_CURVE ( 'NONE', #160, #82, #187, .T. ) ;
#478 = DIRECTION ( 'NONE',  ( 0.0000000000000000000, 0.0000000000000000000, -1.000000000000000000 ) ) ;
#479 = ORIENTED_EDGE ( 'NONE', *, *, #249, .F. ) ;
#480 = DIRECTION ( 'NONE',  ( 0.0000000000000000000, 1.000000000000000000, 0.0000000000000000000 ) ) ;
#481 = CIRCLE ( 'NONE', #488, 0.1250000000000000278 ) ;
#482 = ORIENTED_EDGE ( 'NONE', *, *, #20, .T. ) ;
#483 = AXIS2_PLACEMENT_3D ( 'NONE', #25, #609, #29 ) ;
#484 = ORIENTED_EDGE ( 'NONE', *, *, #538, .F. ) ;
#485 = ORIENTED_EDGE ( 'NONE', *, *, #532, .F. ) ;
#486 = EDGE_CURVE ( 'NONE', #541, #142, #33, .T. ) ;
#487 = VECTOR ( 'NONE', #384, 39.37007874015748143 ) ;
#488 = AXIS2_PLACEMENT_3D ( 'NONE', #353, #444, #304 ) ;
#489 = ORIENTED_EDGE ( 'NONE', *, *, #92, .T. ) ;
#490 = FACE_OUTER_BOUND ( 'NONE', #175, .T. ) ;
#491 = CARTESIAN_POINT ( 'NONE',  ( 0.8750000000000001110, 0.2500000000000000000, 0.0000000000000000000 ) ) ;
#492 = AXIS2_PLACEMENT_3D ( 'NONE', #533, #289, #293 ) ;
#493 = CARTESIAN_POINT ( 'NONE',  ( 0.1250000000000000000, 0.7500000319142972049, 21.50000000000000355 ) ) ;
#494 = CARTESIAN_POINT ( 'NONE',  ( 0.1250000000000000000, 0.2500000000000000000, 21.50000000000000355 ) ) ;
#495 = VERTEX_POINT ( 'NONE', #30 ) ;
#496 = CARTESIAN_POINT ( 'NONE',  ( 1.000000000000000000, 0.1250000000000000278, 21.50000000000000355 ) ) ;
#497 = FACE_OUTER_BOUND ( 'NONE', #192, .T. ) ;
#498 = DIRECTION ( 'NONE',  ( -0.0000000000000000000, 1.000000000000000000, 0.0000000000000000000 ) ) ;
#499 = LINE ( 'NONE', #408, #248 ) ;
#500 = CARTESIAN_POINT ( 'NONE',  ( 0.1250000000000000000, 0.1250000000000000000, 21.50000000000000355 ) ) ;
#501 = STYLED_ITEM ( 'NONE', ( #144 ), #62 ) ;
#502 = DIRECTION ( 'NONE',  ( 0.0000000000000000000, 0.0000000000000000000, -1.000000000000000000 ) ) ;
#503 = ADVANCED_FACE ( 'NONE', ( #428 ), #174, .F. ) ;
#504 = DIRECTION ( 'NONE',  ( -1.000000000000000000, 0.0000000000000000000, 0.0000000000000000000 ) ) ;
#505 = DIRECTION ( 'NONE',  ( 0.0000000000000000000, 0.0000000000000000000, -1.000000000000000000 ) ) ;
#506 = DIRECTION ( 'NONE',  ( -1.000000000000000000, 0.0000000000000000000, 0.0000000000000000000 ) ) ;
#507 = ADVANCED_FACE ( 'NONE', ( #287 ), #98, .T. ) ;
#508 = EDGE_CURVE ( 'NONE', #571, #277, #42, .T. ) ;
#509 = CARTESIAN_POINT ( 'NONE',  ( 1.000000000000000000, 0.8750000319142973160, 21.50000000000000355 ) ) ;
#510 = CARTESIAN_POINT ( 'NONE',  ( 0.1250000000000000000, 1.000000031914299203, 0.0000000000000000000 ) ) ;
#511 = ORIENTED_EDGE ( 'NONE', *, *, #593, .F. ) ;
#512 = FILL_AREA_STYLE ('',( #584 ) ) ;
#513 = COLOUR_RGB ( '',0.7921568627450980005, 0.8196078431372548767, 0.9333333333333333481 ) ;
#514 = VECTOR ( 'NONE', #148, 39.37007874015748143 ) ;
#515 = DIRECTION ( 'NONE',  ( 0.0000000000000000000, 0.0000000000000000000, -1.000000000000000000 ) ) ;
#516 = ORIENTED_EDGE ( 'NONE', *, *, #566, .T. ) ;
#517 = DIRECTION ( 'NONE',  ( 1.000000000000000000, -0.0000000000000000000, 0.0000000000000000000 ) ) ;
#518 = AXIS2_PLACEMENT_3D ( 'NONE', #11, #114, #110 ) ;
#519 = ORIENTED_EDGE ( 'NONE', *, *, #586, .T. ) ;
#520 = CARTESIAN_POINT ( 'NONE',  ( 0.7500000000000001110, 0.7500000319142972049, 21.50000000000000355 ) ) ;
#521 = CIRCLE ( 'NONE', #492, 0.1250000000000009714 ) ;
#522 = DIRECTION ( 'NONE',  ( 1.000000000000000000, 0.0000000000000000000, 0.0000000000000000000 ) ) ;
#523 = EDGE_CURVE ( 'NONE', #607, #258, #563, .T. ) ;
#524 = ORIENTED_EDGE ( 'NONE', *, *, #619, .F. ) ;
#525 = ORIENTED_EDGE ( 'NONE', *, *, #604, .F. ) ;
#526 = AXIS2_PLACEMENT_3D ( 'NONE', #557, #74, #124 ) ;
#527 =( NAMED_UNIT ( * ) PLANE_ANGLE_UNIT ( ) SI_UNIT ( $, .RADIAN. ) );
#528 = LINE ( 'NONE', #262, #305 ) ;
#529 = CARTESIAN_POINT ( 'NONE',  ( 1.000000000000000000, 0.8750000319142973160, 21.50000000000000355 ) ) ;
#530 = CARTESIAN_POINT ( 'NONE',  ( 0.2500000000000000000, 0.8750000319142973160, 21.50000000000000355 ) ) ;
#531 = ORIENTED_EDGE ( 'NONE', *, *, #604, .T. ) ;
#532 = EDGE_CURVE ( 'NONE', #160, #541, #542, .T. ) ;
#533 = CARTESIAN_POINT ( 'NONE',  ( 0.1250000000000000000, 0.8750000319142973160, 0.0000000000000000000 ) ) ;
#534 = VERTEX_POINT ( 'NONE', #409 ) ;
#535 = PRODUCT_DEFINITION ( 'UNKNOWN', '', #4, #80 ) ;
#536 = VERTEX_POINT ( 'NONE', #464 ) ;
#537 = VERTEX_POINT ( 'NONE', #413 ) ;
#538 = EDGE_CURVE ( 'NONE', #203, #184, #395, .T. ) ;
#539 = DIMENSIONAL_EXPONENTS ( 1.000000000000000000, 0.0000000000000000000, 0.0000000000000000000, 0.0000000000000000000, 0.0000000000000000000, 0.0000000000000000000, 0.0000000000000000000 ) ;
#540 = ORIENTED_EDGE ( 'NONE', *, *, #580, .F. ) ;
#541 = VERTEX_POINT ( 'NONE', #221 ) ;
#542 = CIRCLE ( 'NONE', #556, 0.1250000000000000000 ) ;
#543 = VECTOR ( 'NONE', #214, 39.37007874015748143 ) ;
#544 = AXIS2_PLACEMENT_3D ( 'NONE', #520, #283, #138 ) ;
#545 = CARTESIAN_POINT ( 'NONE',  ( 0.2500000000000000000, 0.2500000000000000000, 21.50000000000000355 ) ) ;
#546 = DIRECTION ( 'NONE',  ( 1.000000000000000000, 0.0000000000000000000, 0.0000000000000000000 ) ) ;
#547 = EDGE_CURVE ( 'NONE', #367, #383, #41, .T. ) ;
#548 = ORIENTED_EDGE ( 'NONE', *, *, #324, .F. ) ;
#549 = CARTESIAN_POINT ( 'NONE',  ( 0.1250000000000000000, 1.000000031914299203, 21.50000000000000355 ) ) ;
#550 = CARTESIAN_POINT ( 'NONE',  ( 0.1250000000000000000, 1.000000031914299203, 0.0000000000000000000 ) ) ;
#551 = ORIENTED_EDGE ( 'NONE', *, *, #6, .F. ) ;
#552 = DIRECTION ( 'NONE',  ( 0.0000000000000000000, 0.0000000000000000000, -1.000000000000000000 ) ) ;
#553 = ADVANCED_FACE ( 'NONE', ( #233, #225 ), #177, .F. ) ;
#554 = LINE ( 'NONE', #79, #93 ) ;
#555 = CARTESIAN_POINT ( 'NONE',  ( 0.1250000000000000000, 0.7500000319142972049, 21.50000000000000355 ) ) ;
#556 = AXIS2_PLACEMENT_3D ( 'NONE', #603, #273, #506 ) ;
#557 = CARTESIAN_POINT ( 'NONE',  ( 0.1250000000000000000, 0.8750000319142973160, 21.50000000000000355 ) ) ;
#558 = EDGE_CURVE ( 'NONE', #541, #368, #585, .T. ) ;
#559 = CARTESIAN_POINT ( 'NONE',  ( 0.2500000000000000000, 0.2500000000000000000, 21.50000000000000355 ) ) ;
#560 = VERTEX_POINT ( 'NONE', #510 ) ;
#561 = ORIENTED_EDGE ( 'NONE', *, *, #296, .T. ) ;
#562 = ORIENTED_EDGE ( 'NONE', *, *, #20, .F. ) ;
#563 = CIRCLE ( 'NONE', #331, 0.1249999999999999584 ) ;
#564 = LINE ( 'NONE', #152, #156 ) ;
#565 = CARTESIAN_POINT ( 'NONE',  ( 0.7500000000000001110, 0.2500000000000000000, 21.50000000000000355 ) ) ;
#566 = EDGE_CURVE ( 'NONE', #495, #302, #597, .T. ) ;
#567 = DIRECTION ( 'NONE',  ( 0.0000000000000000000, -1.000000000000000000, 0.0000000000000000000 ) ) ;
#568 = ORIENTED_EDGE ( 'NONE', *, *, #362, .F. ) ;
#569 = CARTESIAN_POINT ( 'NONE',  ( 0.2500000000000000000, 0.1250000000000000000, 21.50000000000000355 ) ) ;
#570 = DIRECTION ( 'NONE',  ( 0.0000000000000000000, 0.0000000000000000000, -1.000000000000000000 ) ) ;
#571 = VERTEX_POINT ( 'NONE', #22 ) ;
#572 = CIRCLE ( 'NONE', #168, 0.1250000000000009714 ) ;
#573 = PRODUCT ( 'Back Wall Mid', 'Back Wall Mid', '', ( #332 ) ) ;
#574 = ORIENTED_EDGE ( 'NONE', *, *, #423, .T. ) ;
#575 = ORIENTED_EDGE ( 'NONE', *, *, #486, .F. ) ;
#576 = LINE ( 'NONE', #588, #171 ) ;
#577 = VECTOR ( 'NONE', #193, 39.37007874015748143 ) ;
#578 = AXIS2_PLACEMENT_3D ( 'NONE', #73, #220, #397 ) ;
#579 = ORIENTED_EDGE ( 'NONE', *, *, #580, .T. ) ;
#580 = EDGE_CURVE ( 'NONE', #607, #534, #135, .T. ) ;
#581 = VECTOR ( 'NONE', #317, 39.37007874015748143 ) ;
#582 = AXIS2_PLACEMENT_3D ( 'NONE', #420, #189, #373 ) ;
#583 = ORIENTED_EDGE ( 'NONE', *, *, #284, .F. ) ;
#584 = FILL_AREA_STYLE_COLOUR ( '', #513 ) ;
#585 = LINE ( 'NONE', #126, #267 ) ;
#586 = EDGE_CURVE ( 'NONE', #383, #394, #312, .T. ) ;
#587 = CYLINDRICAL_SURFACE ( 'NONE', #446, 0.1250000000000000000 ) ;
#588 = CARTESIAN_POINT ( 'NONE',  ( 0.8750000000000001110, 0.2500000000000000000, 21.50000000000000355 ) ) ;
#589 = ADVANCED_FACE ( 'NONE', ( #497 ), #199, .F. ) ;
#590 = ORIENTED_EDGE ( 'NONE', *, *, #196, .F. ) ;
#591 = DIRECTION ( 'NONE',  ( 0.0000000000000000000, -0.0000000000000000000, 1.000000000000000000 ) ) ;
#592 = ADVANCED_FACE ( 'NONE', ( #71 ), #235, .F. ) ;
#593 = EDGE_CURVE ( 'NONE', #52, #536, #370, .T. ) ;
#594 = DIRECTION ( 'NONE',  ( 1.000000000000000000, 0.0000000000000000000, 0.0000000000000000000 ) ) ;
#595 = ORIENTED_EDGE ( 'NONE', *, *, #387, .T. ) ;
#596 = ADVANCED_FACE ( 'NONE', ( #186 ), #608, .F. ) ;
#597 = CIRCLE ( 'NONE', #39, 0.1249999999999999029 ) ;
#598 = CIRCLE ( 'NONE', #96, 0.1250000000000009992 ) ;
#599 = CARTESIAN_POINT ( 'NONE',  ( 0.8750000000000001110, 0.8750000319142973160, 0.0000000000000000000 ) ) ;
#600 = AXIS2_PLACEMENT_3D ( 'NONE', #286, #475, #427 ) ;
#601 = CARTESIAN_POINT ( 'NONE',  ( 0.8750000000000001110, 0.2500000000000000000, 0.0000000000000000000 ) ) ;
#602 = DIRECTION ( 'NONE',  ( 1.000000000000000000, 0.0000000000000000000, 0.0000000000000000000 ) ) ;
#603 = CARTESIAN_POINT ( 'NONE',  ( 0.1250000000000000000, 0.1250000000000000000, 21.50000000000000355 ) ) ;
#604 = EDGE_CURVE ( 'NONE', #345, #571, #251, .T. ) ;
#605 = DIRECTION ( 'NONE',  ( -1.000000000000000000, -0.0000000000000000000, -0.0000000000000000000 ) ) ;
#606 = ADVANCED_FACE ( 'NONE', ( #242 ), #615, .F. ) ;
#607 = VERTEX_POINT ( 'NONE', #232 ) ;
#608 = CYLINDRICAL_SURFACE ( 'NONE', #544, 0.1250000000000000278 ) ;
#609 = DIRECTION ( 'NONE',  ( 0.0000000000000000000, 0.0000000000000000000, -1.000000000000000000 ) ) ;
#610 = ORIENTED_EDGE ( 'NONE', *, *, #387, .F. ) ;
#611 = CARTESIAN_POINT ( 'NONE',  ( 0.8750000000000001110, 1.000000031914298093, 21.50000000000000355 ) ) ;
#612 = APPLICATION_CONTEXT ( 'automotive_design' ) ;
#613 = ORIENTED_EDGE ( 'NONE', *, *, #271, .F. ) ;
#614 = AXIS2_PLACEMENT_3D ( 'NONE', #569, #567, #278 ) ;
#615 = PLANE ( 'NONE',  #614 ) ;
#616 = CARTESIAN_POINT ( 'NONE',  ( 0.1250000000000000000, 0.7500000319142972049, 0.0000000000000000000 ) ) ;
#617 = ORIENTED_EDGE ( 'NONE', *, *, #172, .F. ) ;
#618 = VECTOR ( 'NONE', #241, 39.37007874015748143 ) ;
#619 = EDGE_CURVE ( 'NONE', #82, #142, #385, .T. ) ;
#620 =( NAMED_UNIT ( * ) SI_UNIT ( $, .STERADIAN. ) SOLID_ANGLE_UNIT ( ) );
#621 = CARTESIAN_POINT ( 'NONE',  ( 0.7500000000000001110, 0.8750000319142973160, 21.50000000000000355 ) ) ;
#622 =( LENGTH_UNIT ( ) NAMED_UNIT ( * ) SI_UNIT ( $, .METRE. ) );
#623 = PLANE ( 'NONE',  #105 ) ;
#624 = ORIENTED_EDGE ( 'NONE', *, *, #1, .F. ) ;
#625 = CARTESIAN_POINT ( 'NONE',  ( 0.2500000000000000000, 0.1250000000000000000, 21.50000000000000355 ) ) ;
#626 = ORIENTED_EDGE ( 'NONE', *, *, #313, .F. ) ;
#627 = AXIS2_PLACEMENT_3D ( 'NONE', #358, #350, #265 ) ;
ENDSEC;
END-ISO-10303-21;
