ISO-10303-21;
HEADER;
FILE_DESCRIPTION (( 'STEP AP214' ),
    '1' );
FILE_NAME ('Camera Case.step',
    '2018-09-03T05:44:35',
    ( '' ),
    ( '' ),
    'SwSTEP 2.0',
    'SolidWorks 2018',
    '' );
FILE_SCHEMA (( 'AUTOMOTIVE_DESIGN' ));
ENDSEC;

DATA;
#1 = DIRECTION ( 'NONE',  ( 0.0000000000000000000, -1.000000000000000000, 0.0000000000000000000 ) ) ;
#2 = VERTEX_POINT ( 'NONE', #843 ) ;
#3 = PLANE ( 'NONE',  #933 ) ;
#4 = EDGE_LOOP ( 'NONE', ( #53, #866, #742, #1326 ) ) ;
#5 = CARTESIAN_POINT ( 'NONE',  ( 0.4900000000000000466, 0.1499999999999999944, -0.3000000159571492020 ) ) ;
#6 = AXIS2_PLACEMENT_3D ( 'NONE', #311, #832, #1158 ) ;
#7 = ORIENTED_EDGE ( 'NONE', *, *, #204, .T. ) ;
#8 = VECTOR ( 'NONE', #945, 39.37007874015748143 ) ;
#9 = DIRECTION ( 'NONE',  ( 1.000000000000000000, 0.0000000000000000000, 0.0000000000000000000 ) ) ;
#10 = EDGE_LOOP ( 'NONE', ( #344, #283, #1009, #334 ) ) ;
#11 = LINE ( 'NONE', #998, #428 ) ;
#12 = ORIENTED_EDGE ( 'NONE', *, *, #1236, .T. ) ;
#13 = DIRECTION ( 'NONE',  ( 0.0000000000000000000, -1.000000000000000000, 0.0000000000000000000 ) ) ;
#14 = ORIENTED_EDGE ( 'NONE', *, *, #1152, .F. ) ;
#15 = CARTESIAN_POINT ( 'NONE',  ( 1.290000000000000258, 0.4499999999999999556, -0.9750000319142972938 ) ) ;
#16 = CARTESIAN_POINT ( 'NONE',  ( 0.9100000000000000311, 0.0000000000000000000, -0.3500000000000000333 ) ) ;
#17 = EDGE_CURVE ( 'NONE', #868, #282, #391, .T. ) ;
#18 = AXIS2_PLACEMENT_3D ( 'NONE', #1253, #615, #551 ) ;
#19 = DIRECTION ( 'NONE',  ( -1.000000000000000000, 0.0000000000000000000, 0.0000000000000000000 ) ) ;
#20 = VERTEX_POINT ( 'NONE', #321 ) ;
#21 = ADVANCED_FACE ( 'NONE', ( #613, #271, #1183, #1144, #443, #1023 ), #1285, .T. ) ;
#22 = VERTEX_POINT ( 'NONE', #1171 ) ;
#23 = CARTESIAN_POINT ( 'NONE',  ( -0.5100000000000000089, 0.6500000000000000222, 0.5749999680857016404 ) ) ;
#24 = DIRECTION ( 'NONE',  ( 0.0000000000000000000, -1.000000000000000000, 0.0000000000000000000 ) ) ;
#25 = PRESENTATION_STYLE_ASSIGNMENT (( #1323 ) ) ;
#26 = ORIENTED_EDGE ( 'NONE', *, *, #835, .T. ) ;
#27 = LINE ( 'NONE', #404, #373 ) ;
#28 = DIRECTION ( 'NONE',  ( 0.0000000000000000000, 1.000000000000000000, 0.0000000000000000000 ) ) ;
#29 = ORIENTED_EDGE ( 'NONE', *, *, #17, .T. ) ;
#30 = LINE ( 'NONE', #1106, #781 ) ;
#31 =( LENGTH_UNIT ( ) NAMED_UNIT ( * ) SI_UNIT ( $, .METRE. ) );
#32 = DIRECTION ( 'NONE',  ( 1.000000000000000000, 0.0000000000000000000, 0.0000000000000000000 ) ) ;
#33 = EDGE_CURVE ( 'NONE', #1232, #210, #1214, .T. ) ;
#34 = DIRECTION ( 'NONE',  ( -1.000000000000000000, 0.0000000000000000000, 0.0000000000000000000 ) ) ;
#35 = PRODUCT_DEFINITION_FORMATION_WITH_SPECIFIED_SOURCE ( 'ANY', '', #318, .NOT_KNOWN. ) ;
#36 = VERTEX_POINT ( 'NONE', #728 ) ;
#37 = PLANE ( 'NONE',  #235 ) ;
#38 = ORIENTED_EDGE ( 'NONE', *, *, #346, .T. ) ;
#39 =( LENGTH_UNIT ( ) NAMED_UNIT ( * ) SI_UNIT ( $, .METRE. ) );
#40 = DIRECTION ( 'NONE',  ( 1.000000000000000000, 0.0000000000000000000, 0.0000000000000000000 ) ) ;
#41 = DIRECTION ( 'NONE',  ( -1.000000000000000000, 0.0000000000000000000, -1.748382715945129988E-16 ) ) ;
#42 = EDGE_CURVE ( 'NONE', #1120, #471, #1373, .T. ) ;
#43 = LINE ( 'NONE', #87, #764 ) ;
#44 = AXIS2_PLACEMENT_3D ( 'NONE', #337, #207, #730 ) ;
#45 = VERTEX_POINT ( 'NONE', #1266 ) ;
#46 = LINE ( 'NONE', #195, #531 ) ;
#47 = ORIENTED_EDGE ( 'NONE', *, *, #652, .T. ) ;
#48 = FACE_BOUND ( 'NONE', #52, .T. ) ;
#49 = ORIENTED_EDGE ( 'NONE', *, *, #472, .F. ) ;
#50 = PLANE ( 'NONE',  #353 ) ;
#51 = AXIS2_PLACEMENT_3D ( 'NONE', #1166, #745, #947 ) ;
#52 = EDGE_LOOP ( 'NONE', ( #618, #68, #780, #115 ) ) ;
#53 = ORIENTED_EDGE ( 'NONE', *, *, #488, .F. ) ;
#54 = CARTESIAN_POINT ( 'NONE',  ( 0.9100000000000000311, 0.1499999999999999944, -0.8800000000000000044 ) ) ;
#55 = VECTOR ( 'NONE', #330, 39.37007874015748143 ) ;
#56 = LINE ( 'NONE', #105, #202 ) ;
#57 = DIRECTION ( 'NONE',  ( -1.000000000000000000, 0.0000000000000000000, 0.0000000000000000000 ) ) ;
#58 = VECTOR ( 'NONE', #182, 39.37007874015748143 ) ;
#59 = ORIENTED_EDGE ( 'NONE', *, *, #536, .T. ) ;
#60 = LINE ( 'NONE', #697, #565 ) ;
#61 = AXIS2_PLACEMENT_3D ( 'NONE', #211, #13, #435 ) ;
#62 = ORIENTED_EDGE ( 'NONE', *, *, #168, .T. ) ;
#63 = ADVANCED_FACE ( 'NONE', ( #341 ), #331, .T. ) ;
#64 = DIRECTION ( 'NONE',  ( 1.000000000000000000, 0.0000000000000000000, 0.0000000000000000000 ) ) ;
#65 = EDGE_CURVE ( 'NONE', #274, #122, #956, .T. ) ;
#66 = SURFACE_STYLE_USAGE ( .BOTH. , #174 ) ;
#67 = ORIENTED_EDGE ( 'NONE', *, *, #569, .T. ) ;
#68 = ORIENTED_EDGE ( 'NONE', *, *, #1101, .T. ) ;
#69 = DIRECTION ( 'NONE',  ( 1.000000000000000000, 0.0000000000000000000, 0.0000000000000000000 ) ) ;
#70 = DIMENSIONAL_EXPONENTS ( 1.000000000000000000, 0.0000000000000000000, 0.0000000000000000000, 0.0000000000000000000, 0.0000000000000000000, 0.0000000000000000000, 0.0000000000000000000 ) ;
#71 = DIRECTION ( 'NONE',  ( 1.000000000000000000, 0.0000000000000000000, 0.0000000000000000000 ) ) ;
#72 = LINE ( 'NONE', #1178, #560 ) ;
#73 = ORIENTED_EDGE ( 'NONE', *, *, #472, .T. ) ;
#74 = EDGE_CURVE ( 'NONE', #911, #1187, #1197, .T. ) ;
#75 = VERTEX_POINT ( 'NONE', #1064 ) ;
#76 = LINE ( 'NONE', #147, #660 ) ;
#77 = EDGE_LOOP ( 'NONE', ( #1179, #522 ) ) ;
#78 = DIRECTION ( 'NONE',  ( 1.000000000000000000, 0.0000000000000000000, 0.0000000000000000000 ) ) ;
#79 = DIRECTION ( 'NONE',  ( 1.000000000000000000, 0.0000000000000000000, 0.0000000000000000000 ) ) ;
#80 = ORIENTED_EDGE ( 'NONE', *, *, #787, .F. ) ;
#81 = EDGE_CURVE ( 'NONE', #45, #524, #1306, .T. ) ;
#82 = ORIENTED_EDGE ( 'NONE', *, *, #322, .T. ) ;
#83 = PRODUCT_DEFINITION_SHAPE ( 'NONE', 'NONE',  #1263 ) ;
#84 = AXIS2_PLACEMENT_3D ( 'NONE', #743, #1056, #1282 ) ;
#85 = VECTOR ( 'NONE', #726, 39.37007874015748143 ) ;
#86 = EDGE_LOOP ( 'NONE', ( #870, #173, #959, #1138 ) ) ;
#87 = CARTESIAN_POINT ( 'NONE',  ( -0.1499999999999999944, 0.4499999999999999556, -0.7000000319142972716 ) ) ;
#88 = LINE ( 'NONE', #107, #1109 ) ;
#89 = EDGE_CURVE ( 'NONE', #36, #580, #973, .T. ) ;
#90 = EDGE_LOOP ( 'NONE', ( #851, #1209, #790, #675 ) ) ;
#91 = CIRCLE ( 'NONE', #749, 0.03500000000000000333 ) ;
#92 = ORIENTED_EDGE ( 'NONE', *, *, #295, .T. ) ;
#93 = MECHANICAL_DESIGN_GEOMETRIC_PRESENTATION_REPRESENTATION (  '', ( #1005 ), #1308 ) ;
#94 = CARTESIAN_POINT ( 'NONE',  ( -0.4110000000000000875, 0.6500000000000000222, -0.9750000319142972938 ) ) ;
#95 = CARTESIAN_POINT ( 'NONE',  ( 0.8750000000000000000, 0.0000000000000000000, -0.3500000000000000333 ) ) ;
#96 = DIRECTION ( 'NONE',  ( -1.000000000000000000, 0.0000000000000000000, 0.0000000000000000000 ) ) ;
#97 = CARTESIAN_POINT ( 'NONE',  ( 1.129999999999999893, 0.0000000000000000000, -1.100000031914297294 ) ) ;
#98 = ORIENTED_EDGE ( 'NONE', *, *, #862, .T. ) ;
#99 = EDGE_CURVE ( 'NONE', #829, #755, #1077, .T. ) ;
#100 = EDGE_LOOP ( 'NONE', ( #1110, #1250, #1159, #516 ) ) ;
#101 = DIRECTION ( 'NONE',  ( 1.000000000000000000, 0.0000000000000000000, 0.0000000000000000000 ) ) ;
#102 = DIRECTION ( 'NONE',  ( 1.000000000000000000, 0.0000000000000000000, 0.0000000000000000000 ) ) ;
#103 = DIRECTION ( 'NONE',  ( 0.0000000000000000000, -1.000000000000000000, 0.0000000000000000000 ) ) ;
#104 = FACE_BOUND ( 'NONE', #299, .T. ) ;
#105 = CARTESIAN_POINT ( 'NONE',  ( 1.030000000000000027, 0.0000000000000000000, 0.4000000000000000222 ) ) ;
#106 = ORIENTED_EDGE ( 'NONE', *, *, #1199, .F. ) ;
#107 = CARTESIAN_POINT ( 'NONE',  ( 1.189000000000000279, 0.6500000000000000222, -0.9750000319142972938 ) ) ;
#108 = VERTEX_POINT ( 'NONE', #1151 ) ;
#109 = LENGTH_MEASURE_WITH_UNIT ( LENGTH_MEASURE( 0.02539999999999999897 ), #606 );
#110 = FACE_OUTER_BOUND ( 'NONE', #315, .T. ) ;
#111 = ORIENTED_EDGE ( 'NONE', *, *, #81, .T. ) ;
#112 = EDGE_CURVE ( 'NONE', #1187, #1120, #56, .T. ) ;
#113 = DIRECTION ( 'NONE',  ( 0.0000000000000000000, 0.0000000000000000000, 1.000000000000000000 ) ) ;
#114 = AXIS2_PLACEMENT_3D ( 'NONE', #398, #593, #796 ) ;
#115 = ORIENTED_EDGE ( 'NONE', *, *, #268, .T. ) ;
#116 = CARTESIAN_POINT ( 'NONE',  ( 1.030000000000000027, 0.1499999999999999944, 0.4000000000000000222 ) ) ;
#117 = EDGE_LOOP ( 'NONE', ( #1129, #769, #904, #1200 ) ) ;
#118 = DIRECTION ( 'NONE',  ( 0.0000000000000000000, 1.000000000000000000, 0.0000000000000000000 ) ) ;
#119 = ORIENTED_EDGE ( 'NONE', *, *, #1001, .T. ) ;
#120 = CARTESIAN_POINT ( 'NONE',  ( -0.05000000000000000278, 0.0000000000000000000, 0.4000000000000000222 ) ) ;
#121 = CIRCLE ( 'NONE', #502, 0.1010000000000000342 ) ;
#122 = VERTEX_POINT ( 'NONE', #1260 ) ;
#123 = LINE ( 'NONE', #857, #587 ) ;
#124 = ORIENTED_EDGE ( 'NONE', *, *, #693, .T. ) ;
#125 = CIRCLE ( 'NONE', #1082, 0.1010000000000000342 ) ;
#126 = ORIENTED_EDGE ( 'NONE', *, *, #74, .F. ) ;
#127 = CARTESIAN_POINT ( 'NONE',  ( -0.05000000000000000278, 0.0000000000000000000, -1.000000031914297205 ) ) ;
#128 = EDGE_CURVE ( 'NONE', #282, #755, #493, .T. ) ;
#129 = CARTESIAN_POINT ( 'NONE',  ( 0.8750000000000000000, 0.1499999999999999944, -0.3500000000000000333 ) ) ;
#130 = AXIS2_PLACEMENT_3D ( 'NONE', #278, #1117, #791 ) ;
#131 = DIRECTION ( 'NONE',  ( -1.000000000000000000, 0.0000000000000000000, 0.0000000000000000000 ) ) ;
#132 = EDGE_LOOP ( 'NONE', ( #507, #1012, #902, #206 ) ) ;
#133 = CARTESIAN_POINT ( 'NONE',  ( -0.3100000000000000533, 0.4499999999999999556, 0.3749999680857019624 ) ) ;
#134 = CARTESIAN_POINT ( 'NONE',  ( 0.4900000000000000466, 0.0000000000000000000, -0.3000000159571492020 ) ) ;
#135 = COLOUR_RGB ( '',0.6274509803921568540, 0.6274509803921568540, 0.6274509803921568540 ) ;
#136 = PRESENTATION_LAYER_ASSIGNMENT (  '', '', ( #1005 ) ) ;
#137 = CARTESIAN_POINT ( 'NONE',  ( 1.129999999999999893, 0.0000000000000000000, -1.100000031914297294 ) ) ;
#138 = EDGE_LOOP ( 'NONE', ( #604, #98, #1136, #980 ) ) ;
#139 = EDGE_LOOP ( 'NONE', ( #1083, #889, #601, #540 ) ) ;
#140 = LINE ( 'NONE', #1017, #169 ) ;
#141 = FACE_OUTER_BOUND ( 'NONE', #1058, .T. ) ;
#142 = ORIENTED_EDGE ( 'NONE', *, *, #1242, .F. ) ;
#143 = VECTOR ( 'NONE', #1295, 39.37007874015748143 ) ;
#144 = CARTESIAN_POINT ( 'NONE',  ( 1.030000000000000027, 0.1499999999999999944, -1.000000031914297205 ) ) ;
#145 = DIRECTION ( 'NONE',  ( -1.000000000000000000, 0.0000000000000000000, 0.0000000000000000000 ) ) ;
#146 = EDGE_CURVE ( 'NONE', #524, #45, #923, .T. ) ;
#147 = CARTESIAN_POINT ( 'NONE',  ( 1.489999999999999991, 0.6500000000000000222, -1.175000031914299248 ) ) ;
#148 = ORIENTED_EDGE ( 'NONE', *, *, #112, .F. ) ;
#149 = ORIENTED_EDGE ( 'NONE', *, *, #887, .T. ) ;
#150 = CARTESIAN_POINT ( 'NONE',  ( 0.9100000000000000311, 0.0000000000000000000, -0.8800000000000000044 ) ) ;
#151 = EDGE_CURVE ( 'NONE', #1319, #75, #656, .T. ) ;
#152 = VECTOR ( 'NONE', #511, 39.37007874015748143 ) ;
#153 = AXIS2_PLACEMENT_3D ( 'NONE', #133, #1086, #667 ) ;
#154 = CIRCLE ( 'NONE', #1115, 0.1009999999999999648 ) ;
#155 = VECTOR ( 'NONE', #1288, 39.37007874015748143 ) ;
#156 = EDGE_LOOP ( 'NONE', ( #1216, #538, #680, #187 ) ) ;
#157 = DIRECTION ( 'NONE',  ( 0.0000000000000000000, -1.000000000000000000, 0.0000000000000000000 ) ) ;
#158 = VERTEX_POINT ( 'NONE', #275 ) ;
#159 = LINE ( 'NONE', #1189, #982 ) ;
#160 = EDGE_CURVE ( 'NONE', #1048, #731, #222, .T. ) ;
#161 = AXIS2_PLACEMENT_3D ( 'NONE', #828, #431, #1365 ) ;
#162 = ORIENTED_EDGE ( 'NONE', *, *, #194, .F. ) ;
#163 = VERTEX_POINT ( 'NONE', #363 ) ;
#164 = ADVANCED_FACE ( 'NONE', ( #1041 ), #185, .F. ) ;
#165 = CIRCLE ( 'NONE', #725, 0.1010000000000000342 ) ;
#166 = FILL_AREA_STYLE_COLOUR ( '', #205 ) ;
#167 = VECTOR ( 'NONE', #1116, 39.37007874015748143 ) ;
#168 = EDGE_CURVE ( 'NONE', #723, #1294, #154, .T. ) ;
#169 = VECTOR ( 'NONE', #266, 39.37007874015748143 ) ;
#170 = AXIS2_PLACEMENT_3D ( 'NONE', #626, #217, #541 ) ;
#171 = ORIENTED_EDGE ( 'NONE', *, *, #128, .T. ) ;
#172 = CIRCLE ( 'NONE', #1134, 0.03500000000000000333 ) ;
#173 = ORIENTED_EDGE ( 'NONE', *, *, #582, .T. ) ;
#174 = SURFACE_SIDE_STYLE ('',( #1186 ) ) ;
#175 = CIRCLE ( 'NONE', #153, 0.1010000000000000342 ) ;
#176 = EDGE_LOOP ( 'NONE', ( #714, #92 ) ) ;
#177 = EDGE_CURVE ( 'NONE', #1049, #911, #586, .T. ) ;
#178 = DIRECTION ( 'NONE',  ( 0.0000000000000000000, -1.000000000000000000, 0.0000000000000000000 ) ) ;
#179 = ORIENTED_EDGE ( 'NONE', *, *, #1191, .T. ) ;
#180 = CARTESIAN_POINT ( 'NONE',  ( 0.1600000000000000033, 0.1499999999999999944, 0.2999999999999999889 ) ) ;
#181 = VERTEX_POINT ( 'NONE', #284 ) ;
#182 = DIRECTION ( 'NONE',  ( 1.000000000000000000, 0.0000000000000000000, 0.0000000000000000000 ) ) ;
#183 = DIRECTION ( 'NONE',  ( 0.0000000000000000000, -1.000000000000000000, 0.0000000000000000000 ) ) ;
#184 = CIRCLE ( 'NONE', #454, 0.1010000000000000342 ) ;
#185 = CYLINDRICAL_SURFACE ( 'NONE', #289, 0.03500000000000003803 ) ;
#186 = CARTESIAN_POINT ( 'NONE',  ( 0.1600000000000000033, 0.0000000000000000000, 0.3500000000000000333 ) ) ;
#187 = ORIENTED_EDGE ( 'NONE', *, *, #1275, .F. ) ;
#188 = CYLINDRICAL_SURFACE ( 'NONE', #281, 0.1009999999999999648 ) ;
#189 = VERTEX_POINT ( 'NONE', #884 ) ;
#190 = DIRECTION ( 'NONE',  ( 1.000000000000000000, 0.0000000000000000000, 0.0000000000000000000 ) ) ;
#191 = CARTESIAN_POINT ( 'NONE',  ( 1.489999999999999991, 0.6500000000000000222, -1.175000031914299248 ) ) ;
#192 = ADVANCED_FACE ( 'NONE', ( #684 ), #37, .T. ) ;
#193 = DIRECTION ( 'NONE',  ( 2.731847939173634869E-17, 0.0000000000000000000, -1.000000000000000000 ) ) ;
#194 = EDGE_CURVE ( 'NONE', #1319, #181, #1247, .T. ) ;
#195 = CARTESIAN_POINT ( 'NONE',  ( 1.489999999999999991, 0.6500000000000000222, 0.5749999680857016404 ) ) ;
#196 = ORIENTED_EDGE ( 'NONE', *, *, #981, .T. ) ;
#197 = CARTESIAN_POINT ( 'NONE',  ( 0.07000000000000000666, 0.1499999999999999944, -0.3500000000000000333 ) ) ;
#198 = CARTESIAN_POINT ( 'NONE',  ( 0.8199999999999999512, 0.0000000000000000000, 0.2999999999999999889 ) ) ;
#199 = DIRECTION ( 'NONE',  ( -1.000000000000000000, 0.0000000000000000000, -2.731847939173634869E-17 ) ) ;
#200 = CIRCLE ( 'NONE', #1210, 0.1010000000000000342 ) ;
#201 = CARTESIAN_POINT ( 'NONE',  ( 0.8199999999999999512, 0.1499999999999999944, 0.3500000000000000333 ) ) ;
#202 = VECTOR ( 'NONE', #855, 39.37007874015748143 ) ;
#203 = PLANE ( 'NONE',  #262 ) ;
#204 = EDGE_CURVE ( 'NONE', #1048, #1095, #1289, .T. ) ;
#205 = COLOUR_RGB ( '',0.6274509803921568540, 0.6274509803921568540, 0.6274509803921568540 ) ;
#206 = ORIENTED_EDGE ( 'NONE', *, *, #1014, .F. ) ;
#207 = DIRECTION ( 'NONE',  ( 0.0000000000000000000, -1.000000000000000000, 0.0000000000000000000 ) ) ;
#208 = VECTOR ( 'NONE', #1331, 39.37007874015748143 ) ;
#209 = AXIS2_PLACEMENT_3D ( 'NONE', #997, #376, #64 ) ;
#210 = VERTEX_POINT ( 'NONE', #180 ) ;
#211 = CARTESIAN_POINT ( 'NONE',  ( 1.290000000000000258, 0.6500000000000000222, 0.3749999680857019624 ) ) ;
#212 = CARTESIAN_POINT ( 'NONE',  ( -0.2090000000000000469, 0.4499999999999999556, 0.3749999680857019624 ) ) ;
#213 = DIRECTION ( 'NONE',  ( -1.000000000000000000, 0.0000000000000000000, 0.0000000000000000000 ) ) ;
#214 = VERTEX_POINT ( 'NONE', #984 ) ;
#215 = AXIS2_PLACEMENT_3D ( 'NONE', #635, #1280, #1307 ) ;
#216 = EDGE_LOOP ( 'NONE', ( #1081, #357 ) ) ;
#217 = DIRECTION ( 'NONE',  ( 0.0000000000000000000, -1.000000000000000000, 0.0000000000000000000 ) ) ;
#218 = DIRECTION ( 'NONE',  ( 0.0000000000000000000, 1.000000000000000000, 0.0000000000000000000 ) ) ;
#219 = CARTESIAN_POINT ( 'NONE',  ( 0.9100000000000000311, 0.1499999999999999944, -0.8800000000000000044 ) ) ;
#220 = VECTOR ( 'NONE', #634, 39.37007874015748143 ) ;
#221 = CARTESIAN_POINT ( 'NONE',  ( 0.1600000000000000033, 0.0000000000000000000, 0.2999999999999999889 ) ) ;
#222 = LINE ( 'NONE', #1274, #167 ) ;
#223 = EDGE_LOOP ( 'NONE', ( #648, #1102, #1065, #825 ) ) ;
#224 = LINE ( 'NONE', #702, #291 ) ;
#225 = CIRCLE ( 'NONE', #824, 0.03500000000000003803 ) ;
#226 = ORIENTED_EDGE ( 'NONE', *, *, #951, .T. ) ;
#227 = EDGE_CURVE ( 'NONE', #181, #1314, #936, .T. ) ;
#228 = ADVANCED_FACE ( 'NONE', ( #671, #239, #700, #423, #633, #1322 ), #1024, .F. ) ;
#229 = VECTOR ( 'NONE', #1196, 39.37007874015748143 ) ;
#230 = DIRECTION ( 'NONE',  ( 1.000000000000000000, 0.0000000000000000000, 0.0000000000000000000 ) ) ;
#231 =( CONVERSION_BASED_UNIT ( 'INCH', #785 ) LENGTH_UNIT ( ) NAMED_UNIT ( #285 ) );
#232 = ORIENTED_EDGE ( 'NONE', *, *, #605, .F. ) ;
#233 = EDGE_CURVE ( 'NONE', #499, #181, #43, .T. ) ;
#234 = DIRECTION ( 'NONE',  ( 0.0000000000000000000, -1.000000000000000000, 0.0000000000000000000 ) ) ;
#235 = AXIS2_PLACEMENT_3D ( 'NONE', #1202, #574, #247 ) ;
#236 = DIRECTION ( 'NONE',  ( 0.0000000000000000000, 0.0000000000000000000, 1.000000000000000000 ) ) ;
#237 = LINE ( 'NONE', #450, #1223 ) ;
#238 = DIRECTION ( 'NONE',  ( 0.0000000000000000000, 0.0000000000000000000, -1.000000000000000000 ) ) ;
#239 = FACE_BOUND ( 'NONE', #993, .T. ) ;
#240 = VECTOR ( 'NONE', #880, 39.37007874015748143 ) ;
#241 = FACE_BOUND ( 'NONE', #176, .T. ) ;
#242 = PLANE ( 'NONE',  #1066 ) ;
#243 = EDGE_LOOP ( 'NONE', ( #7, #119, #1006, #1072 ) ) ;
#244 = EDGE_CURVE ( 'NONE', #367, #1203, #779, .T. ) ;
#245 = CARTESIAN_POINT ( 'NONE',  ( 1.030000000000000027, 0.0000000000000000000, -1.000000031914297205 ) ) ;
#246 = CARTESIAN_POINT ( 'NONE',  ( -0.2090000000000000469, 0.6500000000000000222, -0.9750000319142972938 ) ) ;
#247 = DIRECTION ( 'NONE',  ( 1.000000000000000000, 0.0000000000000000000, 0.0000000000000000000 ) ) ;
#248 = EDGE_LOOP ( 'NONE', ( #396, #583, #292, #361 ) ) ;
#249 = FILL_AREA_STYLE ('',( #975 ) ) ;
#250 = ORIENTED_EDGE ( 'NONE', *, *, #422, .T. ) ;
#251 = DIRECTION ( 'NONE',  ( 2.731847939173634869E-17, 0.0000000000000000000, -1.000000000000000000 ) ) ;
#252 = EDGE_CURVE ( 'NONE', #833, #455, #184, .T. ) ;
#253 = DIRECTION ( 'NONE',  ( 0.0000000000000000000, 1.000000000000000000, 0.0000000000000000000 ) ) ;
#254 = AXIS2_PLACEMENT_3D ( 'NONE', #1180, #1, #326 ) ;
#255 = VECTOR ( 'NONE', #1255, 39.37007874015748143 ) ;
#256 = FILL_AREA_STYLE_COLOUR ( '', #135 ) ;
#257 = ORIENTED_EDGE ( 'NONE', *, *, #582, .F. ) ;
#258 = FACE_OUTER_BOUND ( 'NONE', #561, .T. ) ;
#259 = LINE ( 'NONE', #1243, #1231 ) ;
#260 = ORIENTED_EDGE ( 'NONE', *, *, #1324, .T. ) ;
#261 = FILL_AREA_STYLE ('',( #256 ) ) ;
#262 = AXIS2_PLACEMENT_3D ( 'NONE', #313, #1156, #1265 ) ;
#263 = DIRECTION ( 'NONE',  ( -1.000000000000000000, 0.0000000000000000000, 0.0000000000000000000 ) ) ;
#264 = ORIENTED_EDGE ( 'NONE', *, *, #1261, .F. ) ;
#265 = VERTEX_POINT ( 'NONE', #929 ) ;
#266 = DIRECTION ( 'NONE',  ( -1.000000000000000000, 0.0000000000000000000, 0.0000000000000000000 ) ) ;
#267 = DIRECTION ( 'NONE',  ( -1.000000000000000000, 0.0000000000000000000, 0.0000000000000000000 ) ) ;
#268 = EDGE_CURVE ( 'NONE', #885, #1120, #751, .T. ) ;
#269 = FACE_OUTER_BOUND ( 'NONE', #117, .T. ) ;
#270 = AXIS2_PLACEMENT_3D ( 'NONE', #245, #34, #236 ) ;
#271 = FACE_BOUND ( 'NONE', #842, .T. ) ;
#272 = FACE_OUTER_BOUND ( 'NONE', #286, .T. ) ;
#273 = ORIENTED_EDGE ( 'NONE', *, *, #233, .T. ) ;
#274 = VERTEX_POINT ( 'NONE', #1038 ) ;
#275 = CARTESIAN_POINT ( 'NONE',  ( 0.8750000000000000000, 0.1499999999999999944, -0.8800000000000000044 ) ) ;
#276 = DIRECTION ( 'NONE',  ( -1.000000000000000000, 0.0000000000000000000, 0.0000000000000000000 ) ) ;
#277 = EDGE_CURVE ( 'NONE', #1049, #1367, #988, .T. ) ;
#278 = CARTESIAN_POINT ( 'NONE',  ( -0.05000000000000000278, 0.0000000000000000000, -1.000000031914297205 ) ) ;
#279 = DIMENSIONAL_EXPONENTS ( 1.000000000000000000, 0.0000000000000000000, 0.0000000000000000000, 0.0000000000000000000, 0.0000000000000000000, 0.0000000000000000000, 0.0000000000000000000 ) ;
#280 = PLANE ( 'NONE',  #425 ) ;
#281 = AXIS2_PLACEMENT_3D ( 'NONE', #542, #218, #1061 ) ;
#282 = VERTEX_POINT ( 'NONE', #95 ) ;
#283 = ORIENTED_EDGE ( 'NONE', *, *, #377, .T. ) ;
#284 = CARTESIAN_POINT ( 'NONE',  ( -0.1499999999999999944, 0.4499999999999999556, -1.100000031914297294 ) ) ;
#285 = DIMENSIONAL_EXPONENTS ( 1.000000000000000000, 0.0000000000000000000, 0.0000000000000000000, 0.0000000000000000000, 0.0000000000000000000, 0.0000000000000000000, 0.0000000000000000000 ) ;
#286 = EDGE_LOOP ( 'NONE', ( #273, #162, #1335, #550 ) ) ;
#287 = CARTESIAN_POINT ( 'NONE',  ( 1.030000000000000027, 0.0000000000000000000, -1.000000031914297205 ) ) ;
#288 = LINE ( 'NONE', #818, #827 ) ;
#289 = AXIS2_PLACEMENT_3D ( 'NONE', #1346, #1228, #71 ) ;
#290 = ORIENTED_EDGE ( 'NONE', *, *, #389, .F. ) ;
#291 = VECTOR ( 'NONE', #761, 39.37007874015748143 ) ;
#292 = ORIENTED_EDGE ( 'NONE', *, *, #1368, .F. ) ;
#293 = CARTESIAN_POINT ( 'NONE',  ( 0.03500000000000000333, 0.1499999999999999944, -0.8800000000000000044 ) ) ;
#294 = DIRECTION ( 'NONE',  ( -1.000000000000000000, 0.0000000000000000000, 0.0000000000000000000 ) ) ;
#295 = EDGE_CURVE ( 'NONE', #772, #968, #200, .T. ) ;
#296 = CARTESIAN_POINT ( 'NONE',  ( -0.3100000000000000533, 0.6500000000000000222, -0.9750000319142972938 ) ) ;
#297 = PRESENTATION_LAYER_ASSIGNMENT (  '', '', ( #970 ) ) ;
#298 = VERTEX_POINT ( 'NONE', #1145 ) ;
#299 = EDGE_LOOP ( 'NONE', ( #401, #513 ) ) ;
#300 = DIRECTION ( 'NONE',  ( -1.000000000000000000, 0.0000000000000000000, 0.0000000000000000000 ) ) ;
#301 = VECTOR ( 'NONE', #1071, 39.37007874015748143 ) ;
#302 = CARTESIAN_POINT ( 'NONE',  ( 1.189000000000000279, 0.6500000000000000222, 0.3749999680857019624 ) ) ;
#303 = EDGE_CURVE ( 'NONE', #163, #1206, #611, .T. ) ;
#304 = ORIENTED_EDGE ( 'NONE', *, *, #1350, .F. ) ;
#305 = VECTOR ( 'NONE', #942, 39.37007874015748143 ) ;
#306 = CARTESIAN_POINT ( 'NONE',  ( 0.1600000000000000033, 0.0000000000000000000, 0.2999999999999999889 ) ) ;
#307 = AXIS2_PLACEMENT_3D ( 'NONE', #921, #1371, #1019 ) ;
#308 = VERTEX_POINT ( 'NONE', #830 ) ;
#309 = FACE_OUTER_BOUND ( 'NONE', #426, .T. ) ;
#310 = CARTESIAN_POINT ( 'NONE',  ( -0.05000000000000000278, 0.0000000000000000000, 0.4000000000000000222 ) ) ;
#311 = CARTESIAN_POINT ( 'NONE',  ( 1.290000000000000258, 0.6500000000000000222, -0.9750000319142972938 ) ) ;
#312 = CARTESIAN_POINT ( 'NONE',  ( 0.8199999999999999512, 0.1499999999999999944, 0.2999999999999999889 ) ) ;
#313 = CARTESIAN_POINT ( 'NONE',  ( 1.030000000000000027, 0.0000000000000000000, 0.4000000000000000222 ) ) ;
#314 = CARTESIAN_POINT ( 'NONE',  ( -0.5100000000000000089, 0.4499999999999999556, 0.5749999680857016404 ) ) ;
#315 = EDGE_LOOP ( 'NONE', ( #899, #778, #1126, #807 ) ) ;
#316 = DIRECTION ( 'NONE',  ( 1.000000000000000000, 0.0000000000000000000, 0.0000000000000000000 ) ) ;
#317 = ORIENTED_EDGE ( 'NONE', *, *, #1054, .T. ) ;
#318 = PRODUCT ( 'Camera Case', 'Camera Case', '', ( #559 ) ) ;
#319 = VECTOR ( 'NONE', #1245, 39.37007874015748143 ) ;
#320 = CARTESIAN_POINT ( 'NONE',  ( -0.05000000000000000278, 0.0000000000000000000, 0.4000000000000000222 ) ) ;
#321 = CARTESIAN_POINT ( 'NONE',  ( -0.05000000000000000278, 0.0000000000000000000, 0.4000000000000000222 ) ) ;
#322 = EDGE_CURVE ( 'NONE', #718, #861, #1338, .T. ) ;
#323 = EDGE_LOOP ( 'NONE', ( #735, #558, #1299, #1352 ) ) ;
#324 = VECTOR ( 'NONE', #932, 39.37007874015748143 ) ;
#325 = ORIENTED_EDGE ( 'NONE', *, *, #724, .F. ) ;
#326 = DIRECTION ( 'NONE',  ( -1.000000000000000000, 0.0000000000000000000, 0.0000000000000000000 ) ) ;
#327 = LINE ( 'NONE', #302, #754 ) ;
#328 = ORIENTED_EDGE ( 'NONE', *, *, #277, .T. ) ;
#329 = DIRECTION ( 'NONE',  ( 1.000000000000000000, 0.0000000000000000000, 0.0000000000000000000 ) ) ;
#330 = DIRECTION ( 'NONE',  ( 0.0000000000000000000, 0.0000000000000000000, -1.000000000000000000 ) ) ;
#331 = PLANE ( 'NONE',  #562 ) ;
#332 = PRODUCT_DEFINITION_CONTEXT ( 'detailed design', #1207, 'design' ) ;
#333 = CLOSED_SHELL ( 'NONE', ( #808, #503, #494, #1235, #386, #1240, #1222, #1140, #1033, #164, #793, #763, #910, #554, #484, #192, #21, #596 ) ) ;
#334 = ORIENTED_EDGE ( 'NONE', *, *, #1042, .F. ) ;
#335 = AXIS2_PLACEMENT_3D ( 'NONE', #1291, #651, #19 ) ;
#336 = ORIENTED_EDGE ( 'NONE', *, *, #1001, .F. ) ;
#337 = CARTESIAN_POINT ( 'NONE',  ( 0.07000000000000000666, 0.0000000000000000000, -0.3500000000000000333 ) ) ;
#338 = CARTESIAN_POINT ( 'NONE',  ( 1.030000000000000027, 0.0000000000000000000, -1.000000031914297205 ) ) ;
#339 = FACE_OUTER_BOUND ( 'NONE', #1091, .T. ) ;
#340 = PLANE ( 'NONE',  #270 ) ;
#341 = FACE_OUTER_BOUND ( 'NONE', #688, .T. ) ;
#342 = LINE ( 'NONE', #120, #1374 ) ;
#343 = CARTESIAN_POINT ( 'NONE',  ( -0.5100000000000000089, 0.6500000000000000222, 0.5749999680857016404 ) ) ;
#344 = ORIENTED_EDGE ( 'NONE', *, *, #89, .T. ) ;
#345 = LINE ( 'NONE', #805, #358 ) ;
#346 = EDGE_CURVE ( 'NONE', #755, #282, #405, .T. ) ;
#347 =( NAMED_UNIT ( * ) SI_UNIT ( $, .STERADIAN. ) SOLID_ANGLE_UNIT ( ) );
#348 = AXIS2_PLACEMENT_3D ( 'NONE', #1383, #113, #101 ) ;
#349 = LINE ( 'NONE', #451, #229 ) ;
#350 = DIRECTION ( 'NONE',  ( 0.0000000000000000000, 0.0000000000000000000, 1.000000000000000000 ) ) ;
#351 = ORIENTED_EDGE ( 'NONE', *, *, #364, .F. ) ;
#352 = ORIENTED_EDGE ( 'NONE', *, *, #1382, .T. ) ;
#353 = AXIS2_PLACEMENT_3D ( 'NONE', #1212, #263, #994 ) ;
#354 = DIRECTION ( 'NONE',  ( 0.0000000000000000000, 0.0000000000000000000, 1.000000000000000000 ) ) ;
#355 = CARTESIAN_POINT ( 'NONE',  ( -0.05000000000000000278, 0.1499999999999999944, -1.000000031914297205 ) ) ;
#356 = VECTOR ( 'NONE', #1040, 39.37007874015748143 ) ;
#357 = ORIENTED_EDGE ( 'NONE', *, *, #1163, .T. ) ;
#358 = VECTOR ( 'NONE', #1237, 39.37007874015748143 ) ;
#359 = LINE ( 'NONE', #783, #717 ) ;
#360 = CARTESIAN_POINT ( 'NONE',  ( -0.3100000000000000533, 0.4499999999999999556, -0.9750000319142972938 ) ) ;
#361 = ORIENTED_EDGE ( 'NONE', *, *, #739, .T. ) ;
#362 = PLANE ( 'NONE',  #1287 ) ;
#363 = CARTESIAN_POINT ( 'NONE',  ( -0.05000000000000000278, 0.1499999999999999944, 0.4000000000000000222 ) ) ;
#364 = EDGE_CURVE ( 'NONE', #1257, #471, #491, .T. ) ;
#365 =( LENGTH_UNIT ( ) NAMED_UNIT ( * ) SI_UNIT ( $, .METRE. ) );
#366 = ORIENTED_EDGE ( 'NONE', *, *, #252, .F. ) ;
#367 = VERTEX_POINT ( 'NONE', #711 ) ;
#368 = DIRECTION ( 'NONE',  ( 1.000000000000000000, 0.0000000000000000000, 0.0000000000000000000 ) ) ;
#369 = EDGE_CURVE ( 'NONE', #784, #455, #288, .T. ) ;
#370 = LINE ( 'NONE', #320, #1357 ) ;
#371 = VECTOR ( 'NONE', #699, 39.37007874015748143 ) ;
#372 = CARTESIAN_POINT ( 'NONE',  ( 0.1699999999999999845, 0.4499999999999999556, 0.5000000000000000000 ) ) ;
#373 = VECTOR ( 'NONE', #1149, 39.37007874015748143 ) ;
#374 = EDGE_LOOP ( 'NONE', ( #47, #1227, #581, #336 ) ) ;
#375 = ORIENTED_EDGE ( 'NONE', *, *, #244, .F. ) ;
#376 = DIRECTION ( 'NONE',  ( 0.0000000000000000000, -1.000000000000000000, 0.0000000000000000000 ) ) ;
#377 = EDGE_CURVE ( 'NONE', #580, #822, #683, .T. ) ;
#378 = UNCERTAINTY_MEASURE_WITH_UNIT (LENGTH_MEASURE( 1.000000000000000082E-05 ), #231, 'distance_accuracy_value', 'NONE');
#379 = CARTESIAN_POINT ( 'NONE',  ( -0.05000000000000000278, 0.6500000000000000222, -1.000000031914297205 ) ) ;
#380 = VECTOR ( 'NONE', #631, 39.37007874015748143 ) ;
#381 =( NAMED_UNIT ( * ) SI_UNIT ( $, .STERADIAN. ) SOLID_ANGLE_UNIT ( ) );
#382 = AXIS2_PLACEMENT_3D ( 'NONE', #734, #432, #1278 ) ;
#383 = DIRECTION ( 'NONE',  ( 0.0000000000000000000, 0.0000000000000000000, -1.000000000000000000 ) ) ;
#384 = CARTESIAN_POINT ( 'NONE',  ( 0.07000000000000000666, 0.0000000000000000000, -0.8800000000000000044 ) ) ;
#385 = VERTEX_POINT ( 'NONE', #1354 ) ;
#386 = ADVANCED_FACE ( 'NONE', ( #1125 ), #918, .T. ) ;
#387 = ORIENTED_EDGE ( 'NONE', *, *, #569, .F. ) ;
#388 = PLANE ( 'NONE',  #130 ) ;
#389 = EDGE_CURVE ( 'NONE', #385, #833, #850, .T. ) ;
#390 = LINE ( 'NONE', #127, #727 ) ;
#391 = LINE ( 'NONE', #539, #475 ) ;
#392 = EDGE_LOOP ( 'NONE', ( #813, #250, #82, #196 ) ) ;
#393 = CIRCLE ( 'NONE', #209, 0.03500000000000000333 ) ;
#394 = ORIENTED_EDGE ( 'NONE', *, *, #887, .F. ) ;
#395 = CYLINDRICAL_SURFACE ( 'NONE', #51, 0.03500000000000000333 ) ;
#396 = ORIENTED_EDGE ( 'NONE', *, *, #588, .T. ) ;
#397 = EDGE_CURVE ( 'NONE', #731, #2, #1094, .T. ) ;
#398 = CARTESIAN_POINT ( 'NONE',  ( 1.290000000000000258, 0.6500000000000000222, 0.3749999680857019624 ) ) ;
#399 = DIRECTION ( 'NONE',  ( 1.000000000000000000, 0.0000000000000000000, 0.0000000000000000000 ) ) ;
#400 = ADVANCED_FACE ( 'NONE', ( #512 ), #3, .T. ) ;
#401 = ORIENTED_EDGE ( 'NONE', *, *, #642, .F. ) ;
#402 = CARTESIAN_POINT ( 'NONE',  ( 1.030000000000000027, 0.0000000000000000000, 0.4000000000000000222 ) ) ;
#403 = ORIENTED_EDGE ( 'NONE', *, *, #346, .F. ) ;
#404 = CARTESIAN_POINT ( 'NONE',  ( -0.05000000000000000278, 0.6500000000000000222, 0.4000000000000000222 ) ) ;
#405 = CIRCLE ( 'NONE', #1205, 0.03500000000000003803 ) ;
#406 = AXIS2_PLACEMENT_3D ( 'NONE', #15, #1283, #750 ) ;
#407 = VECTOR ( 'NONE', #905, 39.37007874015748143 ) ;
#408 = VECTOR ( 'NONE', #520, 39.37007874015748143 ) ;
#409 = EDGE_LOOP ( 'NONE', ( #770, #681, #467, #448 ) ) ;
#410 = ORIENTED_EDGE ( 'NONE', *, *, #941, .T. ) ;
#411 = CARTESIAN_POINT ( 'NONE',  ( 1.030000000000000027, 0.6500000000000000222, 0.4000000000000000222 ) ) ;
#412 = DIRECTION ( 'NONE',  ( -1.000000000000000000, 0.0000000000000000000, 0.0000000000000000000 ) ) ;
#413 = EDGE_CURVE ( 'NONE', #607, #163, #72, .T. ) ;
#414 = DIRECTION ( 'NONE',  ( 0.0000000000000000000, -1.000000000000000000, 0.0000000000000000000 ) ) ;
#415 = AXIS2_PLACEMENT_3D ( 'NONE', #456, #354, #775 ) ;
#416 = DIRECTION ( 'NONE',  ( 0.0000000000000000000, -1.000000000000000000, 0.0000000000000000000 ) ) ;
#417 = EDGE_LOOP ( 'NONE', ( #226, #1119, #529, #325 ) ) ;
#418 = CARTESIAN_POINT ( 'NONE',  ( 0.07000000000000000666, 0.0000000000000000000, -0.3500000000000000333 ) ) ;
#419 = DIRECTION ( 'NONE',  ( 0.0000000000000000000, 1.000000000000000000, 0.0000000000000000000 ) ) ;
#420 = FACE_BOUND ( 'NONE', #77, .T. ) ;
#421 = DIRECTION ( 'NONE',  ( 0.0000000000000000000, 0.0000000000000000000, -1.000000000000000000 ) ) ;
#422 = EDGE_CURVE ( 'NONE', #20, #718, #370, .T. ) ;
#423 = FACE_BOUND ( 'NONE', #1157, .T. ) ;
#424 = CARTESIAN_POINT ( 'NONE',  ( -0.5100000000000000089, 0.4499999999999999556, -1.175000031914299248 ) ) ;
#425 = AXIS2_PLACEMENT_3D ( 'NONE', #1123, #419, #1254 ) ;
#426 = EDGE_LOOP ( 'NONE', ( #595, #1330, #913, #1302 ) ) ;
#427 = DIRECTION ( 'NONE',  ( 0.0000000000000000000, -1.000000000000000000, 0.0000000000000000000 ) ) ;
#428 = VECTOR ( 'NONE', #706, 39.37007874015748143 ) ;
#429 = VERTEX_POINT ( 'NONE', #439 ) ;
#430 = CARTESIAN_POINT ( 'NONE',  ( -0.1499999999999999944, 0.0000000000000000000, -1.100000031914297294 ) ) ;
#431 = DIRECTION ( 'NONE',  ( 0.0000000000000000000, -1.000000000000000000, 0.0000000000000000000 ) ) ;
#432 = DIRECTION ( 'NONE',  ( 0.0000000000000000000, -1.000000000000000000, 0.0000000000000000000 ) ) ;
#433 = CARTESIAN_POINT ( 'NONE',  ( 1.030000000000000027, 0.0000000000000000000, -1.000000031914297205 ) ) ;
#434 = EDGE_CURVE ( 'NONE', #1206, #628, #546, .T. ) ;
#435 = DIRECTION ( 'NONE',  ( -1.000000000000000000, 0.0000000000000000000, 0.0000000000000000000 ) ) ;
#436 = DIRECTION ( 'NONE',  ( 1.000000000000000000, 0.0000000000000000000, 0.0000000000000000000 ) ) ;
#437 = ORIENTED_EDGE ( 'NONE', *, *, #277, .F. ) ;
#438 = CARTESIAN_POINT ( 'NONE',  ( 1.129999999999999893, 0.0000000000000000000, 0.5000000000000000000 ) ) ;
#439 = CARTESIAN_POINT ( 'NONE',  ( 1.030000000000000027, 0.0000000000000000000, 0.4000000000000000222 ) ) ;
#440 = ORIENTED_EDGE ( 'NONE', *, *, #844, .T. ) ;
#441 = CARTESIAN_POINT ( 'NONE',  ( -0.1499999999999999944, 0.0000000000000000000, 0.5000000000000000000 ) ) ;
#442 = CYLINDRICAL_SURFACE ( 'NONE', #335, 0.1010000000000000342 ) ;
#443 = FACE_BOUND ( 'NONE', #564, .T. ) ;
#444 = CIRCLE ( 'NONE', #61, 0.1009999999999999648 ) ;
#445 = VERTEX_POINT ( 'NONE', #1385 ) ;
#446 = DIRECTION ( 'NONE',  ( 0.0000000000000000000, -1.000000000000000000, 0.0000000000000000000 ) ) ;
#447 = FACE_OUTER_BOUND ( 'NONE', #1088, .T. ) ;
#448 = ORIENTED_EDGE ( 'NONE', *, *, #295, .F. ) ;
#449 = ADVANCED_FACE ( 'NONE', ( #1143 ), #585, .F. ) ;
#450 = CARTESIAN_POINT ( 'NONE',  ( 0.03500000000000000333, 0.0000000000000000000, -0.3500000000000000333 ) ) ;
#451 = CARTESIAN_POINT ( 'NONE',  ( 0.1050000000000000100, 0.0000000000000000000, -0.8800000000000000044 ) ) ;
#452 = DIRECTION ( 'NONE',  ( -1.000000000000000000, 0.0000000000000000000, 0.0000000000000000000 ) ) ;
#453 = ADVANCED_FACE ( 'NONE', ( #1321 ), #1181, .F. ) ;
#454 = AXIS2_PLACEMENT_3D ( 'NONE', #1252, #1132, #610 ) ;
#455 = VERTEX_POINT ( 'NONE', #1069 ) ;
#456 = CARTESIAN_POINT ( 'NONE',  ( 0.0000000000000000000, 0.0000000000000000000, 0.0000000000000000000 ) ) ;
#457 = FACE_BOUND ( 'NONE', #466, .T. ) ;
#458 =( CONVERSION_BASED_UNIT ( 'INCH', #592 ) LENGTH_UNIT ( ) NAMED_UNIT ( #279 ) );
#459 = VERTEX_POINT ( 'NONE', #954 ) ;
#460 = CARTESIAN_POINT ( 'NONE',  ( 1.129999999999999893, 0.4499999999999999556, 0.5000000000000000000 ) ) ;
#461 = EDGE_LOOP ( 'NONE', ( #708, #1079 ) ) ;
#462 = VECTOR ( 'NONE', #492, 39.37007874015748143 ) ;
#463 = EDGE_CURVE ( 'NONE', #2, #210, #811, .T. ) ;
#464 = EDGE_LOOP ( 'NONE', ( #67, #1361, #505, #1279 ) ) ;
#465 = CYLINDRICAL_SURFACE ( 'NONE', #798, 0.03500000000000000333 ) ;
#466 = EDGE_LOOP ( 'NONE', ( #495, #1029 ) ) ;
#467 = ORIENTED_EDGE ( 'NONE', *, *, #787, .T. ) ;
#468 = LINE ( 'NONE', #23, #143 ) ;
#469 = CARTESIAN_POINT ( 'NONE',  ( -0.05000000000000000278, 0.6500000000000000222, -1.000000031914297205 ) ) ;
#470 = CARTESIAN_POINT ( 'NONE',  ( -0.5100000000000000089, 0.4499999999999999556, 0.5749999680857016404 ) ) ;
#471 = VERTEX_POINT ( 'NONE', #553 ) ;
#472 = EDGE_CURVE ( 'NONE', #784, #385, #1039, .T. ) ;
#473 = EDGE_LOOP ( 'NONE', ( #1241, #352, #264, #478 ) ) ;
#474 = FACE_OUTER_BOUND ( 'NONE', #100, .T. ) ;
#475 = VECTOR ( 'NONE', #849, 39.37007874015748143 ) ;
#476 = CIRCLE ( 'NONE', #170, 0.03500000000000003803 ) ;
#477 = DIRECTION ( 'NONE',  ( 1.000000000000000000, 0.0000000000000000000, 0.0000000000000000000 ) ) ;
#478 = ORIENTED_EDGE ( 'NONE', *, *, #709, .F. ) ;
#479 = LINE ( 'NONE', #438, #1269 ) ;
#480 = CLOSED_SHELL ( 'NONE', ( #901, #509, #449, #453, #1026, #803, #965, #517, #1133, #650, #701, #612, #228, #400, #1003, #1336, #815, #63, #871, #707, #1112, #721, #898 ) ) ;
#481 = AXIS2_PLACEMENT_3D ( 'NONE', #789, #584, #477 ) ;
#482 = VECTOR ( 'NONE', #966, 39.37007874015748143 ) ;
#483 = CARTESIAN_POINT ( 'NONE',  ( -0.1499999999999999944, 0.0000000000000000000, 0.5000000000000000000 ) ) ;
#484 = ADVANCED_FACE ( 'NONE', ( #713 ), #203, .T. ) ;
#485 = EDGE_LOOP ( 'NONE', ( #317, #1011, #1113, #148 ) ) ;
#486 = CARTESIAN_POINT ( 'NONE',  ( 1.030000000000000027, 0.6500000000000000222, -1.000000031914297205 ) ) ;
#487 = DIRECTION ( 'NONE',  ( 0.0000000000000000000, 0.0000000000000000000, -1.000000000000000000 ) ) ;
#488 = EDGE_CURVE ( 'NONE', #158, #1251, #1286, .T. ) ;
#489 = CARTESIAN_POINT ( 'NONE',  ( -0.05000000000000000278, 0.0000000000000000000, -1.000000031914297205 ) ) ;
#490 = AXIS2_PLACEMENT_3D ( 'NONE', #1142, #1364, #720 ) ;
#491 = LINE ( 'NONE', #310, #1062 ) ;
#492 = DIRECTION ( 'NONE',  ( 1.000000000000000000, 0.0000000000000000000, 0.0000000000000000000 ) ) ;
#493 = CIRCLE ( 'NONE', #719, 0.03500000000000003803 ) ;
#494 = ADVANCED_FACE ( 'NONE', ( #269 ), #955, .F. ) ;
#495 = ORIENTED_EDGE ( 'NONE', *, *, #907, .F. ) ;
#496 = CARTESIAN_POINT ( 'NONE',  ( 1.290000000000000258, 0.4499999999999999556, 0.3749999680857019624 ) ) ;
#497 = VERTEX_POINT ( 'NONE', #640 ) ;
#498 = LINE ( 'NONE', #94, #1293 ) ;
#499 = VERTEX_POINT ( 'NONE', #848 ) ;
#500 = EDGE_CURVE ( 'NONE', #497, #158, #794, .T. ) ;
#501 = CARTESIAN_POINT ( 'NONE',  ( 0.1600000000000000033, 0.1499999999999999944, 0.2999999999999999889 ) ) ;
#502 = AXIS2_PLACEMENT_3D ( 'NONE', #958, #1078, #452 ) ;
#503 = ADVANCED_FACE ( 'NONE', ( #339 ), #1076, .F. ) ;
#504 = DIRECTION ( 'NONE',  ( 0.0000000000000000000, 1.000000000000000000, 0.0000000000000000000 ) ) ;
#505 = ORIENTED_EDGE ( 'NONE', *, *, #1073, .F. ) ;
#506 = CARTESIAN_POINT ( 'NONE',  ( 0.8199999999999999512, 0.0000000000000000000, 0.3500000000000000333 ) ) ;
#507 = ORIENTED_EDGE ( 'NONE', *, *, #74, .T. ) ;
#508 =( NAMED_UNIT ( * ) SI_UNIT ( $, .STERADIAN. ) SOLID_ANGLE_UNIT ( ) );
#509 = ADVANCED_FACE ( 'NONE', ( #1021 ), #600, .F. ) ;
#510 = EDGE_CURVE ( 'NONE', #1294, #723, #879, .T. ) ;
#511 = DIRECTION ( 'NONE',  ( 1.000000000000000000, 0.0000000000000000000, 0.0000000000000000000 ) ) ;
#512 = FACE_OUTER_BOUND ( 'NONE', #139, .T. ) ;
#513 = ORIENTED_EDGE ( 'NONE', *, *, #748, .F. ) ;
#514 = DIRECTION ( 'NONE',  ( -2.731847939173634869E-17, 0.0000000000000000000, 1.000000000000000000 ) ) ;
#515 = FACE_OUTER_BOUND ( 'NONE', #417, .T. ) ;
#516 = ORIENTED_EDGE ( 'NONE', *, *, #526, .F. ) ;
#517 = ADVANCED_FACE ( 'NONE', ( #474 ), #442, .F. ) ;
#518 = SURFACE_STYLE_FILL_AREA ( #249 ) ;
#519 = EDGE_CURVE ( 'NONE', #1332, #772, #1246, .T. ) ;
#520 = DIRECTION ( 'NONE',  ( 0.0000000000000000000, 0.0000000000000000000, 1.000000000000000000 ) ) ;
#521 = PRODUCT_RELATED_PRODUCT_CATEGORY ( 'part', '', ( #318 ) ) ;
#522 = ORIENTED_EDGE ( 'NONE', *, *, #65, .F. ) ;
#523 = PLANE ( 'NONE',  #18 ) ;
#524 = VERTEX_POINT ( 'NONE', #967 ) ;
#525 = CARTESIAN_POINT ( 'NONE',  ( -0.05000000000000000278, 0.0000000000000000000, -1.000000031914297205 ) ) ;
#526 = EDGE_CURVE ( 'NONE', #455, #833, #121, .T. ) ;
#527 = VECTOR ( 'NONE', #1304, 39.37007874015748143 ) ;
#528 = AXIS2_PLACEMENT_3D ( 'NONE', #134, #1182, #32 ) ;
#529 = ORIENTED_EDGE ( 'NONE', *, *, #597, .F. ) ;
#530 = DIRECTION ( 'NONE',  ( 0.0000000000000000000, 1.000000000000000000, 0.0000000000000000000 ) ) ;
#531 = VECTOR ( 'NONE', #1356, 39.37007874015748143 ) ;
#532 = ORIENTED_EDGE ( 'NONE', *, *, #1236, .F. ) ;
#533 = CARTESIAN_POINT ( 'NONE',  ( 0.9100000000000000311, 0.0000000000000000000, -0.3500000000000000333 ) ) ;
#534 = CARTESIAN_POINT ( 'NONE',  ( 1.290000000000000258, 0.6500000000000000222, -0.9750000319142972938 ) ) ;
#535 = CARTESIAN_POINT ( 'NONE',  ( 1.489999999999999991, 0.6500000000000000222, 0.5749999680857016404 ) ) ;
#536 = EDGE_CURVE ( 'NONE', #1103, #1380, #653, .T. ) ;
#537 = DIRECTION ( 'NONE',  ( 0.0000000000000000000, 0.0000000000000000000, -1.000000000000000000 ) ) ;
#538 = ORIENTED_EDGE ( 'NONE', *, *, #1298, .T. ) ;
#539 = CARTESIAN_POINT ( 'NONE',  ( 0.8750000000000000000, 0.0000000000000000000, -0.3500000000000000333 ) ) ;
#540 = ORIENTED_EDGE ( 'NONE', *, *, #194, .T. ) ;
#541 = DIRECTION ( 'NONE',  ( 1.000000000000000000, 0.0000000000000000000, 0.0000000000000000000 ) ) ;
#542 = CARTESIAN_POINT ( 'NONE',  ( 1.290000000000000258, 0.6500000000000000222, -0.9750000319142972938 ) ) ;
#543 = DIRECTION ( 'NONE',  ( 0.0000000000000000000, 1.000000000000000000, 0.0000000000000000000 ) ) ;
#544 = CARTESIAN_POINT ( 'NONE',  ( 0.9450000000000000622, 0.0000000000000000000, -0.3500000000000000333 ) ) ;
#545 = EDGE_CURVE ( 'NONE', #1027, #214, #863, .T. ) ;
#546 = LINE ( 'NONE', #1175, #55 ) ;
#547 = ORIENTED_EDGE ( 'NONE', *, *, #146, .F. ) ;
#548 = FACE_OUTER_BOUND ( 'NONE', #485, .T. ) ;
#549 = FACE_OUTER_BOUND ( 'NONE', #1177, .T. ) ;
#550 = ORIENTED_EDGE ( 'NONE', *, *, #1152, .T. ) ;
#551 = DIRECTION ( 'NONE',  ( -1.000000000000000000, 0.0000000000000000000, 0.0000000000000000000 ) ) ;
#552 = VECTOR ( 'NONE', #665, 39.37007874015748143 ) ;
#553 = CARTESIAN_POINT ( 'NONE',  ( -0.05000000000000000278, 0.6500000000000000222, 0.4000000000000000222 ) ) ;
#554 = ADVANCED_FACE ( 'NONE', ( #922 ), #768, .T. ) ;
#555 = AXIS2_PLACEMENT_3D ( 'NONE', #1284, #1059, #213 ) ;
#556 = CARTESIAN_POINT ( 'NONE',  ( 1.030000000000000027, 0.0000000000000000000, 0.4000000000000000222 ) ) ;
#557 = ORIENTED_EDGE ( 'NONE', *, *, #774, .T. ) ;
#558 = ORIENTED_EDGE ( 'NONE', *, *, #588, .F. ) ;
#559 = PRODUCT_CONTEXT ( 'NONE', #1185, 'mechanical' ) ;
#560 = VECTOR ( 'NONE', #852, 39.37007874015748143 ) ;
#561 = EDGE_LOOP ( 'NONE', ( #1192, #576, #1341, #877 ) ) ;
#562 = AXIS2_PLACEMENT_3D ( 'NONE', #930, #747, #421 ) ;
#563 = LINE ( 'NONE', #314, #715 ) ;
#564 = EDGE_LOOP ( 'NONE', ( #1366, #705, #570, #1270 ) ) ;
#565 = VECTOR ( 'NONE', #703, 39.37007874015748143 ) ;
#566 = CARTESIAN_POINT ( 'NONE',  ( 0.07000000000000000666, 0.1499999999999999944, -0.8800000000000000044 ) ) ;
#567 = SURFACE_STYLE_USAGE ( .BOTH. , #571 ) ;
#568 = DIRECTION ( 'NONE',  ( 0.0000000000000000000, 1.000000000000000000, 0.0000000000000000000 ) ) ;
#569 = EDGE_CURVE ( 'NONE', #459, #1048, #1372, .T. ) ;
#570 = ORIENTED_EDGE ( 'NONE', *, *, #924, .T. ) ;
#571 = SURFACE_SIDE_STYLE ('',( #518 ) ) ;
#572 = EDGE_LOOP ( 'NONE', ( #1281, #149, #894, #673 ) ) ;
#573 = DIRECTION ( 'NONE',  ( 0.0000000000000000000, 1.000000000000000000, 0.0000000000000000000 ) ) ;
#574 = DIRECTION ( 'NONE',  ( 0.0000000000000000000, 0.0000000000000000000, 1.000000000000000000 ) ) ;
#575 = VECTOR ( 'NONE', #183, 39.37007874015748143 ) ;
#576 = ORIENTED_EDGE ( 'NONE', *, *, #774, .F. ) ;
#577 = EDGE_CURVE ( 'NONE', #367, #274, #237, .T. ) ;
#578 = LINE ( 'NONE', #1155, #1010 ) ;
#579 = ORIENTED_EDGE ( 'NONE', *, *, #1090, .F. ) ;
#580 = VERTEX_POINT ( 'NONE', #343 ) ;
#581 = ORIENTED_EDGE ( 'NONE', *, *, #463, .F. ) ;
#582 = EDGE_CURVE ( 'NONE', #718, #607, #390, .T. ) ;
#583 = ORIENTED_EDGE ( 'NONE', *, *, #835, .F. ) ;
#584 = DIRECTION ( 'NONE',  ( 0.0000000000000000000, -1.000000000000000000, 0.0000000000000000000 ) ) ;
#585 = CYLINDRICAL_SURFACE ( 'NONE', #1104, 0.1009999999999999648 ) ;
#586 = LINE ( 'NONE', #489, #371 ) ;
#587 = VECTOR ( 'NONE', #446, 39.37007874015748143 ) ;
#588 = EDGE_CURVE ( 'NONE', #1314, #854, #1262, .T. ) ;
#589 = ORIENTED_EDGE ( 'NONE', *, *, #1305, .T. ) ;
#590 = DIRECTION ( 'NONE',  ( 1.000000000000000000, 0.0000000000000000000, -8.741913579725640080E-17 ) ) ;
#591 = AXIS2_PLACEMENT_3D ( 'NONE', #150, #1093, #368 ) ;
#592 = LENGTH_MEASURE_WITH_UNIT ( LENGTH_MEASURE( 0.02539999999999999897 ), #39 );
#593 = DIRECTION ( 'NONE',  ( 0.0000000000000000000, 1.000000000000000000, 0.0000000000000000000 ) ) ;
#594 = ORIENTED_EDGE ( 'NONE', *, *, #1141, .T. ) ;
#595 = ORIENTED_EDGE ( 'NONE', *, *, #1382, .F. ) ;
#596 = ADVANCED_FACE ( 'NONE', ( #457, #906, #104, #420, #1303, #1004 ), #773, .F. ) ;
#597 = EDGE_CURVE ( 'NONE', #1309, #1027, #698, .T. ) ;
#598 = EDGE_LOOP ( 'NONE', ( #589, #73 ) ) ;
#599 = DIRECTION ( 'NONE',  ( -0.0000000000000000000, 1.000000000000000000, 0.0000000000000000000 ) ) ;
#600 = CYLINDRICAL_SURFACE ( 'NONE', #983, 0.1009999999999999648 ) ;
#601 = ORIENTED_EDGE ( 'NONE', *, *, #151, .F. ) ;
#602 = LINE ( 'NONE', #1013, #895 ) ;
#603 = LENGTH_MEASURE_WITH_UNIT ( LENGTH_MEASURE( 0.02539999999999999897 ), #365 );
#604 = ORIENTED_EDGE ( 'NONE', *, *, #1090, .T. ) ;
#605 = EDGE_CURVE ( 'NONE', #1332, #108, #165, .T. ) ;
#606 =( LENGTH_UNIT ( ) NAMED_UNIT ( * ) SI_UNIT ( $, .METRE. ) );
#607 = VERTEX_POINT ( 'NONE', #355 ) ;
#608 = DIRECTION ( 'NONE',  ( 0.0000000000000000000, 1.000000000000000000, 0.0000000000000000000 ) ) ;
#609 = ORIENTED_EDGE ( 'NONE', *, *, #146, .T. ) ;
#610 = DIRECTION ( 'NONE',  ( -1.000000000000000000, 0.0000000000000000000, 0.0000000000000000000 ) ) ;
#611 = LINE ( 'NONE', #619, #1105 ) ;
#612 = ADVANCED_FACE ( 'NONE', ( #1195 ), #242, .T. ) ;
#613 = FACE_BOUND ( 'NONE', #1018, .T. ) ;
#614 = LINE ( 'NONE', #637, #752 ) ;
#615 = DIRECTION ( 'NONE',  ( 0.0000000000000000000, 0.0000000000000000000, -1.000000000000000000 ) ) ;
#616 = MANIFOLD_SOLID_BREP ( 'Imported1', #480 ) ;
#617 = CARTESIAN_POINT ( 'NONE',  ( -0.2090000000000000469, 0.6500000000000000222, -0.9750000319142972938 ) ) ;
#618 = ORIENTED_EDGE ( 'NONE', *, *, #42, .T. ) ;
#619 = CARTESIAN_POINT ( 'NONE',  ( 1.030000000000000027, 0.1499999999999999944, 0.4000000000000000222 ) ) ;
#620 = ORIENTED_EDGE ( 'NONE', *, *, #1121, .F. ) ;
#621 = FACE_OUTER_BOUND ( 'NONE', #132, .T. ) ;
#622 = EDGE_CURVE ( 'NONE', #1380, #1103, #1344, .T. ) ;
#623 = PLANE ( 'NONE',  #1244 ) ;
#624 = CARTESIAN_POINT ( 'NONE',  ( 0.8199999999999999512, 0.1499999999999999944, 0.2999999999999999889 ) ) ;
#625 = CARTESIAN_POINT ( 'NONE',  ( -0.3100000000000000533, 0.4499999999999999556, 0.3749999680857019624 ) ) ;
#626 = CARTESIAN_POINT ( 'NONE',  ( 0.9100000000000000311, 0.1499999999999999944, -0.3500000000000000333 ) ) ;
#627 = VERTEX_POINT ( 'NONE', #792 ) ;
#628 = VERTEX_POINT ( 'NONE', #144 ) ;
#629 = DIRECTION ( 'NONE',  ( -1.000000000000000000, 0.0000000000000000000, -1.748382715945129988E-16 ) ) ;
#630 = EDGE_CURVE ( 'NONE', #308, #1319, #359, .T. ) ;
#631 = DIRECTION ( 'NONE',  ( 0.0000000000000000000, 1.000000000000000000, 0.0000000000000000000 ) ) ;
#632 = AXIS2_PLACEMENT_3D ( 'NONE', #566, #1296, #658 ) ;
#633 = FACE_BOUND ( 'NONE', #323, .T. ) ;
#634 = DIRECTION ( 'NONE',  ( 0.0000000000000000000, -1.000000000000000000, 0.0000000000000000000 ) ) ;
#635 = CARTESIAN_POINT ( 'NONE',  ( 1.290000000000000258, 0.6500000000000000222, -0.9750000319142972938 ) ) ;
#636 = FACE_BOUND ( 'NONE', #991, .T. ) ;
#637 = CARTESIAN_POINT ( 'NONE',  ( 1.489999999999999991, 0.6500000000000000222, -1.175000031914299248 ) ) ;
#638 = VECTOR ( 'NONE', #487, 39.37007874015748143 ) ;
#639 = ORIENTED_EDGE ( 'NONE', *, *, #545, .T. ) ;
#640 = CARTESIAN_POINT ( 'NONE',  ( 0.9450000000000000622, 0.1499999999999999944, -0.8800000000000000044 ) ) ;
#641 = DIRECTION ( 'NONE',  ( -1.000000000000000000, 0.0000000000000000000, 0.0000000000000000000 ) ) ;
#642 = EDGE_CURVE ( 'NONE', #917, #1251, #1130, .T. ) ;
#643 = CARTESIAN_POINT ( 'NONE',  ( 0.8750000000000000000, 0.0000000000000000000, -0.8800000000000000044 ) ) ;
#644 = DIRECTION ( 'NONE',  ( 1.000000000000000000, 0.0000000000000000000, 0.0000000000000000000 ) ) ;
#645 = DIRECTION ( 'NONE',  ( 0.0000000000000000000, 0.0000000000000000000, -1.000000000000000000 ) ) ;
#646 = ORIENTED_EDGE ( 'NONE', *, *, #128, .F. ) ;
#647 = DIRECTION ( 'NONE',  ( -0.0000000000000000000, 1.000000000000000000, 0.0000000000000000000 ) ) ;
#648 = ORIENTED_EDGE ( 'NONE', *, *, #1242, .T. ) ;
#649 = CARTESIAN_POINT ( 'NONE',  ( 0.03500000000000000333, 0.0000000000000000000, -0.8800000000000000044 ) ) ;
#650 = ADVANCED_FACE ( 'NONE', ( #515 ), #1217, .T. ) ;
#651 = DIRECTION ( 'NONE',  ( 0.0000000000000000000, 1.000000000000000000, 0.0000000000000000000 ) ) ;
#652 = EDGE_CURVE ( 'NONE', #1095, #1232, #1312, .T. ) ;
#653 = CIRCLE ( 'NONE', #632, 0.03500000000000000333 ) ;
#654 = CARTESIAN_POINT ( 'NONE',  ( 1.129999999999999893, 0.4499999999999999556, -1.100000031914297294 ) ) ;
#655 = AXIS2_PLACEMENT_3D ( 'NONE', #1351, #689, #1002 ) ;
#656 = LINE ( 'NONE', #430, #797 ) ;
#657 = FACE_OUTER_BOUND ( 'NONE', #374, .T. ) ;
#658 = DIRECTION ( 'NONE',  ( 1.000000000000000000, 0.0000000000000000000, 0.0000000000000000000 ) ) ;
#659 = ORIENTED_EDGE ( 'NONE', *, *, #605, .T. ) ;
#660 = VECTOR ( 'NONE', #786, 39.37007874015748143 ) ;
#661 = EDGE_LOOP ( 'NONE', ( #557, #1131 ) ) ;
#662 = COLOUR_RGB ( '',0.6274509803921568540, 0.6274509803921568540, 0.6274509803921568540 ) ;
#663 = EDGE_CURVE ( 'NONE', #108, #1332, #125, .T. ) ;
#664 = AXIS2_PLACEMENT_3D ( 'NONE', #483, #896, #436 ) ;
#665 = DIRECTION ( 'NONE',  ( 0.0000000000000000000, 0.0000000000000000000, 1.000000000000000000 ) ) ;
#666 = ORIENTED_EDGE ( 'NONE', *, *, #812, .F. ) ;
#667 = DIRECTION ( 'NONE',  ( -1.000000000000000000, 0.0000000000000000000, 0.0000000000000000000 ) ) ;
#668 = CARTESIAN_POINT ( 'NONE',  ( 0.9450000000000000622, 0.1499999999999999944, -0.3500000000000000333 ) ) ;
#669 = VECTOR ( 'NONE', #1085, 39.37007874015748143 ) ;
#670 = CARTESIAN_POINT ( 'NONE',  ( 1.489999999999999991, 0.6500000000000000222, 0.5749999680857016404 ) ) ;
#671 = FACE_BOUND ( 'NONE', #598, .T. ) ;
#672 = EDGE_CURVE ( 'NONE', #1007, #1027, #76, .T. ) ;
#673 = ORIENTED_EDGE ( 'NONE', *, *, #1141, .F. ) ;
#674 = DIRECTION ( 'NONE',  ( 1.000000000000000000, 0.0000000000000000000, -8.741913579725640080E-17 ) ) ;
#675 = ORIENTED_EDGE ( 'NONE', *, *, #630, .T. ) ;
#676 = CARTESIAN_POINT ( 'NONE',  ( -0.1499999999999999944, 0.0000000000000000000, -1.100000031914297294 ) ) ;
#677 =( CONVERSION_BASED_UNIT ( 'INCH', #603 ) LENGTH_UNIT ( ) NAMED_UNIT ( #70 ) );
#678 = EDGE_CURVE ( 'NONE', #429, #20, #736, .T. ) ;
#679 = MECHANICAL_DESIGN_GEOMETRIC_PRESENTATION_REPRESENTATION (  '', ( #892 ), #1022 ) ;
#680 = ORIENTED_EDGE ( 'NONE', *, *, #303, .F. ) ;
#681 = ORIENTED_EDGE ( 'NONE', *, *, #663, .F. ) ;
#682 = CARTESIAN_POINT ( 'NONE',  ( 0.07000000000000000666, 0.1499999999999999944, -0.8800000000000000044 ) ) ;
#683 = LINE ( 'NONE', #1359, #575 ) ;
#684 = FACE_OUTER_BOUND ( 'NONE', #156, .T. ) ;
#685 = LINE ( 'NONE', #306, #58 ) ;
#686 = AXIS2_PLACEMENT_3D ( 'NONE', #1340, #383, #276 ) ;
#687 = ORIENTED_EDGE ( 'NONE', *, *, #204, .F. ) ;
#688 = EDGE_LOOP ( 'NONE', ( #1220, #328, #1292, #351 ) ) ;
#689 = DIRECTION ( 'NONE',  ( 0.0000000000000000000, 1.000000000000000000, 0.0000000000000000000 ) ) ;
#690 = SHAPE_DEFINITION_REPRESENTATION ( #83, #1310 ) ;
#691 =( NAMED_UNIT ( * ) PLANE_ANGLE_UNIT ( ) SI_UNIT ( $, .RADIAN. ) );
#692 = DIRECTION ( 'NONE',  ( 1.000000000000000000, 0.0000000000000000000, 0.0000000000000000000 ) ) ;
#693 = EDGE_CURVE ( 'NONE', #158, #497, #225, .T. ) ;
#694 = EDGE_LOOP ( 'NONE', ( #1100, #1238 ) ) ;
#695 = DIRECTION ( 'NONE',  ( 0.0000000000000000000, 1.000000000000000000, 0.0000000000000000000 ) ) ;
#696 = AXIS2_PLACEMENT_3D ( 'NONE', #296, #826, #300 ) ;
#697 = CARTESIAN_POINT ( 'NONE',  ( 1.030000000000000027, 0.0000000000000000000, -1.000000031914297205 ) ) ;
#698 = LINE ( 'NONE', #972, #669 ) ;
#699 = DIRECTION ( 'NONE',  ( 1.000000000000000000, 0.0000000000000000000, 0.0000000000000000000 ) ) ;
#700 = FACE_BOUND ( 'NONE', #461, .T. ) ;
#701 = ADVANCED_FACE ( 'NONE', ( #704 ), #50, .T. ) ;
#702 = CARTESIAN_POINT ( 'NONE',  ( 0.8199999999999999512, 0.0000000000000000000, 0.2999999999999999889 ) ) ;
#703 = DIRECTION ( 'NONE',  ( 0.0000000000000000000, 0.0000000000000000000, 1.000000000000000000 ) ) ;
#704 = FACE_OUTER_BOUND ( 'NONE', #1379, .T. ) ;
#705 = ORIENTED_EDGE ( 'NONE', *, *, #463, .T. ) ;
#706 = DIRECTION ( 'NONE',  ( 0.0000000000000000000, 1.000000000000000000, 0.0000000000000000000 ) ) ;
#707 = ADVANCED_FACE ( 'NONE', ( #141 ), #1208, .T. ) ;
#708 = ORIENTED_EDGE ( 'NONE', *, *, #1121, .T. ) ;
#709 = EDGE_CURVE ( 'NONE', #723, #888, #327, .T. ) ;
#710 = ORIENTED_EDGE ( 'NONE', *, *, #1298, .F. ) ;
#711 = CARTESIAN_POINT ( 'NONE',  ( 0.03500000000000000333, 0.1499999999999999944, -0.3500000000000000333 ) ) ;
#712 = CARTESIAN_POINT ( 'NONE',  ( 0.1600000000000000033, 0.0000000000000000000, 0.3500000000000000333 ) ) ;
#713 = FACE_OUTER_BOUND ( 'NONE', #1267, .T. ) ;
#714 = ORIENTED_EDGE ( 'NONE', *, *, #762, .T. ) ;
#715 = VECTOR ( 'NONE', #1164, 39.37007874015748143 ) ;
#716 = ORIENTED_EDGE ( 'NONE', *, *, #1343, .T. ) ;
#717 = VECTOR ( 'NONE', #251, 39.37007874015748143 ) ;
#718 = VERTEX_POINT ( 'NONE', #938 ) ;
#719 = AXIS2_PLACEMENT_3D ( 'NONE', #1050, #738, #1053 ) ;
#720 = DIRECTION ( 'NONE',  ( 0.0000000000000000000, 0.0000000000000000000, 1.000000000000000000 ) ) ;
#721 = ADVANCED_FACE ( 'NONE', ( #1098, #241, #992, #771, #1328, #48 ), #280, .T. ) ;
#722 = PRESENTATION_STYLE_ASSIGNMENT (( #567 ) ) ;
#723 = VERTEX_POINT ( 'NONE', #1226 ) ;
#724 = EDGE_CURVE ( 'NONE', #265, #1309, #259, .T. ) ;
#725 = AXIS2_PLACEMENT_3D ( 'NONE', #360, #989, #267 ) ;
#726 = DIRECTION ( 'NONE',  ( 0.0000000000000000000, 1.000000000000000000, 0.0000000000000000000 ) ) ;
#727 = VECTOR ( 'NONE', #1301, 39.37007874015748143 ) ;
#728 = CARTESIAN_POINT ( 'NONE',  ( 1.489999999999999991, 0.6500000000000000222, 0.5749999680857016404 ) ) ;
#729 = VECTOR ( 'NONE', #641, 39.37007874015748143 ) ;
#730 = DIRECTION ( 'NONE',  ( 1.000000000000000000, 0.0000000000000000000, 0.0000000000000000000 ) ) ;
#731 = VERTEX_POINT ( 'NONE', #201 ) ;
#732 = CARTESIAN_POINT ( 'NONE',  ( 0.9100000000000000311, 0.0000000000000000000, -0.8800000000000000044 ) ) ;
#733 = FACE_OUTER_BOUND ( 'NONE', #1074, .T. ) ;
#734 = CARTESIAN_POINT ( 'NONE',  ( 0.9100000000000000311, 0.0000000000000000000, -0.8800000000000000044 ) ) ;
#735 = ORIENTED_EDGE ( 'NONE', *, *, #872, .F. ) ;
#736 = LINE ( 'NONE', #1099, #208 ) ;
#737 = ORIENTED_EDGE ( 'NONE', *, *, #99, .F. ) ;
#738 = DIRECTION ( 'NONE',  ( 0.0000000000000000000, -1.000000000000000000, 0.0000000000000000000 ) ) ;
#739 = EDGE_CURVE ( 'NONE', #75, #1314, #578, .T. ) ;
#740 = DIRECTION ( 'NONE',  ( -1.000000000000000000, 0.0000000000000000000, 0.0000000000000000000 ) ) ;
#741 = DIRECTION ( 'NONE',  ( 1.000000000000000000, 0.0000000000000000000, 0.0000000000000000000 ) ) ;
#742 = ORIENTED_EDGE ( 'NONE', *, *, #1219, .T. ) ;
#743 = CARTESIAN_POINT ( 'NONE',  ( 0.1600000000000000033, 0.0000000000000000000, 0.3500000000000000333 ) ) ;
#744 = ORIENTED_EDGE ( 'NONE', *, *, #577, .T. ) ;
#745 = DIRECTION ( 'NONE',  ( 0.0000000000000000000, -1.000000000000000000, 0.0000000000000000000 ) ) ;
#746 = ORIENTED_EDGE ( 'NONE', *, *, #536, .F. ) ;
#747 = DIRECTION ( 'NONE',  ( 1.000000000000000000, 0.0000000000000000000, 0.0000000000000000000 ) ) ;
#748 = EDGE_CURVE ( 'NONE', #1251, #917, #1169, .T. ) ;
#749 = AXIS2_PLACEMENT_3D ( 'NONE', #384, #178, #692 ) ;
#750 = DIRECTION ( 'NONE',  ( -1.000000000000000000, 0.0000000000000000000, 0.0000000000000000000 ) ) ;
#751 = LINE ( 'NONE', #1239, #319 ) ;
#752 = VECTOR ( 'NONE', #946, 39.37007874015748143 ) ;
#753 = CARTESIAN_POINT ( 'NONE',  ( 1.391000000000000236, 0.4499999999999999556, 0.3749999680857019624 ) ) ;
#754 = VECTOR ( 'NONE', #543, 39.37007874015748143 ) ;
#755 = VERTEX_POINT ( 'NONE', #1044 ) ;
#756 = AXIS2_PLACEMENT_3D ( 'NONE', #198, #294, #821 ) ;
#757 = APPLICATION_PROTOCOL_DEFINITION ( 'draft international standard', 'automotive_design', 1998, #1185 ) ;
#758 = DIRECTION ( 'NONE',  ( -1.000000000000000000, 0.0000000000000000000, 0.0000000000000000000 ) ) ;
#759 = EDGE_LOOP ( 'NONE', ( #716, #809, #874, #639 ) ) ;
#760 = CARTESIAN_POINT ( 'NONE',  ( -0.2090000000000000469, 0.4499999999999999556, -0.9750000319142972938 ) ) ;
#761 = DIRECTION ( 'NONE',  ( 0.0000000000000000000, 1.000000000000000000, 0.0000000000000000000 ) ) ;
#762 = EDGE_CURVE ( 'NONE', #968, #772, #1028, .T. ) ;
#763 = ADVANCED_FACE ( 'NONE', ( #110 ), #465, .F. ) ;
#764 = VECTOR ( 'NONE', #193, 39.37007874015748143 ) ;
#765 = DIRECTION ( 'NONE',  ( 0.0000000000000000000, 1.000000000000000000, 0.0000000000000000000 ) ) ;
#766 = AXIS2_PLACEMENT_3D ( 'NONE', #836, #819, #920 ) ;
#767 = ORIENTED_EDGE ( 'NONE', *, *, #981, .F. ) ;
#768 = PLANE ( 'NONE',  #1057 ) ;
#769 = ORIENTED_EDGE ( 'NONE', *, *, #488, .T. ) ;
#770 = ORIENTED_EDGE ( 'NONE', *, *, #519, .F. ) ;
#771 = FACE_BOUND ( 'NONE', #216, .T. ) ;
#772 = VERTEX_POINT ( 'NONE', #617 ) ;
#773 = PLANE ( 'NONE',  #528 ) ;
#774 = EDGE_CURVE ( 'NONE', #1203, #367, #172, .T. ) ;
#775 = DIRECTION ( 'NONE',  ( 1.000000000000000000, 0.0000000000000000000, 0.0000000000000000000 ) ) ;
#776 = DIRECTION ( 'NONE',  ( 0.0000000000000000000, -1.000000000000000000, 0.0000000000000000000 ) ) ;
#777 = ORIENTED_EDGE ( 'NONE', *, *, #17, .F. ) ;
#778 = ORIENTED_EDGE ( 'NONE', *, *, #622, .F. ) ;
#779 = CIRCLE ( 'NONE', #1124, 0.03500000000000000333 ) ;
#780 = ORIENTED_EDGE ( 'NONE', *, *, #969, .T. ) ;
#781 = VECTOR ( 'NONE', #590, 39.37007874015748143 ) ;
#782 = VERTEX_POINT ( 'NONE', #624 ) ;
#783 = CARTESIAN_POINT ( 'NONE',  ( -0.1499999999999999944, 0.0000000000000000000, 0.5000000000000000000 ) ) ;
#784 = VERTEX_POINT ( 'NONE', #212 ) ;
#785 = LENGTH_MEASURE_WITH_UNIT ( LENGTH_MEASURE( 0.02539999999999999897 ), #31 );
#786 = DIRECTION ( 'NONE',  ( 0.0000000000000000000, -1.000000000000000000, 0.0000000000000000000 ) ) ;
#787 = EDGE_CURVE ( 'NONE', #108, #968, #498, .T. ) ;
#788 = AXIS2_PLACEMENT_3D ( 'NONE', #1256, #199, #514 ) ;
#789 = CARTESIAN_POINT ( 'NONE',  ( 0.07000000000000000666, 0.0000000000000000000, -0.8800000000000000044 ) ) ;
#790 = ORIENTED_EDGE ( 'NONE', *, *, #806, .T. ) ;
#791 = DIRECTION ( 'NONE',  ( 0.0000000000000000000, 0.0000000000000000000, 1.000000000000000000 ) ) ;
#792 = CARTESIAN_POINT ( 'NONE',  ( 0.1050000000000000100, 0.0000000000000000000, -0.8800000000000000044 ) ) ;
#793 = ADVANCED_FACE ( 'NONE', ( #549 ), #943, .F. ) ;
#794 = CIRCLE ( 'NONE', #962, 0.03500000000000003803 ) ;
#795 = EDGE_CURVE ( 'NONE', #22, #189, #853, .T. ) ;
#796 = DIRECTION ( 'NONE',  ( -1.000000000000000000, 0.0000000000000000000, 0.0000000000000000000 ) ) ;
#797 = VECTOR ( 'NONE', #1161, 39.37007874015748143 ) ;
#798 = AXIS2_PLACEMENT_3D ( 'NONE', #1258, #840, #316 ) ;
#799 = ORIENTED_EDGE ( 'NONE', *, *, #89, .F. ) ;
#800 = CYLINDRICAL_SURFACE ( 'NONE', #696, 0.1010000000000000342 ) ;
#801 = ORIENTED_EDGE ( 'NONE', *, *, #500, .T. ) ;
#802 = DIRECTION ( 'NONE',  ( -1.000000000000000000, 0.0000000000000000000, 0.0000000000000000000 ) ) ;
#803 = ADVANCED_FACE ( 'NONE', ( #447 ), #188, .F. ) ;
#804 = UNCERTAINTY_MEASURE_WITH_UNIT (LENGTH_MEASURE( 1.000000000000000082E-05 ), #458, 'distance_accuracy_value', 'NONE');
#805 = CARTESIAN_POINT ( 'NONE',  ( 0.1050000000000000100, 0.0000000000000000000, -0.3500000000000000333 ) ) ;
#806 = EDGE_CURVE ( 'NONE', #298, #308, #479, .T. ) ;
#807 = ORIENTED_EDGE ( 'NONE', *, *, #907, .T. ) ;
#808 = ADVANCED_FACE ( 'NONE', ( #978 ), #395, .F. ) ;
#809 = ORIENTED_EDGE ( 'NONE', *, *, #1199, .T. ) ;
#810 = PLANE ( 'NONE',  #1329 ) ;
#811 = LINE ( 'NONE', #1047, #1162 ) ;
#812 = EDGE_CURVE ( 'NONE', #868, #829, #1204, .T. ) ;
#813 = ORIENTED_EDGE ( 'NONE', *, *, #678, .T. ) ;
#814 = VECTOR ( 'NONE', #823, 39.37007874015748143 ) ;
#815 = ADVANCED_FACE ( 'NONE', ( #816 ), #362, .T. ) ;
#816 = FACE_OUTER_BOUND ( 'NONE', #1355, .T. ) ;
#817 = ORIENTED_EDGE ( 'NONE', *, *, #519, .T. ) ;
#818 = CARTESIAN_POINT ( 'NONE',  ( -0.2090000000000000469, 0.6500000000000000222, 0.3749999680857019624 ) ) ;
#819 = DIRECTION ( 'NONE',  ( 0.0000000000000000000, 1.000000000000000000, 0.0000000000000000000 ) ) ;
#820 = UNCERTAINTY_MEASURE_WITH_UNIT (LENGTH_MEASURE( 1.000000000000000082E-05 ), #677, 'distance_accuracy_value', 'NONE');
#821 = DIRECTION ( 'NONE',  ( 0.0000000000000000000, 0.0000000000000000000, 1.000000000000000000 ) ) ;
#822 = VERTEX_POINT ( 'NONE', #470 ) ;
#823 = DIRECTION ( 'NONE',  ( 1.000000000000000000, 0.0000000000000000000, 0.0000000000000000000 ) ) ;
#824 = AXIS2_PLACEMENT_3D ( 'NONE', #54, #157, #890 ) ;
#825 = ORIENTED_EDGE ( 'NONE', *, *, #672, .F. ) ;
#826 = DIRECTION ( 'NONE',  ( 0.0000000000000000000, 1.000000000000000000, 0.0000000000000000000 ) ) ;
#827 = VECTOR ( 'NONE', #1363, 39.37007874015748143 ) ;
#828 = CARTESIAN_POINT ( 'NONE',  ( -0.3100000000000000533, 0.6500000000000000222, -0.9750000319142972938 ) ) ;
#829 = VERTEX_POINT ( 'NONE', #668 ) ;
#830 = CARTESIAN_POINT ( 'NONE',  ( -0.1499999999999999944, 0.0000000000000000000, 0.5000000000000000000 ) ) ;
#831 = FACE_OUTER_BOUND ( 'NONE', #223, .T. ) ;
#832 = DIRECTION ( 'NONE',  ( 0.0000000000000000000, -1.000000000000000000, 0.0000000000000000000 ) ) ;
#833 = VERTEX_POINT ( 'NONE', #1087 ) ;
#834 = VECTOR ( 'NONE', #802, 39.37007874015748143 ) ;
#835 = EDGE_CURVE ( 'NONE', #298, #854, #960, .T. ) ;
#836 = CARTESIAN_POINT ( 'NONE',  ( 1.290000000000000258, 0.4499999999999999556, -0.9750000319142972938 ) ) ;
#837 =( GEOMETRIC_REPRESENTATION_CONTEXT ( 3 ) GLOBAL_UNCERTAINTY_ASSIGNED_CONTEXT ( ( #378 ) ) GLOBAL_UNIT_ASSIGNED_CONTEXT ( ( #231, #963, #347 ) ) REPRESENTATION_CONTEXT ( 'NONE', 'WORKASPACE' ) );
#838 = DIRECTION ( 'NONE',  ( 0.0000000000000000000, 1.000000000000000000, 0.0000000000000000000 ) ) ;
#839 = CARTESIAN_POINT ( 'NONE',  ( 0.07000000000000000666, 0.0000000000000000000, -0.3500000000000000333 ) ) ;
#840 = DIRECTION ( 'NONE',  ( 0.0000000000000000000, -1.000000000000000000, 0.0000000000000000000 ) ) ;
#841 = CARTESIAN_POINT ( 'NONE',  ( 0.8750000000000000000, 0.0000000000000000000, -0.8800000000000000044 ) ) ;
#842 = EDGE_LOOP ( 'NONE', ( #12, #986 ) ) ;
#843 = CARTESIAN_POINT ( 'NONE',  ( 0.1600000000000000033, 0.1499999999999999944, 0.3500000000000000333 ) ) ;
#844 = EDGE_CURVE ( 'NONE', #1194, #627, #869, .T. ) ;
#845 = ORIENTED_EDGE ( 'NONE', *, *, #413, .T. ) ;
#846 = DIRECTION ( 'NONE',  ( 0.0000000000000000000, 1.000000000000000000, 0.0000000000000000000 ) ) ;
#847 = DIRECTION ( 'NONE',  ( 0.0000000000000000000, -1.000000000000000000, 0.0000000000000000000 ) ) ;
#848 = CARTESIAN_POINT ( 'NONE',  ( -0.1499999999999999944, 0.4499999999999999556, 0.5000000000000000000 ) ) ;
#849 = DIRECTION ( 'NONE',  ( 0.0000000000000000000, -1.000000000000000000, 0.0000000000000000000 ) ) ;
#850 = LINE ( 'NONE', #1052, #85 ) ;
#851 = ORIENTED_EDGE ( 'NONE', *, *, #151, .T. ) ;
#852 = DIRECTION ( 'NONE',  ( 0.0000000000000000000, 0.0000000000000000000, 1.000000000000000000 ) ) ;
#853 = CIRCLE ( 'NONE', #406, 0.1009999999999999648 ) ;
#854 = VERTEX_POINT ( 'NONE', #460 ) ;
#855 = DIRECTION ( 'NONE',  ( 0.0000000000000000000, 1.000000000000000000, 0.0000000000000000000 ) ) ;
#856 = EDGE_CURVE ( 'NONE', #122, #274, #393, .T. ) ;
#857 = CARTESIAN_POINT ( 'NONE',  ( 0.9450000000000000622, 0.0000000000000000000, -0.8800000000000000044 ) ) ;
#858 = DIRECTION ( 'NONE',  ( 0.0000000000000000000, -1.000000000000000000, 0.0000000000000000000 ) ) ;
#859 = DIRECTION ( 'NONE',  ( 0.0000000000000000000, 1.000000000000000000, 0.0000000000000000000 ) ) ;
#860 = ORIENTED_EDGE ( 'NONE', *, *, #1275, .T. ) ;
#861 = VERTEX_POINT ( 'NONE', #1097 ) ;
#862 = EDGE_CURVE ( 'NONE', #459, #782, #224, .T. ) ;
#863 = LINE ( 'NONE', #864, #301 ) ;
#864 = CARTESIAN_POINT ( 'NONE',  ( 1.489999999999999991, 0.4499999999999999556, -1.175000031914299248 ) ) ;
#865 = CARTESIAN_POINT ( 'NONE',  ( 0.9100000000000000311, 0.1499999999999999944, -0.3500000000000000333 ) ) ;
#866 = ORIENTED_EDGE ( 'NONE', *, *, #500, .F. ) ;
#867 = LINE ( 'NONE', #649, #305 ) ;
#868 = VERTEX_POINT ( 'NONE', #129 ) ;
#869 = CIRCLE ( 'NONE', #481, 0.03500000000000000333 ) ;
#870 = ORIENTED_EDGE ( 'NONE', *, *, #322, .F. ) ;
#871 = ADVANCED_FACE ( 'NONE', ( #548 ), #1318, .T. ) ;
#872 = EDGE_CURVE ( 'NONE', #854, #499, #1045, .T. ) ;
#873 = AXIS2_PLACEMENT_3D ( 'NONE', #533, #427, #644 ) ;
#874 = ORIENTED_EDGE ( 'NONE', *, *, #597, .T. ) ;
#875 = ORIENTED_EDGE ( 'NONE', *, *, #806, .F. ) ;
#876 = EDGE_CURVE ( 'NONE', #861, #628, #1342, .T. ) ;
#877 = ORIENTED_EDGE ( 'NONE', *, *, #856, .T. ) ;
#878 = CARTESIAN_POINT ( 'NONE',  ( 0.1050000000000000100, 0.1499999999999999944, -0.8800000000000000044 ) ) ;
#879 = CIRCLE ( 'NONE', #916, 0.1009999999999999648 ) ;
#880 = DIRECTION ( 'NONE',  ( 0.0000000000000000000, 1.000000000000000000, 0.0000000000000000000 ) ) ;
#881 = MANIFOLD_SOLID_BREP ( 'Imported2', #333 ) ;
#882 = DIRECTION ( 'NONE',  ( -1.748382715945129988E-16, 0.0000000000000000000, 1.000000000000000000 ) ) ;
#883 = ORIENTED_EDGE ( 'NONE', *, *, #900, .F. ) ;
#884 = CARTESIAN_POINT ( 'NONE',  ( 1.189000000000000279, 0.4499999999999999556, -0.9750000319142972938 ) ) ;
#885 = VERTEX_POINT ( 'NONE', #486 ) ;
#886 = DIRECTION ( 'NONE',  ( -8.741913579725640080E-17, 0.0000000000000000000, -1.000000000000000000 ) ) ;
#887 = EDGE_CURVE ( 'NONE', #22, #524, #11, .T. ) ;
#888 = VERTEX_POINT ( 'NONE', #1233 ) ;
#889 = ORIENTED_EDGE ( 'NONE', *, *, #739, .F. ) ;
#890 = DIRECTION ( 'NONE',  ( 1.000000000000000000, 0.0000000000000000000, 0.0000000000000000000 ) ) ;
#891 = SURFACE_STYLE_FILL_AREA ( #261 ) ;
#892 = STYLED_ITEM ( 'NONE', ( #1148 ), #881 ) ;
#893 = VECTOR ( 'NONE', #190, 39.37007874015748143 ) ;
#894 = ORIENTED_EDGE ( 'NONE', *, *, #81, .F. ) ;
#895 = VECTOR ( 'NONE', #1348, 39.37007874015748143 ) ;
#896 = DIRECTION ( 'NONE',  ( 0.0000000000000000000, 0.0000000000000000000, 1.000000000000000000 ) ) ;
#897 = EDGE_LOOP ( 'NONE', ( #403, #646 ) ) ;
#898 = ADVANCED_FACE ( 'NONE', ( #636, #976 ), #810, .F. ) ;
#899 = ORIENTED_EDGE ( 'NONE', *, *, #1191, .F. ) ;
#900 = EDGE_CURVE ( 'NONE', #1203, #122, #345, .T. ) ;
#901 = ADVANCED_FACE ( 'NONE', ( #1167 ), #1378, .F. ) ;
#902 = ORIENTED_EDGE ( 'NONE', *, *, #268, .F. ) ;
#903 = CARTESIAN_POINT ( 'NONE',  ( 0.4900000000000000466, 0.0000000000000000000, -0.3000000159571492020 ) ) ;
#904 = ORIENTED_EDGE ( 'NONE', *, *, #748, .T. ) ;
#905 = DIRECTION ( 'NONE',  ( -1.000000000000000000, 0.0000000000000000000, 0.0000000000000000000 ) ) ;
#906 = FACE_BOUND ( 'NONE', #897, .T. ) ;
#907 = EDGE_CURVE ( 'NONE', #627, #1194, #91, .T. ) ;
#908 = FILL_AREA_STYLE ('',( #166 ) ) ;
#909 = VECTOR ( 'NONE', #629, 39.37007874015748143 ) ;
#910 = ADVANCED_FACE ( 'NONE', ( #733 ), #388, .T. ) ;
#911 = VERTEX_POINT ( 'NONE', #287 ) ;
#912 = LINE ( 'NONE', #186, #324 ) ;
#913 = ORIENTED_EDGE ( 'NONE', *, *, #709, .T. ) ;
#914 = DIRECTION ( 'NONE',  ( 1.000000000000000000, 0.0000000000000000000, 0.0000000000000000000 ) ) ;
#915 = DIRECTION ( 'NONE',  ( 0.0000000000000000000, -1.000000000000000000, 0.0000000000000000000 ) ) ;
#916 = AXIS2_PLACEMENT_3D ( 'NONE', #1198, #568, #1188 ) ;
#917 = VERTEX_POINT ( 'NONE', #1224 ) ;
#918 = PLANE ( 'NONE',  #756 ) ;
#919 = ORIENTED_EDGE ( 'NONE', *, *, #422, .F. ) ;
#920 = DIRECTION ( 'NONE',  ( -1.000000000000000000, 0.0000000000000000000, 0.0000000000000000000 ) ) ;
#921 = CARTESIAN_POINT ( 'NONE',  ( 0.4900000000000000466, 0.4499999999999999556, -0.3000000319142980265 ) ) ;
#922 = FACE_OUTER_BOUND ( 'NONE', #86, .T. ) ;
#923 = CIRCLE ( 'NONE', #215, 0.1009999999999999648 ) ;
#924 = EDGE_CURVE ( 'NONE', #210, #782, #1008, .T. ) ;
#925 = VECTOR ( 'NONE', #96, 39.37007874015748143 ) ;
#926 = PLANE ( 'NONE',  #788 ) ;
#927 = EDGE_LOOP ( 'NONE', ( #375, #744, #949, #883 ) ) ;
#928 = CARTESIAN_POINT ( 'NONE',  ( 0.07000000000000000666, 0.1499999999999999944, -0.3500000000000000333 ) ) ;
#929 = CARTESIAN_POINT ( 'NONE',  ( -0.5100000000000000089, 0.6500000000000000222, -1.175000031914299248 ) ) ;
#930 = CARTESIAN_POINT ( 'NONE',  ( -0.05000000000000000278, 0.0000000000000000000, 0.4000000000000000222 ) ) ;
#931 = EDGE_CURVE ( 'NONE', #1257, #1049, #602, .T. ) ;
#932 = DIRECTION ( 'NONE',  ( 0.0000000000000000000, 1.000000000000000000, 0.0000000000000000000 ) ) ;
#933 = AXIS2_PLACEMENT_3D ( 'NONE', #97, #645, #740 ) ;
#934 = ORIENTED_EDGE ( 'NONE', *, *, #377, .F. ) ;
#935 = DIRECTION ( 'NONE',  ( 0.0000000000000000000, -1.000000000000000000, 0.0000000000000000000 ) ) ;
#936 = LINE ( 'NONE', #1089, #893 ) ;
#937 = DIRECTION ( 'NONE',  ( 1.000000000000000000, 0.0000000000000000000, 0.0000000000000000000 ) ) ;
#938 = CARTESIAN_POINT ( 'NONE',  ( -0.05000000000000000278, 0.0000000000000000000, -1.000000031914297205 ) ) ;
#939 = ORIENTED_EDGE ( 'NONE', *, *, #622, .T. ) ;
#940 = LINE ( 'NONE', #379, #814 ) ;
#941 = EDGE_CURVE ( 'NONE', #628, #607, #140, .T. ) ;
#942 = DIRECTION ( 'NONE',  ( 0.0000000000000000000, -1.000000000000000000, 0.0000000000000000000 ) ) ;
#943 = CYLINDRICAL_SURFACE ( 'NONE', #873, 0.03500000000000003803 ) ;
#944 = ORIENTED_EDGE ( 'NONE', *, *, #872, .T. ) ;
#945 = DIRECTION ( 'NONE',  ( -1.000000000000000000, 0.0000000000000000000, 0.0000000000000000000 ) ) ;
#946 = DIRECTION ( 'NONE',  ( 0.0000000000000000000, 0.0000000000000000000, 1.000000000000000000 ) ) ;
#947 = DIRECTION ( 'NONE',  ( 1.000000000000000000, 0.0000000000000000000, 0.0000000000000000000 ) ) ;
#948 = CARTESIAN_POINT ( 'NONE',  ( 0.8199999999999999512, 0.1499999999999999944, 0.3500000000000000333 ) ) ;
#949 = ORIENTED_EDGE ( 'NONE', *, *, #65, .T. ) ;
#950 = CARTESIAN_POINT ( 'NONE',  ( 1.030000000000000027, 0.6500000000000000222, 0.4000000000000000222 ) ) ;
#951 = EDGE_CURVE ( 'NONE', #265, #1007, #30, .T. ) ;
#952 = ORIENTED_EDGE ( 'NONE', *, *, #762, .F. ) ;
#953 = CARTESIAN_POINT ( 'NONE',  ( -0.05000000000000000278, 0.0000000000000000000, 0.4000000000000000222 ) ) ;
#954 = CARTESIAN_POINT ( 'NONE',  ( 0.8199999999999999512, 0.0000000000000000000, 0.2999999999999999889 ) ) ;
#955 = CYLINDRICAL_SURFACE ( 'NONE', #382, 0.03500000000000003803 ) ;
#956 = CIRCLE ( 'NONE', #1316, 0.03500000000000000333 ) ;
#957 = LINE ( 'NONE', #402, #925 ) ;
#958 = CARTESIAN_POINT ( 'NONE',  ( -0.3100000000000000533, 0.6500000000000000222, 0.3749999680857019624 ) ) ;
#959 = ORIENTED_EDGE ( 'NONE', *, *, #941, .F. ) ;
#960 = LINE ( 'NONE', #1084, #240 ) ;
#961 = ORIENTED_EDGE ( 'NONE', *, *, #303, .T. ) ;
#962 = AXIS2_PLACEMENT_3D ( 'NONE', #219, #858, #230 ) ;
#963 =( NAMED_UNIT ( * ) PLANE_ANGLE_UNIT ( ) SI_UNIT ( $, .RADIAN. ) );
#964 = CARTESIAN_POINT ( 'NONE',  ( 0.8199999999999999512, 0.0000000000000000000, 0.2999999999999999889 ) ) ;
#965 = ADVANCED_FACE ( 'NONE', ( #309 ), #1096, .F. ) ;
#966 = DIRECTION ( 'NONE',  ( -1.000000000000000000, 0.0000000000000000000, -1.748382715945129988E-16 ) ) ;
#967 = CARTESIAN_POINT ( 'NONE',  ( 1.391000000000000236, 0.6500000000000000222, -0.9750000319142972938 ) ) ;
#968 = VERTEX_POINT ( 'NONE', #1114 ) ;
#969 = EDGE_CURVE ( 'NONE', #1367, #885, #940, .T. ) ;
#970 = STYLED_ITEM ( 'NONE', ( #722 ), #1310 ) ;
#971 = VECTOR ( 'NONE', #1190, 39.37007874015748143 ) ;
#972 = CARTESIAN_POINT ( 'NONE',  ( -0.5100000000000000089, 0.4499999999999999556, -1.175000031914299248 ) ) ;
#973 = LINE ( 'NONE', #535, #909 ) ;
#974 = ORIENTED_EDGE ( 'NONE', *, *, #1014, .T. ) ;
#975 = FILL_AREA_STYLE_COLOUR ( '', #662 ) ;
#976 = FACE_OUTER_BOUND ( 'NONE', #90, .T. ) ;
#977 = ORIENTED_EDGE ( 'NONE', *, *, #931, .F. ) ;
#978 = FACE_OUTER_BOUND ( 'NONE', #1016, .T. ) ;
#979 = CARTESIAN_POINT ( 'NONE',  ( 1.129999999999999893, 0.4499999999999999556, 0.09999998404285098674 ) ) ;
#980 = ORIENTED_EDGE ( 'NONE', *, *, #33, .F. ) ;
#981 = EDGE_CURVE ( 'NONE', #861, #429, #60, .T. ) ;
#982 = VECTOR ( 'NONE', #765, 39.37007874015748143 ) ;
#983 = AXIS2_PLACEMENT_3D ( 'NONE', #1313, #28, #131 ) ;
#984 = CARTESIAN_POINT ( 'NONE',  ( 1.489999999999999991, 0.4499999999999999556, 0.5749999680857016404 ) ) ;
#985 = ORIENTED_EDGE ( 'NONE', *, *, #876, .T. ) ;
#986 = ORIENTED_EDGE ( 'NONE', *, *, #812, .T. ) ;
#987 = SURFACE_SIDE_STYLE ('',( #891 ) ) ;
#988 = LINE ( 'NONE', #1031, #255 ) ;
#989 = DIRECTION ( 'NONE',  ( 0.0000000000000000000, 1.000000000000000000, 0.0000000000000000000 ) ) ;
#990 = LINE ( 'NONE', #312, #408 ) ;
#991 = EDGE_LOOP ( 'NONE', ( #1147, #126, #1055, #977 ) ) ;
#992 = FACE_BOUND ( 'NONE', #1165, .T. ) ;
#993 = EDGE_LOOP ( 'NONE', ( #62, #1225 ) ) ;
#994 = DIRECTION ( 'NONE',  ( 0.0000000000000000000, 0.0000000000000000000, -1.000000000000000000 ) ) ;
#995 = AXIS2_PLACEMENT_3D ( 'NONE', #5, #647, #741 ) ;
#996 = MECHANICAL_DESIGN_GEOMETRIC_PRESENTATION_REPRESENTATION (  '', ( #970 ), #1046 ) ;
#997 = CARTESIAN_POINT ( 'NONE',  ( 0.07000000000000000666, 0.0000000000000000000, -0.3500000000000000333 ) ) ;
#998 = CARTESIAN_POINT ( 'NONE',  ( 1.391000000000000236, 0.6500000000000000222, -0.9750000319142972938 ) ) ;
#999 = CARTESIAN_POINT ( 'NONE',  ( -0.5100000000000000089, 0.6500000000000000222, -1.175000031914299248 ) ) ;
#1000 = ORIENTED_EDGE ( 'NONE', *, *, #413, .F. ) ;
#1001 = EDGE_CURVE ( 'NONE', #1095, #2, #912, .T. ) ;
#1002 = DIRECTION ( 'NONE',  ( -1.000000000000000000, 0.0000000000000000000, 0.0000000000000000000 ) ) ;
#1003 = ADVANCED_FACE ( 'NONE', ( #1111 ), #623, .T. ) ;
#1004 = FACE_OUTER_BOUND ( 'NONE', #392, .T. ) ;
#1005 = STYLED_ITEM ( 'NONE', ( #25 ), #616 ) ;
#1006 = ORIENTED_EDGE ( 'NONE', *, *, #397, .F. ) ;
#1007 = VERTEX_POINT ( 'NONE', #191 ) ;
#1008 = LINE ( 'NONE', #501, #462 ) ;
#1009 = ORIENTED_EDGE ( 'NONE', *, *, #1343, .F. ) ;
#1010 = VECTOR ( 'NONE', #1370, 39.37007874015748143 ) ;
#1011 = ORIENTED_EDGE ( 'NONE', *, *, #364, .T. ) ;
#1012 = ORIENTED_EDGE ( 'NONE', *, *, #112, .T. ) ;
#1013 = CARTESIAN_POINT ( 'NONE',  ( -0.05000000000000000278, 0.0000000000000000000, 0.4000000000000000222 ) ) ;
#1014 = EDGE_CURVE ( 'NONE', #911, #885, #1229, .T. ) ;
#1015 = ORIENTED_EDGE ( 'NONE', *, *, #99, .T. ) ;
#1016 = EDGE_LOOP ( 'NONE', ( #746, #179, #440, #304 ) ) ;
#1017 = CARTESIAN_POINT ( 'NONE',  ( -0.05000000000000000278, 0.1499999999999999944, -1.000000031914297205 ) ) ;
#1018 = EDGE_LOOP ( 'NONE', ( #939, #59 ) ) ;
#1019 = DIRECTION ( 'NONE',  ( -1.000000000000000000, 0.0000000000000000000, 0.0000000000000000000 ) ) ;
#1020 = CARTESIAN_POINT ( 'NONE',  ( 1.129999999999999893, 0.0000000000000000000, 0.5000000000000000000 ) ) ;
#1021 = FACE_OUTER_BOUND ( 'NONE', #473, .T. ) ;
#1022 =( GEOMETRIC_REPRESENTATION_CONTEXT ( 3 ) GLOBAL_UNCERTAINTY_ASSIGNED_CONTEXT ( ( #1327 ) ) GLOBAL_UNIT_ASSIGNED_CONTEXT ( ( #1122, #1337, #508 ) ) REPRESENTATION_CONTEXT ( 'NONE', 'WORKASPACE' ) );
#1023 = FACE_OUTER_BOUND ( 'NONE', #1211, .T. ) ;
#1024 = PLANE ( 'NONE',  #307 ) ;
#1025 = LINE ( 'NONE', #441, #155 ) ;
#1026 = ADVANCED_FACE ( 'NONE', ( #1127 ), #800, .F. ) ;
#1027 = VERTEX_POINT ( 'NONE', #1032 ) ;
#1028 = CIRCLE ( 'NONE', #161, 0.1010000000000000342 ) ;
#1029 = ORIENTED_EDGE ( 'NONE', *, *, #844, .F. ) ;
#1030 = DIRECTION ( 'NONE',  ( 0.0000000000000000000, 0.0000000000000000000, -1.000000000000000000 ) ) ;
#1031 = CARTESIAN_POINT ( 'NONE',  ( -0.05000000000000000278, 0.0000000000000000000, -1.000000031914297205 ) ) ;
#1032 = CARTESIAN_POINT ( 'NONE',  ( 1.489999999999999991, 0.4499999999999999556, -1.175000031914299248 ) ) ;
#1033 = ADVANCED_FACE ( 'NONE', ( #258 ), #1360, .F. ) ;
#1034 = AXIS2_PLACEMENT_3D ( 'NONE', #16, #103, #937 ) ;
#1035 = CARTESIAN_POINT ( 'NONE',  ( -0.3100000000000000533, 0.6500000000000000222, -0.9750000319142972938 ) ) ;
#1036 = ORIENTED_EDGE ( 'NONE', *, *, #434, .F. ) ;
#1037 = CARTESIAN_POINT ( 'NONE',  ( 0.8199999999999999512, 0.0000000000000000000, 0.3500000000000000333 ) ) ;
#1038 = CARTESIAN_POINT ( 'NONE',  ( 0.03500000000000000333, 0.0000000000000000000, -0.3500000000000000333 ) ) ;
#1039 = CIRCLE ( 'NONE', #1277, 0.1010000000000000342 ) ;
#1040 = DIRECTION ( 'NONE',  ( 0.0000000000000000000, -1.000000000000000000, 0.0000000000000000000 ) ) ;
#1041 = FACE_OUTER_BOUND ( 'NONE', #4, .T. ) ;
#1042 = EDGE_CURVE ( 'NONE', #36, #214, #46, .T. ) ;
#1043 = EDGE_LOOP ( 'NONE', ( #232, #817, #952, #80 ) ) ;
#1044 = CARTESIAN_POINT ( 'NONE',  ( 0.9450000000000000622, 0.0000000000000000000, -0.3500000000000000333 ) ) ;
#1045 = LINE ( 'NONE', #372, #834 ) ;
#1046 =( GEOMETRIC_REPRESENTATION_CONTEXT ( 3 ) GLOBAL_UNCERTAINTY_ASSIGNED_CONTEXT ( ( #804 ) ) GLOBAL_UNIT_ASSIGNED_CONTEXT ( ( #458, #1193, #1315 ) ) REPRESENTATION_CONTEXT ( 'NONE', 'WORKASPACE' ) );
#1047 = CARTESIAN_POINT ( 'NONE',  ( 0.1600000000000000033, 0.1499999999999999944, 0.3500000000000000333 ) ) ;
#1048 = VERTEX_POINT ( 'NONE', #1037 ) ;
#1049 = VERTEX_POINT ( 'NONE', #1369 ) ;
#1050 = CARTESIAN_POINT ( 'NONE',  ( 0.9100000000000000311, 0.0000000000000000000, -0.3500000000000000333 ) ) ;
#1051 = CARTESIAN_POINT ( 'NONE',  ( 0.1050000000000000100, 0.1499999999999999944, -0.3500000000000000333 ) ) ;
#1052 = CARTESIAN_POINT ( 'NONE',  ( -0.4110000000000000875, 0.6500000000000000222, 0.3749999680857019624 ) ) ;
#1053 = DIRECTION ( 'NONE',  ( 1.000000000000000000, 0.0000000000000000000, 0.0000000000000000000 ) ) ;
#1054 = EDGE_CURVE ( 'NONE', #1187, #1257, #957, .T. ) ;
#1055 = ORIENTED_EDGE ( 'NONE', *, *, #177, .F. ) ;
#1056 = DIRECTION ( 'NONE',  ( 1.000000000000000000, 0.0000000000000000000, 0.0000000000000000000 ) ) ;
#1057 = AXIS2_PLACEMENT_3D ( 'NONE', #338, #238, #758 ) ;
#1058 = EDGE_LOOP ( 'NONE', ( #944, #14, #875, #26 ) ) ;
#1059 = DIRECTION ( 'NONE',  ( 0.0000000000000000000, 1.000000000000000000, 0.0000000000000000000 ) ) ;
#1060 = ORIENTED_EDGE ( 'NONE', *, *, #969, .F. ) ;
#1061 = DIRECTION ( 'NONE',  ( -1.000000000000000000, 0.0000000000000000000, 0.0000000000000000000 ) ) ;
#1062 = VECTOR ( 'NONE', #608, 39.37007874015748143 ) ;
#1063 = DIRECTION ( 'NONE',  ( 0.0000000000000000000, 0.0000000000000000000, -1.000000000000000000 ) ) ;
#1064 = CARTESIAN_POINT ( 'NONE',  ( 1.129999999999999893, 0.0000000000000000000, -1.100000031914297294 ) ) ;
#1065 = ORIENTED_EDGE ( 'NONE', *, *, #545, .F. ) ;
#1066 = AXIS2_PLACEMENT_3D ( 'NONE', #670, #882, #41 ) ;
#1067 = PLANE ( 'NONE',  #84 ) ;
#1068 = EDGE_LOOP ( 'NONE', ( #799, #142, #1349, #1218 ) ) ;
#1069 = CARTESIAN_POINT ( 'NONE',  ( -0.2090000000000000469, 0.6500000000000000222, 0.3749999680857019624 ) ) ;
#1070 = CARTESIAN_POINT ( 'NONE',  ( 0.03500000000000000333, 0.0000000000000000000, -0.8800000000000000044 ) ) ;
#1071 = DIRECTION ( 'NONE',  ( 0.0000000000000000000, 0.0000000000000000000, 1.000000000000000000 ) ) ;
#1072 = ORIENTED_EDGE ( 'NONE', *, *, #160, .F. ) ;
#1073 = EDGE_CURVE ( 'NONE', #782, #731, #990, .T. ) ;
#1074 = EDGE_LOOP ( 'NONE', ( #919, #860, #1000, #257 ) ) ;
#1075 = DIRECTION ( 'NONE',  ( 0.0000000000000000000, 1.000000000000000000, 0.0000000000000000000 ) ) ;
#1076 = CYLINDRICAL_SURFACE ( 'NONE', #1034, 0.03500000000000003803 ) ;
#1077 = LINE ( 'NONE', #544, #356 ) ;
#1078 = DIRECTION ( 'NONE',  ( 0.0000000000000000000, -1.000000000000000000, 0.0000000000000000000 ) ) ;
#1079 = ORIENTED_EDGE ( 'NONE', *, *, #795, .T. ) ;
#1080 = VECTOR ( 'NONE', #1137, 39.37007874015748143 ) ;
#1081 = ORIENTED_EDGE ( 'NONE', *, *, #1261, .T. ) ;
#1082 = AXIS2_PLACEMENT_3D ( 'NONE', #1320, #573, #57 ) ;
#1083 = ORIENTED_EDGE ( 'NONE', *, *, #227, .T. ) ;
#1084 = CARTESIAN_POINT ( 'NONE',  ( 1.129999999999999893, 0.0000000000000000000, 0.5000000000000000000 ) ) ;
#1085 = DIRECTION ( 'NONE',  ( 1.000000000000000000, 0.0000000000000000000, -8.741913579725640080E-17 ) ) ;
#1086 = DIRECTION ( 'NONE',  ( 0.0000000000000000000, 1.000000000000000000, 0.0000000000000000000 ) ) ;
#1087 = CARTESIAN_POINT ( 'NONE',  ( -0.4110000000000000875, 0.6500000000000000222, 0.3749999680857019624 ) ) ;
#1088 = EDGE_LOOP ( 'NONE', ( #394, #620, #594, #547 ) ) ;
#1089 = CARTESIAN_POINT ( 'NONE',  ( 0.8099999999999999423, 0.4499999999999999556, -1.100000031914297294 ) ) ;
#1090 = EDGE_CURVE ( 'NONE', #1232, #459, #685, .T. ) ;
#1091 = EDGE_LOOP ( 'NONE', ( #666, #29, #171, #737 ) ) ;
#1092 = CARTESIAN_POINT ( 'NONE',  ( 1.489999999999999991, 0.4499999999999999556, 0.5749999680857016404 ) ) ;
#1093 = DIRECTION ( 'NONE',  ( 0.0000000000000000000, -1.000000000000000000, 0.0000000000000000000 ) ) ;
#1094 = LINE ( 'NONE', #948, #8 ) ;
#1095 = VERTEX_POINT ( 'NONE', #712 ) ;
#1096 = CYLINDRICAL_SURFACE ( 'NONE', #114, 0.1009999999999999648 ) ;
#1097 = CARTESIAN_POINT ( 'NONE',  ( 1.030000000000000027, 0.0000000000000000000, -1.000000031914297205 ) ) ;
#1098 = FACE_OUTER_BOUND ( 'NONE', #1068, .T. ) ;
#1099 = CARTESIAN_POINT ( 'NONE',  ( 1.030000000000000027, 0.0000000000000000000, 0.4000000000000000222 ) ) ;
#1100 = ORIENTED_EDGE ( 'NONE', *, *, #252, .T. ) ;
#1101 = EDGE_CURVE ( 'NONE', #471, #1367, #27, .T. ) ;
#1102 = ORIENTED_EDGE ( 'NONE', *, *, #1042, .T. ) ;
#1103 = VERTEX_POINT ( 'NONE', #293 ) ;
#1104 = AXIS2_PLACEMENT_3D ( 'NONE', #534, #838, #1160 ) ;
#1105 = VECTOR ( 'NONE', #399, 39.37007874015748143 ) ;
#1106 = CARTESIAN_POINT ( 'NONE',  ( -0.5100000000000000089, 0.6500000000000000222, -1.175000031914299248 ) ) ;
#1107 = VECTOR ( 'NONE', #1176, 39.37007874015748143 ) ;
#1108 = DIRECTION ( 'NONE',  ( 1.000000000000000000, 0.0000000000000000000, 0.0000000000000000000 ) ) ;
#1109 = VECTOR ( 'NONE', #846, 39.37007874015748143 ) ;
#1110 = ORIENTED_EDGE ( 'NONE', *, *, #369, .F. ) ;
#1111 = FACE_OUTER_BOUND ( 'NONE', #248, .T. ) ;
#1112 = ADVANCED_FACE ( 'NONE', ( #272 ), #926, .T. ) ;
#1113 = ORIENTED_EDGE ( 'NONE', *, *, #42, .F. ) ;
#1114 = CARTESIAN_POINT ( 'NONE',  ( -0.4110000000000000875, 0.6500000000000000222, -0.9750000319142972938 ) ) ;
#1115 = AXIS2_PLACEMENT_3D ( 'NONE', #496, #695, #145 ) ;
#1116 = DIRECTION ( 'NONE',  ( 0.0000000000000000000, 1.000000000000000000, 0.0000000000000000000 ) ) ;
#1117 = DIRECTION ( 'NONE',  ( -1.000000000000000000, 0.0000000000000000000, 0.0000000000000000000 ) ) ;
#1118 = DIMENSIONAL_EXPONENTS ( 1.000000000000000000, 0.0000000000000000000, 0.0000000000000000000, 0.0000000000000000000, 0.0000000000000000000, 0.0000000000000000000, 0.0000000000000000000 ) ;
#1119 = ORIENTED_EDGE ( 'NONE', *, *, #672, .T. ) ;
#1120 = VERTEX_POINT ( 'NONE', #411 ) ;
#1121 = EDGE_CURVE ( 'NONE', #189, #22, #1215, .T. ) ;
#1122 =( CONVERSION_BASED_UNIT ( 'INCH', #109 ) LENGTH_UNIT ( ) NAMED_UNIT ( #1118 ) );
#1123 = CARTESIAN_POINT ( 'NONE',  ( 0.4900000000000000466, 0.6500000000000000222, -0.3000000159571492020 ) ) ;
#1124 = AXIS2_PLACEMENT_3D ( 'NONE', #928, #1139, #914 ) ;
#1125 = FACE_OUTER_BOUND ( 'NONE', #464, .T. ) ;
#1126 = ORIENTED_EDGE ( 'NONE', *, *, #1350, .T. ) ;
#1127 = FACE_OUTER_BOUND ( 'NONE', #409, .T. ) ;
#1128 = CARTESIAN_POINT ( 'NONE',  ( 1.030000000000000027, 0.0000000000000000000, -1.000000031914297205 ) ) ;
#1129 = ORIENTED_EDGE ( 'NONE', *, *, #693, .F. ) ;
#1130 = CIRCLE ( 'NONE', #591, 0.03500000000000003803 ) ;
#1131 = ORIENTED_EDGE ( 'NONE', *, *, #244, .T. ) ;
#1132 = DIRECTION ( 'NONE',  ( 0.0000000000000000000, -1.000000000000000000, 0.0000000000000000000 ) ) ;
#1133 = ADVANCED_FACE ( 'NONE', ( #831 ), #1249, .T. ) ;
#1134 = AXIS2_PLACEMENT_3D ( 'NONE', #197, #414, #1150 ) ;
#1135 = CARTESIAN_POINT ( 'NONE',  ( 0.9100000000000000311, 0.0000000000000000000, -0.3500000000000000333 ) ) ;
#1136 = ORIENTED_EDGE ( 'NONE', *, *, #924, .F. ) ;
#1137 = DIRECTION ( 'NONE',  ( 0.0000000000000000000, 1.000000000000000000, 0.0000000000000000000 ) ) ;
#1138 = ORIENTED_EDGE ( 'NONE', *, *, #876, .F. ) ;
#1139 = DIRECTION ( 'NONE',  ( 0.0000000000000000000, -1.000000000000000000, 0.0000000000000000000 ) ) ;
#1140 = ADVANCED_FACE ( 'NONE', ( #1248 ), #523, .T. ) ;
#1141 = EDGE_CURVE ( 'NONE', #189, #45, #88, .T. ) ;
#1142 = CARTESIAN_POINT ( 'NONE',  ( 1.489999999999999991, 0.6500000000000000222, -1.175000031914299248 ) ) ;
#1143 = FACE_OUTER_BOUND ( 'NONE', #572, .T. ) ;
#1144 = FACE_BOUND ( 'NONE', #661, .T. ) ;
#1145 = CARTESIAN_POINT ( 'NONE',  ( 1.129999999999999893, 0.0000000000000000000, 0.5000000000000000000 ) ) ;
#1146 = CYLINDRICAL_SURFACE ( 'NONE', #44, 0.03500000000000000333 ) ;
#1147 = ORIENTED_EDGE ( 'NONE', *, *, #1054, .F. ) ;
#1148 = PRESENTATION_STYLE_ASSIGNMENT (( #66 ) ) ;
#1149 = DIRECTION ( 'NONE',  ( 0.0000000000000000000, 0.0000000000000000000, -1.000000000000000000 ) ) ;
#1150 = DIRECTION ( 'NONE',  ( 1.000000000000000000, 0.0000000000000000000, 0.0000000000000000000 ) ) ;
#1151 = CARTESIAN_POINT ( 'NONE',  ( -0.4110000000000000875, 0.4499999999999999556, -0.9750000319142972938 ) ) ;
#1152 = EDGE_CURVE ( 'NONE', #308, #499, #1025, .T. ) ;
#1153 = CARTESIAN_POINT ( 'NONE',  ( 1.030000000000000027, 0.0000000000000000000, -1.000000031914297205 ) ) ;
#1154 = AXIS2_PLACEMENT_3D ( 'NONE', #732, #1271, #102 ) ;
#1155 = CARTESIAN_POINT ( 'NONE',  ( 1.129999999999999893, 0.0000000000000000000, -1.100000031914297294 ) ) ;
#1156 = DIRECTION ( 'NONE',  ( 1.000000000000000000, 0.0000000000000000000, 0.0000000000000000000 ) ) ;
#1157 = EDGE_LOOP ( 'NONE', ( #1317, #659 ) ) ;
#1158 = DIRECTION ( 'NONE',  ( -1.000000000000000000, 0.0000000000000000000, 0.0000000000000000000 ) ) ;
#1159 = ORIENTED_EDGE ( 'NONE', *, *, #389, .T. ) ;
#1160 = DIRECTION ( 'NONE',  ( -1.000000000000000000, 0.0000000000000000000, 0.0000000000000000000 ) ) ;
#1161 = DIRECTION ( 'NONE',  ( 1.000000000000000000, 0.0000000000000000000, 0.0000000000000000000 ) ) ;
#1162 = VECTOR ( 'NONE', #537, 39.37007874015748143 ) ;
#1163 = EDGE_CURVE ( 'NONE', #445, #888, #444, .T. ) ;
#1164 = DIRECTION ( 'NONE',  ( 0.0000000000000000000, 0.0000000000000000000, -1.000000000000000000 ) ) ;
#1165 = EDGE_LOOP ( 'NONE', ( #111, #609 ) ) ;
#1166 = CARTESIAN_POINT ( 'NONE',  ( 0.07000000000000000666, 0.0000000000000000000, -0.8800000000000000044 ) ) ;
#1167 = FACE_OUTER_BOUND ( 'NONE', #1230, .T. ) ;
#1168 = EDGE_LOOP ( 'NONE', ( #687, #387, #579, #1311 ) ) ;
#1169 = CIRCLE ( 'NONE', #1154, 0.03500000000000003803 ) ;
#1170 = ORIENTED_EDGE ( 'NONE', *, *, #177, .T. ) ;
#1171 = CARTESIAN_POINT ( 'NONE',  ( 1.391000000000000236, 0.4499999999999999556, -0.9750000319142972938 ) ) ;
#1172 = CARTESIAN_POINT ( 'NONE',  ( -0.1499999999999999944, 0.0000000000000000000, -1.100000031914297294 ) ) ;
#1173 = DIRECTION ( 'NONE',  ( -1.000000000000000000, 0.0000000000000000000, 0.0000000000000000000 ) ) ;
#1174 = EDGE_LOOP ( 'NONE', ( #801, #124 ) ) ;
#1175 = CARTESIAN_POINT ( 'NONE',  ( 1.030000000000000027, 0.1499999999999999944, -1.000000031914297205 ) ) ;
#1176 = DIRECTION ( 'NONE',  ( 0.0000000000000000000, 0.0000000000000000000, 1.000000000000000000 ) ) ;
#1177 = EDGE_LOOP ( 'NONE', ( #777, #532, #1015, #38 ) ) ;
#1178 = CARTESIAN_POINT ( 'NONE',  ( -0.05000000000000000278, 0.1499999999999999944, 0.4000000000000000222 ) ) ;
#1179 = ORIENTED_EDGE ( 'NONE', *, *, #856, .F. ) ;
#1180 = CARTESIAN_POINT ( 'NONE',  ( 1.290000000000000258, 0.6500000000000000222, 0.3749999680857019624 ) ) ;
#1181 = CYLINDRICAL_SURFACE ( 'NONE', #555, 0.1010000000000000342 ) ;
#1182 = DIRECTION ( 'NONE',  ( -0.0000000000000000000, 1.000000000000000000, 0.0000000000000000000 ) ) ;
#1183 = FACE_BOUND ( 'NONE', #1174, .T. ) ;
#1184 = FACE_OUTER_BOUND ( 'NONE', #138, .T. ) ;
#1185 = APPLICATION_CONTEXT ( 'automotive_design' ) ;
#1186 = SURFACE_STYLE_FILL_AREA ( #908 ) ;
#1187 = VERTEX_POINT ( 'NONE', #556 ) ;
#1188 = DIRECTION ( 'NONE',  ( -1.000000000000000000, 0.0000000000000000000, 0.0000000000000000000 ) ) ;
#1189 = CARTESIAN_POINT ( 'NONE',  ( 1.391000000000000236, 0.6500000000000000222, 0.3749999680857019624 ) ) ;
#1190 = DIRECTION ( 'NONE',  ( 0.0000000000000000000, 0.0000000000000000000, 1.000000000000000000 ) ) ;
#1191 = EDGE_CURVE ( 'NONE', #1103, #1194, #867, .T. ) ;
#1192 = ORIENTED_EDGE ( 'NONE', *, *, #577, .F. ) ;
#1193 =( NAMED_UNIT ( * ) PLANE_ANGLE_UNIT ( ) SI_UNIT ( $, .RADIAN. ) );
#1194 = VERTEX_POINT ( 'NONE', #1070 ) ;
#1195 = FACE_OUTER_BOUND ( 'NONE', #10, .T. ) ;
#1196 = DIRECTION ( 'NONE',  ( 0.0000000000000000000, -1.000000000000000000, 0.0000000000000000000 ) ) ;
#1197 = LINE ( 'NONE', #433, #1107 ) ;
#1198 = CARTESIAN_POINT ( 'NONE',  ( 1.290000000000000258, 0.4499999999999999556, 0.3749999680857019624 ) ) ;
#1199 = EDGE_CURVE ( 'NONE', #822, #1309, #563, .T. ) ;
#1200 = ORIENTED_EDGE ( 'NONE', *, *, #1219, .F. ) ;
#1201 = VECTOR ( 'NONE', #504, 39.37007874015748143 ) ;
#1202 = CARTESIAN_POINT ( 'NONE',  ( -0.05000000000000000278, 0.0000000000000000000, 0.4000000000000000222 ) ) ;
#1203 = VERTEX_POINT ( 'NONE', #1051 ) ;
#1204 = CIRCLE ( 'NONE', #1221, 0.03500000000000003803 ) ;
#1205 = AXIS2_PLACEMENT_3D ( 'NONE', #1135, #416, #78 ) ;
#1206 = VERTEX_POINT ( 'NONE', #116 ) ;
#1207 = APPLICATION_CONTEXT ( 'automotive_design' ) ;
#1208 = PLANE ( 'NONE',  #664 ) ;
#1209 = ORIENTED_EDGE ( 'NONE', *, *, #1368, .T. ) ;
#1210 = AXIS2_PLACEMENT_3D ( 'NONE', #1035, #1259, #412 ) ;
#1211 = EDGE_LOOP ( 'NONE', ( #961, #1376, #410, #845 ) ) ;
#1212 = CARTESIAN_POINT ( 'NONE',  ( -0.5100000000000000089, 0.6500000000000000222, 0.5749999680857016404 ) ) ;
#1213 = VECTOR ( 'NONE', #1075, 39.37007874015748143 ) ;
#1214 = LINE ( 'NONE', #1381, #1339 ) ;
#1215 = CIRCLE ( 'NONE', #766, 0.1009999999999999648 ) ;
#1216 = ORIENTED_EDGE ( 'NONE', *, *, #678, .F. ) ;
#1217 = PLANE ( 'NONE',  #1334 ) ;
#1218 = ORIENTED_EDGE ( 'NONE', *, *, #1324, .F. ) ;
#1219 = EDGE_CURVE ( 'NONE', #497, #917, #123, .T. ) ;
#1220 = ORIENTED_EDGE ( 'NONE', *, *, #931, .T. ) ;
#1221 = AXIS2_PLACEMENT_3D ( 'NONE', #865, #234, #329 ) ;
#1222 = ADVANCED_FACE ( 'NONE', ( #657 ), #1067, .T. ) ;
#1223 = VECTOR ( 'NONE', #24, 39.37007874015748143 ) ;
#1224 = CARTESIAN_POINT ( 'NONE',  ( 0.9450000000000000622, 0.0000000000000000000, -0.8800000000000000044 ) ) ;
#1225 = ORIENTED_EDGE ( 'NONE', *, *, #510, .T. ) ;
#1226 = CARTESIAN_POINT ( 'NONE',  ( 1.189000000000000279, 0.4499999999999999556, 0.3749999680857019624 ) ) ;
#1227 = ORIENTED_EDGE ( 'NONE', *, *, #33, .T. ) ;
#1228 = DIRECTION ( 'NONE',  ( 0.0000000000000000000, -1.000000000000000000, 0.0000000000000000000 ) ) ;
#1229 = LINE ( 'NONE', #1153, #1080 ) ;
#1230 = EDGE_LOOP ( 'NONE', ( #49, #1358, #366, #290 ) ) ;
#1231 = VECTOR ( 'NONE', #847, 39.37007874015748143 ) ;
#1232 = VERTEX_POINT ( 'NONE', #221 ) ;
#1233 = CARTESIAN_POINT ( 'NONE',  ( 1.189000000000000279, 0.6500000000000000222, 0.3749999680857019624 ) ) ;
#1234 = LINE ( 'NONE', #1092, #482 ) ;
#1235 = ADVANCED_FACE ( 'NONE', ( #1325 ), #1146, .F. ) ;
#1236 = EDGE_CURVE ( 'NONE', #829, #868, #476, .T. ) ;
#1237 = DIRECTION ( 'NONE',  ( 0.0000000000000000000, -1.000000000000000000, 0.0000000000000000000 ) ) ;
#1238 = ORIENTED_EDGE ( 'NONE', *, *, #526, .T. ) ;
#1239 = CARTESIAN_POINT ( 'NONE',  ( 1.030000000000000027, 0.6500000000000000222, -1.000000031914297205 ) ) ;
#1240 = ADVANCED_FACE ( 'NONE', ( #1184 ), #1276, .T. ) ;
#1241 = ORIENTED_EDGE ( 'NONE', *, *, #510, .F. ) ;
#1242 = EDGE_CURVE ( 'NONE', #1007, #36, #614, .T. ) ;
#1243 = CARTESIAN_POINT ( 'NONE',  ( -0.5100000000000000089, 0.6500000000000000222, -1.175000031914299248 ) ) ;
#1244 = AXIS2_PLACEMENT_3D ( 'NONE', #1020, #1375, #1030 ) ;
#1245 = DIRECTION ( 'NONE',  ( 0.0000000000000000000, 0.0000000000000000000, 1.000000000000000000 ) ) ;
#1246 = LINE ( 'NONE', #246, #1213 ) ;
#1247 = LINE ( 'NONE', #676, #1264 ) ;
#1248 = FACE_OUTER_BOUND ( 'NONE', #243, .T. ) ;
#1249 = PLANE ( 'NONE',  #490 ) ;
#1250 = ORIENTED_EDGE ( 'NONE', *, *, #1305, .F. ) ;
#1251 = VERTEX_POINT ( 'NONE', #643 ) ;
#1252 = CARTESIAN_POINT ( 'NONE',  ( -0.3100000000000000533, 0.6500000000000000222, 0.3749999680857019624 ) ) ;
#1253 = CARTESIAN_POINT ( 'NONE',  ( 0.8199999999999999512, 0.0000000000000000000, 0.3500000000000000333 ) ) ;
#1254 = DIRECTION ( 'NONE',  ( 0.0000000000000000000, 0.0000000000000000000, 1.000000000000000000 ) ) ;
#1255 = DIRECTION ( 'NONE',  ( 0.0000000000000000000, 1.000000000000000000, 0.0000000000000000000 ) ) ;
#1256 = CARTESIAN_POINT ( 'NONE',  ( -0.1499999999999999944, 0.0000000000000000000, -1.100000031914297294 ) ) ;
#1257 = VERTEX_POINT ( 'NONE', #953 ) ;
#1258 = CARTESIAN_POINT ( 'NONE',  ( 0.07000000000000000666, 0.0000000000000000000, -0.8800000000000000044 ) ) ;
#1259 = DIRECTION ( 'NONE',  ( 0.0000000000000000000, -1.000000000000000000, 0.0000000000000000000 ) ) ;
#1260 = CARTESIAN_POINT ( 'NONE',  ( 0.1050000000000000100, 0.0000000000000000000, -0.3500000000000000333 ) ) ;
#1261 = EDGE_CURVE ( 'NONE', #888, #445, #1290, .T. ) ;
#1262 = LINE ( 'NONE', #979, #971 ) ;
#1263 = PRODUCT_DEFINITION ( 'UNKNOWN', '', #35, #332 ) ;
#1264 = VECTOR ( 'NONE', #253, 39.37007874015748143 ) ;
#1265 = DIRECTION ( 'NONE',  ( 0.0000000000000000000, 0.0000000000000000000, -1.000000000000000000 ) ) ;
#1266 = CARTESIAN_POINT ( 'NONE',  ( 1.189000000000000279, 0.6500000000000000222, -0.9750000319142972938 ) ) ;
#1267 = EDGE_LOOP ( 'NONE', ( #767, #985, #1036, #710 ) ) ;
#1268 = CARTESIAN_POINT ( 'NONE',  ( 1.030000000000000027, 0.0000000000000000000, 0.4000000000000000222 ) ) ;
#1269 = VECTOR ( 'NONE', #1173, 39.37007874015748143 ) ;
#1270 = ORIENTED_EDGE ( 'NONE', *, *, #1073, .T. ) ;
#1271 = DIRECTION ( 'NONE',  ( 0.0000000000000000000, -1.000000000000000000, 0.0000000000000000000 ) ) ;
#1272 = LINE ( 'NONE', #1268, #380 ) ;
#1273 = DIRECTION ( 'NONE',  ( -1.000000000000000000, 0.0000000000000000000, 0.0000000000000000000 ) ) ;
#1274 = CARTESIAN_POINT ( 'NONE',  ( 0.8199999999999999512, 0.0000000000000000000, 0.3500000000000000333 ) ) ;
#1275 = EDGE_CURVE ( 'NONE', #20, #163, #342, .T. ) ;
#1276 = PLANE ( 'NONE',  #348 ) ;
#1277 = AXIS2_PLACEMENT_3D ( 'NONE', #625, #118, #1273 ) ;
#1278 = DIRECTION ( 'NONE',  ( 1.000000000000000000, 0.0000000000000000000, 0.0000000000000000000 ) ) ;
#1279 = ORIENTED_EDGE ( 'NONE', *, *, #862, .F. ) ;
#1280 = DIRECTION ( 'NONE',  ( 0.0000000000000000000, -1.000000000000000000, 0.0000000000000000000 ) ) ;
#1281 = ORIENTED_EDGE ( 'NONE', *, *, #795, .F. ) ;
#1282 = DIRECTION ( 'NONE',  ( 0.0000000000000000000, 0.0000000000000000000, -1.000000000000000000 ) ) ;
#1283 = DIRECTION ( 'NONE',  ( 0.0000000000000000000, 1.000000000000000000, 0.0000000000000000000 ) ) ;
#1284 = CARTESIAN_POINT ( 'NONE',  ( -0.3100000000000000533, 0.6500000000000000222, -0.9750000319142972938 ) ) ;
#1285 = PLANE ( 'NONE',  #995 ) ;
#1286 = LINE ( 'NONE', #841, #220 ) ;
#1287 = AXIS2_PLACEMENT_3D ( 'NONE', #1297, #350, #40 ) ;
#1288 = DIRECTION ( 'NONE',  ( 0.0000000000000000000, 1.000000000000000000, 0.0000000000000000000 ) ) ;
#1289 = LINE ( 'NONE', #506, #407 ) ;
#1290 = CIRCLE ( 'NONE', #254, 0.1009999999999999648 ) ;
#1291 = CARTESIAN_POINT ( 'NONE',  ( -0.3100000000000000533, 0.6500000000000000222, 0.3749999680857019624 ) ) ;
#1292 = ORIENTED_EDGE ( 'NONE', *, *, #1101, .F. ) ;
#1293 = VECTOR ( 'NONE', #1377, 39.37007874015748143 ) ;
#1294 = VERTEX_POINT ( 'NONE', #753 ) ;
#1295 = DIRECTION ( 'NONE',  ( 0.0000000000000000000, 0.0000000000000000000, -1.000000000000000000 ) ) ;
#1296 = DIRECTION ( 'NONE',  ( 0.0000000000000000000, -1.000000000000000000, 0.0000000000000000000 ) ) ;
#1297 = CARTESIAN_POINT ( 'NONE',  ( -0.05000000000000000278, 0.0000000000000000000, -1.000000031914297205 ) ) ;
#1298 = EDGE_CURVE ( 'NONE', #429, #1206, #1272, .T. ) ;
#1299 = ORIENTED_EDGE ( 'NONE', *, *, #227, .F. ) ;
#1300 = APPLICATION_PROTOCOL_DEFINITION ( 'draft international standard', 'automotive_design', 1998, #1207 ) ;
#1301 = DIRECTION ( 'NONE',  ( 0.0000000000000000000, 1.000000000000000000, 0.0000000000000000000 ) ) ;
#1302 = ORIENTED_EDGE ( 'NONE', *, *, #1163, .F. ) ;
#1303 = FACE_BOUND ( 'NONE', #1168, .T. ) ;
#1304 = DIRECTION ( 'NONE',  ( 0.0000000000000000000, 0.0000000000000000000, 1.000000000000000000 ) ) ;
#1305 = EDGE_CURVE ( 'NONE', #385, #784, #175, .T. ) ;
#1306 = CIRCLE ( 'NONE', #6, 0.1009999999999999648 ) ;
#1307 = DIRECTION ( 'NONE',  ( -1.000000000000000000, 0.0000000000000000000, 0.0000000000000000000 ) ) ;
#1308 =( GEOMETRIC_REPRESENTATION_CONTEXT ( 3 ) GLOBAL_UNCERTAINTY_ASSIGNED_CONTEXT ( ( #820 ) ) GLOBAL_UNIT_ASSIGNED_CONTEXT ( ( #677, #691, #381 ) ) REPRESENTATION_CONTEXT ( 'NONE', 'WORKASPACE' ) );
#1309 = VERTEX_POINT ( 'NONE', #424 ) ;
#1310 = ADVANCED_BREP_SHAPE_REPRESENTATION ( 'Camera Case', ( #616, #881, #415 ), #837 ) ;
#1311 = ORIENTED_EDGE ( 'NONE', *, *, #652, .F. ) ;
#1312 = LINE ( 'NONE', #1333, #638 ) ;
#1313 = CARTESIAN_POINT ( 'NONE',  ( 1.290000000000000258, 0.6500000000000000222, 0.3749999680857019624 ) ) ;
#1314 = VERTEX_POINT ( 'NONE', #654 ) ;
#1315 =( NAMED_UNIT ( * ) SI_UNIT ( $, .STERADIAN. ) SOLID_ANGLE_UNIT ( ) );
#1316 = AXIS2_PLACEMENT_3D ( 'NONE', #839, #935, #9 ) ;
#1317 = ORIENTED_EDGE ( 'NONE', *, *, #663, .T. ) ;
#1318 = PLANE ( 'NONE',  #686 ) ;
#1319 = VERTEX_POINT ( 'NONE', #1172 ) ;
#1320 = CARTESIAN_POINT ( 'NONE',  ( -0.3100000000000000533, 0.4499999999999999556, -0.9750000319142972938 ) ) ;
#1321 = FACE_OUTER_BOUND ( 'NONE', #1043, .T. ) ;
#1322 = FACE_OUTER_BOUND ( 'NONE', #759, .T. ) ;
#1323 = SURFACE_STYLE_USAGE ( .BOTH. , #987 ) ;
#1324 = EDGE_CURVE ( 'NONE', #580, #265, #468, .T. ) ;
#1325 = FACE_OUTER_BOUND ( 'NONE', #927, .T. ) ;
#1326 = ORIENTED_EDGE ( 'NONE', *, *, #642, .T. ) ;
#1327 = UNCERTAINTY_MEASURE_WITH_UNIT (LENGTH_MEASURE( 1.000000000000000082E-05 ), #1122, 'distance_accuracy_value', 'NONE');
#1328 = FACE_BOUND ( 'NONE', #694, .T. ) ;
#1329 = AXIS2_PLACEMENT_3D ( 'NONE', #903, #599, #69 ) ;
#1330 = ORIENTED_EDGE ( 'NONE', *, *, #168, .F. ) ;
#1331 = DIRECTION ( 'NONE',  ( -1.000000000000000000, 0.0000000000000000000, 0.0000000000000000000 ) ) ;
#1332 = VERTEX_POINT ( 'NONE', #760 ) ;
#1333 = CARTESIAN_POINT ( 'NONE',  ( 0.1600000000000000033, 0.0000000000000000000, 0.3500000000000000333 ) ) ;
#1334 = AXIS2_PLACEMENT_3D ( 'NONE', #999, #886, #674 ) ;
#1335 = ORIENTED_EDGE ( 'NONE', *, *, #630, .F. ) ;
#1336 = ADVANCED_FACE ( 'NONE', ( #621 ), #340, .T. ) ;
#1337 =( NAMED_UNIT ( * ) PLANE_ANGLE_UNIT ( ) SI_UNIT ( $, .RADIAN. ) );
#1338 = LINE ( 'NONE', #525, #152 ) ;
#1339 = VECTOR ( 'NONE', #530, 39.37007874015748143 ) ;
#1340 = CARTESIAN_POINT ( 'NONE',  ( 1.030000000000000027, 0.0000000000000000000, 0.4000000000000000222 ) ) ;
#1341 = ORIENTED_EDGE ( 'NONE', *, *, #900, .T. ) ;
#1342 = LINE ( 'NONE', #1128, #1201 ) ;
#1343 = EDGE_CURVE ( 'NONE', #214, #822, #1234, .T. ) ;
#1344 = CIRCLE ( 'NONE', #1384, 0.03500000000000000333 ) ;
#1345 = ORIENTED_EDGE ( 'NONE', *, *, #724, .T. ) ;
#1346 = CARTESIAN_POINT ( 'NONE',  ( 0.9100000000000000311, 0.0000000000000000000, -0.8800000000000000044 ) ) ;
#1347 = LINE ( 'NONE', #137, #552 ) ;
#1348 = DIRECTION ( 'NONE',  ( 0.0000000000000000000, 0.0000000000000000000, -1.000000000000000000 ) ) ;
#1349 = ORIENTED_EDGE ( 'NONE', *, *, #951, .F. ) ;
#1350 = EDGE_CURVE ( 'NONE', #1380, #627, #349, .T. ) ;
#1351 = CARTESIAN_POINT ( 'NONE',  ( -0.3100000000000000533, 0.6500000000000000222, 0.3749999680857019624 ) ) ;
#1352 = ORIENTED_EDGE ( 'NONE', *, *, #233, .F. ) ;
#1353 = AXIS2_PLACEMENT_3D ( 'NONE', #418, #915, #79 ) ;
#1354 = CARTESIAN_POINT ( 'NONE',  ( -0.4110000000000000875, 0.4499999999999999556, 0.3749999680857019624 ) ) ;
#1355 = EDGE_LOOP ( 'NONE', ( #1170, #974, #1060, #437 ) ) ;
#1356 = DIRECTION ( 'NONE',  ( 0.0000000000000000000, -1.000000000000000000, 0.0000000000000000000 ) ) ;
#1357 = VECTOR ( 'NONE', #1063, 39.37007874015748143 ) ;
#1358 = ORIENTED_EDGE ( 'NONE', *, *, #369, .T. ) ;
#1359 = CARTESIAN_POINT ( 'NONE',  ( -0.5100000000000000089, 0.6500000000000000222, 0.5749999680857016404 ) ) ;
#1360 = CYLINDRICAL_SURFACE ( 'NONE', #1353, 0.03500000000000000333 ) ;
#1361 = ORIENTED_EDGE ( 'NONE', *, *, #160, .T. ) ;
#1362 = PRESENTATION_LAYER_ASSIGNMENT (  '', '', ( #892 ) ) ;
#1363 = DIRECTION ( 'NONE',  ( 0.0000000000000000000, 1.000000000000000000, 0.0000000000000000000 ) ) ;
#1364 = DIRECTION ( 'NONE',  ( 1.000000000000000000, 0.0000000000000000000, -0.0000000000000000000 ) ) ;
#1365 = DIRECTION ( 'NONE',  ( -1.000000000000000000, 0.0000000000000000000, 0.0000000000000000000 ) ) ;
#1366 = ORIENTED_EDGE ( 'NONE', *, *, #397, .T. ) ;
#1367 = VERTEX_POINT ( 'NONE', #469 ) ;
#1368 = EDGE_CURVE ( 'NONE', #75, #298, #1347, .T. ) ;
#1369 = CARTESIAN_POINT ( 'NONE',  ( -0.05000000000000000278, 0.0000000000000000000, -1.000000031914297205 ) ) ;
#1370 = DIRECTION ( 'NONE',  ( 0.0000000000000000000, 1.000000000000000000, 0.0000000000000000000 ) ) ;
#1371 = DIRECTION ( 'NONE',  ( 0.0000000000000000000, 1.000000000000000000, 0.0000000000000000000 ) ) ;
#1372 = LINE ( 'NONE', #964, #527 ) ;
#1373 = LINE ( 'NONE', #950, #729 ) ;
#1374 = VECTOR ( 'NONE', #859, 39.37007874015748143 ) ;
#1375 = DIRECTION ( 'NONE',  ( 1.000000000000000000, 0.0000000000000000000, 0.0000000000000000000 ) ) ;
#1376 = ORIENTED_EDGE ( 'NONE', *, *, #434, .T. ) ;
#1377 = DIRECTION ( 'NONE',  ( 0.0000000000000000000, 1.000000000000000000, 0.0000000000000000000 ) ) ;
#1378 = CYLINDRICAL_SURFACE ( 'NONE', #655, 0.1010000000000000342 ) ;
#1379 = EDGE_LOOP ( 'NONE', ( #260, #1345, #106, #934 ) ) ;
#1380 = VERTEX_POINT ( 'NONE', #878 ) ;
#1381 = CARTESIAN_POINT ( 'NONE',  ( 0.1600000000000000033, 0.0000000000000000000, 0.2999999999999999889 ) ) ;
#1382 = EDGE_CURVE ( 'NONE', #1294, #445, #159, .T. ) ;
#1383 = CARTESIAN_POINT ( 'NONE',  ( 0.1600000000000000033, 0.0000000000000000000, 0.2999999999999999889 ) ) ;
#1384 = AXIS2_PLACEMENT_3D ( 'NONE', #682, #776, #1108 ) ;
#1385 = CARTESIAN_POINT ( 'NONE',  ( 1.391000000000000236, 0.6500000000000000222, 0.3749999680857019624 ) ) ;
ENDSEC;
END-ISO-10303-21;
