ISO-10303-21;
HEADER;
FILE_DESCRIPTION (( 'STEP AP214' ),
    '1' );
FILE_NAME ('Left Wall.step',
    '2018-09-03T05:45:39',
    ( '' ),
    ( '' ),
    'SwSTEP 2.0',
    'SolidWorks 2018',
    '' );
FILE_SCHEMA (( 'AUTOMOTIVE_DESIGN' ));
ENDSEC;

DATA;
#1 = DIRECTION ( 'NONE',  ( 0.0000000000000000000, 0.0000000000000000000, 1.000000000000000000 ) ) ;
#2 = VERTEX_POINT ( 'NONE', #38 ) ;
#3 = CYLINDRICAL_SURFACE ( 'NONE', #222, 0.1325000000000008393 ) ;
#4 = EDGE_CURVE ( 'NONE', #136, #32, #480, .T. ) ;
#5 = CARTESIAN_POINT ( 'NONE',  ( 0.2500000000000000000, 61.19000000000000483, 27.50000000000000000 ) ) ;
#6 = LINE ( 'NONE', #334, #628 ) ;
#7 = AXIS2_PLACEMENT_3D ( 'NONE', #463, #509, #124 ) ;
#8 = ORIENTED_EDGE ( 'NONE', *, *, #432, .F. ) ;
#9 = ORIENTED_EDGE ( 'NONE', *, *, #557, .F. ) ;
#10 = CARTESIAN_POINT ( 'NONE',  ( 0.0000000000000000000, 44.69000000000000483, 17.53125000000000355 ) ) ;
#11 = ADVANCED_FACE ( 'NONE', ( #611 ), #292, .F. ) ;
#12 = CARTESIAN_POINT ( 'NONE',  ( 0.2500000000000000000, 30.18750000000000711, 4.997500000000000497 ) ) ;
#13 = ADVANCED_FACE ( 'NONE', ( #587 ), #302, .F. ) ;
#14 = CYLINDRICAL_SURFACE ( 'NONE', #572, 0.1325000000000008393 ) ;
#15 = ORIENTED_EDGE ( 'NONE', *, *, #456, .T. ) ;
#16 = SURFACE_STYLE_USAGE ( .BOTH. , #500 ) ;
#17 = DIRECTION ( 'NONE',  ( 0.0000000000000000000, 0.0000000000000000000, -1.000000000000000000 ) ) ;
#18 = CARTESIAN_POINT ( 'NONE',  ( 0.2500000000000000000, 30.18750000000000711, 24.43750000000000000 ) ) ;
#19 = FACE_BOUND ( 'NONE', #501, .T. ) ;
#20 = COLOUR_RGB ( '',0.7921568627450980005, 0.8196078431372548767, 0.9333333333333333481 ) ;
#21 = CARTESIAN_POINT ( 'NONE',  ( 0.0000000000000000000, 0.0000000000000000000, 0.0000000000000000000 ) ) ;
#22 = EDGE_LOOP ( 'NONE', ( #191, #323 ) ) ;
#23 = ORIENTED_EDGE ( 'NONE', *, *, #511, .T. ) ;
#24 = PLANE ( 'NONE',  #238 ) ;
#25 = CARTESIAN_POINT ( 'NONE',  ( 0.0000000000000000000, 44.69000000000000483, 9.968750000000003553 ) ) ;
#26 = EDGE_CURVE ( 'NONE', #32, #98, #85, .T. ) ;
#27 = AXIS2_PLACEMENT_3D ( 'NONE', #337, #83, #77 ) ;
#28 = CARTESIAN_POINT ( 'NONE',  ( 0.0000000000000000000, 30.18750000000000711, 24.43750000000000000 ) ) ;
#29 = ORIENTED_EDGE ( 'NONE', *, *, #481, .T. ) ;
#30 = CIRCLE ( 'NONE', #7, 0.1325000000000008393 ) ;
#31 = FACE_BOUND ( 'NONE', #410, .T. ) ;
#32 = VERTEX_POINT ( 'NONE', #42 ) ;
#33 = DIRECTION ( 'NONE',  ( 0.0000000000000000000, 0.0000000000000000000, -1.000000000000000000 ) ) ;
#34 = DIRECTION ( 'NONE',  ( 1.000000000000000000, 0.0000000000000000000, 0.0000000000000000000 ) ) ;
#35 = CARTESIAN_POINT ( 'NONE',  ( 0.0000000000000000000, 40.34625000000000483, 17.53125000000000355 ) ) ;
#36 = VECTOR ( 'NONE', #360, 39.37007874015748143 ) ;
#37 = CIRCLE ( 'NONE', #43, 0.1325000000000008393 ) ;
#38 = CARTESIAN_POINT ( 'NONE',  ( 0.0000000000000000000, 30.18750000000000711, 3.195000000000001172 ) ) ;
#39 = ORIENTED_EDGE ( 'NONE', *, *, #591, .F. ) ;
#40 = ORIENTED_EDGE ( 'NONE', *, *, #560, .T. ) ;
#41 = EDGE_CURVE ( 'NONE', #610, #148, #221, .T. ) ;
#42 = CARTESIAN_POINT ( 'NONE',  ( 0.0000000000000000000, 30.18750000000000711, 22.37000000000000099 ) ) ;
#43 = AXIS2_PLACEMENT_3D ( 'NONE', #166, #177, #419 ) ;
#44 = ORIENTED_EDGE ( 'NONE', *, *, #511, .F. ) ;
#45 = DIRECTION ( 'NONE',  ( 0.0000000000000000000, 1.000000000000000000, 0.0000000000000000000 ) ) ;
#46 = VERTEX_POINT ( 'NONE', #342 ) ;
#47 = ORIENTED_EDGE ( 'NONE', *, *, #299, .T. ) ;
#48 = EDGE_CURVE ( 'NONE', #386, #68, #145, .T. ) ;
#49 = ADVANCED_FACE ( 'NONE', ( #424, #287, #31, #453, #158, #372 ), #291, .T. ) ;
#50 = CIRCLE ( 'NONE', #86, 0.1325000000000008393 ) ;
#51 = AXIS2_PLACEMENT_3D ( 'NONE', #413, #567, #170 ) ;
#52 = ORIENTED_EDGE ( 'NONE', *, *, #591, .T. ) ;
#53 = ORIENTED_EDGE ( 'NONE', *, *, #305, .F. ) ;
#54 = DIMENSIONAL_EXPONENTS ( 1.000000000000000000, 0.0000000000000000000, 0.0000000000000000000, 0.0000000000000000000, 0.0000000000000000000, 0.0000000000000000000, 0.0000000000000000000 ) ;
#55 = CARTESIAN_POINT ( 'NONE',  ( 0.0000000000000000000, 30.18750000000000711, 2.929999999999999716 ) ) ;
#56 = PLANE ( 'NONE',  #344 ) ;
#57 =( LENGTH_UNIT ( ) NAMED_UNIT ( * ) SI_UNIT ( $, .METRE. ) );
#58 = CIRCLE ( 'NONE', #324, 0.1325000000000008393 ) ;
#59 = EDGE_CURVE ( 'NONE', #566, #417, #169, .T. ) ;
#60 = AXIS2_PLACEMENT_3D ( 'NONE', #133, #422, #129 ) ;
#61 = ORIENTED_EDGE ( 'NONE', *, *, #256, .F. ) ;
#62 = ORIENTED_EDGE ( 'NONE', *, *, #456, .F. ) ;
#63 = DIRECTION ( 'NONE',  ( 1.000000000000000000, 0.0000000000000000000, 0.0000000000000000000 ) ) ;
#64 = CYLINDRICAL_SURFACE ( 'NONE', #189, 0.1325000000000008393 ) ;
#65 = FACE_OUTER_BOUND ( 'NONE', #597, .T. ) ;
#66 = ORIENTED_EDGE ( 'NONE', *, *, #208, .F. ) ;
#67 = FILL_AREA_STYLE_COLOUR ( '', #328 ) ;
#68 = VERTEX_POINT ( 'NONE', #545 ) ;
#69 = CARTESIAN_POINT ( 'NONE',  ( 0.2500000000000000000, 44.69000000000000483, 17.53125000000000355 ) ) ;
#70 =( CONVERSION_BASED_UNIT ( 'INCH', #541 ) LENGTH_UNIT ( ) NAMED_UNIT ( #358 ) );
#71 = EDGE_CURVE ( 'NONE', #198, #2, #364, .T. ) ;
#72 = DIRECTION ( 'NONE',  ( 0.0000000000000000000, 0.0000000000000000000, -1.000000000000000000 ) ) ;
#73 = FACE_OUTER_BOUND ( 'NONE', #596, .T. ) ;
#74 = DIRECTION ( 'NONE',  ( 0.0000000000000000000, -1.000000000000000000, 0.0000000000000000000 ) ) ;
#75 = ORIENTED_EDGE ( 'NONE', *, *, #187, .T. ) ;
#76 = ORIENTED_EDGE ( 'NONE', *, *, #41, .T. ) ;
#77 = DIRECTION ( 'NONE',  ( 0.0000000000000000000, 0.0000000000000000000, -1.000000000000000000 ) ) ;
#78 = CARTESIAN_POINT ( 'NONE',  ( 0.0000000000000000000, 30.59500000000000242, 13.75000000000000000 ) ) ;
#79 = PRODUCT_RELATED_PRODUCT_CATEGORY ( 'part', '', ( #219 ) ) ;
#80 = EDGE_CURVE ( 'NONE', #297, #98, #601, .T. ) ;
#81 = DIRECTION ( 'NONE',  ( 0.0000000000000000000, 0.0000000000000000000, -1.000000000000000000 ) ) ;
#82 = VECTOR ( 'NONE', #74, 39.37007874015748143 ) ;
#83 = DIRECTION ( 'NONE',  ( 1.000000000000000000, -0.0000000000000000000, -0.0000000000000000000 ) ) ;
#84 = ORIENTED_EDGE ( 'NONE', *, *, #210, .T. ) ;
#85 = LINE ( 'NONE', #431, #542 ) ;
#86 = AXIS2_PLACEMENT_3D ( 'NONE', #563, #165, #569 ) ;
#87 = DIRECTION ( 'NONE',  ( 1.000000000000000000, -0.0000000000000000000, -0.0000000000000000000 ) ) ;
#88 = LINE ( 'NONE', #321, #607 ) ;
#89 = ORIENTED_EDGE ( 'NONE', *, *, #264, .T. ) ;
#90 = EDGE_CURVE ( 'NONE', #108, #353, #505, .T. ) ;
#91 = ORIENTED_EDGE ( 'NONE', *, *, #293, .T. ) ;
#92 = AXIS2_PLACEMENT_3D ( 'NONE', #209, #311, #449 ) ;
#93 = CARTESIAN_POINT ( 'NONE',  ( 0.0000000000000000000, 30.18750000000000711, 4.997500000000000497 ) ) ;
#94 = DIRECTION ( 'NONE',  ( -0.0000000000000000000, -0.0000000000000000000, 1.000000000000000000 ) ) ;
#95 = VECTOR ( 'NONE', #599, 39.37007874015748143 ) ;
#96 = DIRECTION ( 'NONE',  ( 0.0000000000000000000, 0.0000000000000000000, 1.000000000000000000 ) ) ;
#97 = CYLINDRICAL_SURFACE ( 'NONE', #616, 0.1325000000000008393 ) ;
#98 = VERTEX_POINT ( 'NONE', #641 ) ;
#99 = AXIS2_PLACEMENT_3D ( 'NONE', #236, #109, #63 ) ;
#100 = ORIENTED_EDGE ( 'NONE', *, *, #388, .T. ) ;
#101 = DIRECTION ( 'NONE',  ( 1.000000000000000000, -0.0000000000000000000, -0.0000000000000000000 ) ) ;
#102 = CARTESIAN_POINT ( 'NONE',  ( 0.0000000000000000000, 44.69000000000000483, 17.53125000000000355 ) ) ;
#103 = ADVANCED_FACE ( 'NONE', ( #593 ), #447, .F. ) ;
#104 = ORIENTED_EDGE ( 'NONE', *, *, #625, .F. ) ;
#105 = EDGE_CURVE ( 'NONE', #504, #631, #350, .T. ) ;
#106 = LINE ( 'NONE', #155, #95 ) ;
#107 = APPLICATION_CONTEXT ( 'automotive_design' ) ;
#108 = VERTEX_POINT ( 'NONE', #592 ) ;
#109 = DIRECTION ( 'NONE',  ( 0.0000000000000000000, 0.0000000000000000000, 1.000000000000000000 ) ) ;
#110 = ORIENTED_EDGE ( 'NONE', *, *, #157, .T. ) ;
#111 = EDGE_CURVE ( 'NONE', #631, #610, #399, .T. ) ;
#112 = CYLINDRICAL_SURFACE ( 'NONE', #390, 0.1325000000000008393 ) ;
#113 = VECTOR ( 'NONE', #464, 39.37007874015748143 ) ;
#114 = CARTESIAN_POINT ( 'NONE',  ( 0.2500000000000000000, 0.0000000000000000000, 0.0000000000000000000 ) ) ;
#115 = ORIENTED_EDGE ( 'NONE', *, *, #446, .F. ) ;
#116 =( NAMED_UNIT ( * ) PLANE_ANGLE_UNIT ( ) SI_UNIT ( $, .RADIAN. ) );
#117 = EDGE_CURVE ( 'NONE', #461, #276, #586, .T. ) ;
#118 = CARTESIAN_POINT ( 'NONE',  ( 0.0000000000000000000, 44.69000000000000483, 9.968750000000003553 ) ) ;
#119 = EDGE_CURVE ( 'NONE', #154, #445, #580, .T. ) ;
#120 =( NAMED_UNIT ( * ) SI_UNIT ( $, .STERADIAN. ) SOLID_ANGLE_UNIT ( ) );
#121 = DIRECTION ( 'NONE',  ( 1.000000000000000000, 0.0000000000000000000, 0.0000000000000000000 ) ) ;
#122 = ORIENTED_EDGE ( 'NONE', *, *, #147, .F. ) ;
#123 = CIRCLE ( 'NONE', #414, 0.1325000000000008393 ) ;
#124 = DIRECTION ( 'NONE',  ( 0.0000000000000000000, 0.0000000000000000000, -1.000000000000000000 ) ) ;
#125 = EDGE_LOOP ( 'NONE', ( #261, #100, #61, #436 ) ) ;
#126 = EDGE_CURVE ( 'NONE', #213, #268, #467, .T. ) ;
#127 = DIRECTION ( 'NONE',  ( 0.0000000000000000000, -1.000000000000000000, 0.0000000000000000000 ) ) ;
#128 =( GEOMETRIC_REPRESENTATION_CONTEXT ( 3 ) GLOBAL_UNCERTAINTY_ASSIGNED_CONTEXT ( ( #536 ) ) GLOBAL_UNIT_ASSIGNED_CONTEXT ( ( #212, #559, #312 ) ) REPRESENTATION_CONTEXT ( 'NONE', 'WORKASPACE' ) );
#129 = DIRECTION ( 'NONE',  ( 0.0000000000000000000, 0.0000000000000000000, -1.000000000000000000 ) ) ;
#130 = CARTESIAN_POINT ( 'NONE',  ( 0.0000000000000000000, 30.18750000000000711, 4.997500000000000497 ) ) ;
#131 = EDGE_LOOP ( 'NONE', ( #53, #230 ) ) ;
#132 = FACE_OUTER_BOUND ( 'NONE', #125, .T. ) ;
#133 = CARTESIAN_POINT ( 'NONE',  ( 0.0000000000000000000, 30.18750000000000711, 22.50250000000000128 ) ) ;
#134 = VECTOR ( 'NONE', #474, 39.37007874015748143 ) ;
#135 = ORIENTED_EDGE ( 'NONE', *, *, #80, .T. ) ;
#136 = VERTEX_POINT ( 'NONE', #439 ) ;
#137 = CIRCLE ( 'NONE', #92, 0.1325000000000008393 ) ;
#138 = CYLINDRICAL_SURFACE ( 'NONE', #27, 0.1325000000000008393 ) ;
#139 = EDGE_CURVE ( 'NONE', #353, #172, #343, .T. ) ;
#140 = ORIENTED_EDGE ( 'NONE', *, *, #305, .T. ) ;
#141 = ORIENTED_EDGE ( 'NONE', *, *, #523, .T. ) ;
#142 = AXIS2_PLACEMENT_3D ( 'NONE', #584, #482, #532 ) ;
#143 = DIRECTION ( 'NONE',  ( 1.000000000000000000, 0.0000000000000000000, -0.0000000000000000000 ) ) ;
#144 = LINE ( 'NONE', #382, #134 ) ;
#145 = LINE ( 'NONE', #546, #162 ) ;
#146 = DIRECTION ( 'NONE',  ( 1.000000000000000000, -0.0000000000000000000, -0.0000000000000000000 ) ) ;
#147 = EDGE_CURVE ( 'NONE', #46, #154, #237, .T. ) ;
#148 = VERTEX_POINT ( 'NONE', #246 ) ;
#149 = DIRECTION ( 'NONE',  ( 0.0000000000000000000, 1.000000000000000000, 0.0000000000000000000 ) ) ;
#150 = LINE ( 'NONE', #21, #266 ) ;
#151 = CARTESIAN_POINT ( 'NONE',  ( 0.0000000000000000000, 44.69000000000000483, 17.53125000000000355 ) ) ;
#152 = CIRCLE ( 'NONE', #269, 0.1325000000000008393 ) ;
#153 = ORIENTED_EDGE ( 'NONE', *, *, #126, .T. ) ;
#154 = VERTEX_POINT ( 'NONE', #440 ) ;
#155 = CARTESIAN_POINT ( 'NONE',  ( 0.0000000000000000000, 61.19000000000000483, 27.50000000000000000 ) ) ;
#156 =( NAMED_UNIT ( * ) SI_UNIT ( $, .STERADIAN. ) SOLID_ANGLE_UNIT ( ) );
#157 = EDGE_CURVE ( 'NONE', #198, #417, #211, .T. ) ;
#158 = FACE_BOUND ( 'NONE', #131, .T. ) ;
#159 = MECHANICAL_DESIGN_GEOMETRIC_PRESENTATION_REPRESENTATION (  '', ( #503 ), #199 ) ;
#160 = ADVANCED_FACE ( 'NONE', ( #73 ), #252, .T. ) ;
#161 = LINE ( 'NONE', #476, #435 ) ;
#162 = VECTOR ( 'NONE', #94, 39.37007874015748143 ) ;
#163 = EDGE_LOOP ( 'NONE', ( #220, #62, #153, #29 ) ) ;
#164 = AXIS2_PLACEMENT_3D ( 'NONE', #339, #229, #389 ) ;
#165 = DIRECTION ( 'NONE',  ( 1.000000000000000000, 0.0000000000000000000, -0.0000000000000000000 ) ) ;
#166 = CARTESIAN_POINT ( 'NONE',  ( 0.2500000000000000000, 30.18750000000000711, 24.43750000000000000 ) ) ;
#167 = CARTESIAN_POINT ( 'NONE',  ( 0.0000000000000000000, 30.18750000000000711, 24.30499999999999972 ) ) ;
#168 = ORIENTED_EDGE ( 'NONE', *, *, #636, .T. ) ;
#169 = CIRCLE ( 'NONE', #538, 0.1325000000000008393 ) ;
#170 = DIRECTION ( 'NONE',  ( 0.0000000000000000000, 0.0000000000000000000, -1.000000000000000000 ) ) ;
#171 = ORIENTED_EDGE ( 'NONE', *, *, #549, .F. ) ;
#172 = VERTEX_POINT ( 'NONE', #400 ) ;
#173 = CARTESIAN_POINT ( 'NONE',  ( 0.0000000000000000000, 44.69000000000000483, 9.968750000000003553 ) ) ;
#174 = UNCERTAINTY_MEASURE_WITH_UNIT (LENGTH_MEASURE( 1.000000000000000082E-05 ), #318, 'distance_accuracy_value', 'NONE');
#175 = DIRECTION ( 'NONE',  ( 1.000000000000000000, -0.0000000000000000000, -0.0000000000000000000 ) ) ;
#176 = AXIS2_PLACEMENT_3D ( 'NONE', #93, #493, #347 ) ;
#177 = DIRECTION ( 'NONE',  ( 1.000000000000000000, 0.0000000000000000000, 0.0000000000000000000 ) ) ;
#178 = DIRECTION ( 'NONE',  ( 0.0000000000000000000, 0.0000000000000000000, 1.000000000000000000 ) ) ;
#179 = LINE ( 'NONE', #519, #555 ) ;
#180 = DIRECTION ( 'NONE',  ( 1.000000000000000000, -0.0000000000000000000, -0.0000000000000000000 ) ) ;
#181 = ORIENTED_EDGE ( 'NONE', *, *, #119, .T. ) ;
#182 = ORIENTED_EDGE ( 'NONE', *, *, #4, .T. ) ;
#183 = CARTESIAN_POINT ( 'NONE',  ( 0.2500000000000000000, 40.34625000000000483, 17.53125000000000355 ) ) ;
#184 = EDGE_CURVE ( 'NONE', #32, #136, #137, .T. ) ;
#185 = ORIENTED_EDGE ( 'NONE', *, *, #4, .F. ) ;
#186 = LINE ( 'NONE', #118, #498 ) ;
#187 = EDGE_CURVE ( 'NONE', #495, #206, #491, .T. ) ;
#188 = FACE_OUTER_BOUND ( 'NONE', #163, .T. ) ;
#189 = AXIS2_PLACEMENT_3D ( 'NONE', #279, #619, #508 ) ;
#190 = ORIENTED_EDGE ( 'NONE', *, *, #187, .F. ) ;
#191 = ORIENTED_EDGE ( 'NONE', *, *, #481, .F. ) ;
#192 = PRODUCT_DEFINITION_CONTEXT ( 'detailed design', #107, 'design' ) ;
#193 = DIRECTION ( 'NONE',  ( 1.000000000000000000, -0.0000000000000000000, -0.0000000000000000000 ) ) ;
#194 = SURFACE_STYLE_FILL_AREA ( #416 ) ;
#195 = EDGE_CURVE ( 'NONE', #108, #288, #259, .T. ) ;
#196 = CIRCLE ( 'NONE', #470, 0.1325000000000008393 ) ;
#197 = EDGE_LOOP ( 'NONE', ( #310, #182 ) ) ;
#198 = VERTEX_POINT ( 'NONE', #55 ) ;
#199 =( GEOMETRIC_REPRESENTATION_CONTEXT ( 3 ) GLOBAL_UNCERTAINTY_ASSIGNED_CONTEXT ( ( #174 ) ) GLOBAL_UNIT_ASSIGNED_CONTEXT ( ( #318, #263, #156 ) ) REPRESENTATION_CONTEXT ( 'NONE', 'WORKASPACE' ) );
#200 = SHAPE_DEFINITION_REPRESENTATION ( #290, #314 ) ;
#201 = DIRECTION ( 'NONE',  ( 1.000000000000000000, -0.0000000000000000000, -0.0000000000000000000 ) ) ;
#202 = DIRECTION ( 'NONE',  ( 1.000000000000000000, -0.0000000000000000000, -0.0000000000000000000 ) ) ;
#203 = CIRCLE ( 'NONE', #496, 0.1325000000000008393 ) ;
#204 = CARTESIAN_POINT ( 'NONE',  ( 0.0000000000000000000, 30.18750000000000711, 4.864999999999999325 ) ) ;
#205 = ADVANCED_FACE ( 'NONE', ( #441 ), #56, .F. ) ;
#206 = VERTEX_POINT ( 'NONE', #499 ) ;
#207 = VERTEX_POINT ( 'NONE', #5 ) ;
#208 = EDGE_CURVE ( 'NONE', #333, #207, #106, .T. ) ;
#209 = CARTESIAN_POINT ( 'NONE',  ( 0.0000000000000000000, 30.18750000000000711, 22.50250000000000128 ) ) ;
#210 = EDGE_CURVE ( 'NONE', #68, #582, #307, .T. ) ;
#211 = LINE ( 'NONE', #547, #392 ) ;
#212 =( CONVERSION_BASED_UNIT ( 'INCH', #338 ) LENGTH_UNIT ( ) NAMED_UNIT ( #250 ) );
#213 = VERTEX_POINT ( 'NONE', #167 ) ;
#214 = ORIENTED_EDGE ( 'NONE', *, *, #375, .T. ) ;
#215 = VERTEX_POINT ( 'NONE', #571 ) ;
#216 = ADVANCED_FACE ( 'NONE', ( #526 ), #112, .F. ) ;
#217 = LINE ( 'NONE', #371, #457 ) ;
#218 = CARTESIAN_POINT ( 'NONE',  ( 0.2500000000000000000, 30.18750000000000711, 22.50250000000000128 ) ) ;
#219 = PRODUCT ( 'Left Wall', 'Left Wall', '', ( #262 ) ) ;
#220 = ORIENTED_EDGE ( 'NONE', *, *, #117, .F. ) ;
#221 = LINE ( 'NONE', #295, #407 ) ;
#222 = AXIS2_PLACEMENT_3D ( 'NONE', #130, #475, #524 ) ;
#223 = CARTESIAN_POINT ( 'NONE',  ( 0.0000000000000000000, 61.19000000000000483, 0.0000000000000000000 ) ) ;
#224 = DIRECTION ( 'NONE',  ( 0.0000000000000000000, 1.000000000000000000, 0.0000000000000000000 ) ) ;
#225 = CARTESIAN_POINT ( 'NONE',  ( 0.0000000000000000000, 30.18750000000000711, 24.43750000000000000 ) ) ;
#226 = DIRECTION ( 'NONE',  ( 1.000000000000000000, 0.0000000000000000000, -0.0000000000000000000 ) ) ;
#227 = FACE_BOUND ( 'NONE', #583, .T. ) ;
#228 = CARTESIAN_POINT ( 'NONE',  ( 0.0000000000000000000, 0.0000000000000000000, 27.50000000000000000 ) ) ;
#229 = DIRECTION ( 'NONE',  ( -0.0000000000000000000, 0.0000000000000000000, -1.000000000000000000 ) ) ;
#230 = ORIENTED_EDGE ( 'NONE', *, *, #80, .F. ) ;
#231 = ORIENTED_EDGE ( 'NONE', *, *, #615, .T. ) ;
#232 =( LENGTH_UNIT ( ) NAMED_UNIT ( * ) SI_UNIT ( $, .METRE. ) );
#233 = CARTESIAN_POINT ( 'NONE',  ( 0.0000000000000000000, 40.34625000000000483, 17.53125000000000355 ) ) ;
#234 = AXIS2_PLACEMENT_3D ( 'NONE', #12, #367, #270 ) ;
#235 = DIRECTION ( 'NONE',  ( 1.000000000000000000, 0.0000000000000000000, 0.0000000000000000000 ) ) ;
#236 = CARTESIAN_POINT ( 'NONE',  ( 0.0000000000000000000, 0.0000000000000000000, 0.0000000000000000000 ) ) ;
#237 = LINE ( 'NONE', #598, #562 ) ;
#238 = AXIS2_PLACEMENT_3D ( 'NONE', #223, #617, #330 ) ;
#239 = VECTOR ( 'NONE', #81, 39.37007874015748143 ) ;
#240 = ORIENTED_EDGE ( 'NONE', *, *, #208, .T. ) ;
#241 = ORIENTED_EDGE ( 'NONE', *, *, #139, .T. ) ;
#242 = VECTOR ( 'NONE', #202, 39.37007874015748143 ) ;
#243 = PRESENTATION_STYLE_ASSIGNMENT (( #16 ) ) ;
#244 = AXIS2_PLACEMENT_3D ( 'NONE', #233, #332, #423 ) ;
#245 = ORIENTED_EDGE ( 'NONE', *, *, #256, .T. ) ;
#246 = CARTESIAN_POINT ( 'NONE',  ( 0.0000000000000000000, 40.34625000000000483, 9.968750000000003553 ) ) ;
#247 = CARTESIAN_POINT ( 'NONE',  ( 0.0000000000000000000, 0.0000000000000000000, 0.0000000000000000000 ) ) ;
#248 = VECTOR ( 'NONE', #349, 39.37007874015748143 ) ;
#249 = DIRECTION ( 'NONE',  ( 0.0000000000000000000, -0.0000000000000000000, 1.000000000000000000 ) ) ;
#250 = DIMENSIONAL_EXPONENTS ( 1.000000000000000000, 0.0000000000000000000, 0.0000000000000000000, 0.0000000000000000000, 0.0000000000000000000, 0.0000000000000000000, 0.0000000000000000000 ) ;
#251 = ORIENTED_EDGE ( 'NONE', *, *, #210, .F. ) ;
#252 = PLANE ( 'NONE',  #637 ) ;
#253 = EDGE_CURVE ( 'NONE', #207, #215, #88, .T. ) ;
#254 = DIRECTION ( 'NONE',  ( 0.0000000000000000000, -1.000000000000000000, 0.0000000000000000000 ) ) ;
#255 = ORIENTED_EDGE ( 'NONE', *, *, #557, .T. ) ;
#256 = EDGE_CURVE ( 'NONE', #215, #495, #394, .T. ) ;
#257 = CARTESIAN_POINT ( 'NONE',  ( 0.0000000000000000000, 30.18750000000000711, 5.130000000000001670 ) ) ;
#258 = EDGE_LOOP ( 'NONE', ( #525, #322, #300, #408 ) ) ;
#259 = LINE ( 'NONE', #257, #632 ) ;
#260 = DIRECTION ( 'NONE',  ( 1.000000000000000000, -0.0000000000000000000, -0.0000000000000000000 ) ) ;
#261 = ORIENTED_EDGE ( 'NONE', *, *, #119, .F. ) ;
#262 = PRODUCT_CONTEXT ( 'NONE', #502, 'mechanical' ) ;
#263 =( NAMED_UNIT ( * ) PLANE_ANGLE_UNIT ( ) SI_UNIT ( $, .RADIAN. ) );
#264 = EDGE_CURVE ( 'NONE', #136, #297, #217, .T. ) ;
#265 = AXIS2_PLACEMENT_3D ( 'NONE', #303, #143, #298 ) ;
#266 = VECTOR ( 'NONE', #574, 39.37007874015748143 ) ;
#267 = VECTOR ( 'NONE', #561, 39.37007874015748143 ) ;
#268 = VERTEX_POINT ( 'NONE', #613 ) ;
#269 = AXIS2_PLACEMENT_3D ( 'NONE', #630, #522, #627 ) ;
#270 = DIRECTION ( 'NONE',  ( 0.0000000000000000000, 0.0000000000000000000, 1.000000000000000000 ) ) ;
#271 = CARTESIAN_POINT ( 'NONE',  ( 0.2500000000000000000, 30.18750000000000711, 5.130000000000001670 ) ) ;
#272 = CARTESIAN_POINT ( 'NONE',  ( 0.0000000000000000000, 0.0000000000000000000, 27.50000000000000000 ) ) ;
#273 = ORIENTED_EDGE ( 'NONE', *, *, #625, .T. ) ;
#274 = VECTOR ( 'NONE', #224, 39.37007874015748143 ) ;
#275 = CARTESIAN_POINT ( 'NONE',  ( 0.2500000000000000000, 30.18750000000000711, 22.63500000000000156 ) ) ;
#276 = VERTEX_POINT ( 'NONE', #622 ) ;
#277 = CARTESIAN_POINT ( 'NONE',  ( 0.0000000000000000000, 0.0000000000000000000, 27.50000000000000000 ) ) ;
#278 = ORIENTED_EDGE ( 'NONE', *, *, #117, .T. ) ;
#279 = CARTESIAN_POINT ( 'NONE',  ( 0.0000000000000000000, 30.18750000000000711, 4.997500000000000497 ) ) ;
#280 = AXIS2_PLACEMENT_3D ( 'NONE', #335, #492, #437 ) ;
#281 = CARTESIAN_POINT ( 'NONE',  ( 0.2500000000000000000, 30.18750000000000711, 3.062500000000000444 ) ) ;
#282 = DIRECTION ( 'NONE',  ( 1.000000000000000000, 0.0000000000000000000, 0.0000000000000000000 ) ) ;
#283 = CARTESIAN_POINT ( 'NONE',  ( 0.0000000000000000000, 30.18750000000000711, 24.43750000000000000 ) ) ;
#284 = CARTESIAN_POINT ( 'NONE',  ( 0.0000000000000000000, 61.19000000000000483, 27.50000000000000000 ) ) ;
#285 = ORIENTED_EDGE ( 'NONE', *, *, #184, .F. ) ;
#286 = CARTESIAN_POINT ( 'NONE',  ( 0.2500000000000000000, 30.18750000000000711, 3.195000000000001172 ) ) ;
#287 = FACE_BOUND ( 'NONE', #469, .T. ) ;
#288 = VERTEX_POINT ( 'NONE', #271 ) ;
#289 = CARTESIAN_POINT ( 'NONE',  ( 0.0000000000000000000, 61.19000000000000483, 0.0000000000000000000 ) ) ;
#290 = PRODUCT_DEFINITION_SHAPE ( 'NONE', 'NONE',  #462 ) ;
#291 = PLANE ( 'NONE',  #280 ) ;
#292 = PLANE ( 'NONE',  #164 ) ;
#293 = EDGE_CURVE ( 'NONE', #353, #108, #50, .T. ) ;
#294 = FACE_BOUND ( 'NONE', #565, .T. ) ;
#295 = CARTESIAN_POINT ( 'NONE',  ( 0.0000000000000000000, 40.34625000000000483, 17.53125000000000355 ) ) ;
#296 = EDGE_LOOP ( 'NONE', ( #529, #331, #429, #66 ) ) ;
#297 = VERTEX_POINT ( 'NONE', #275 ) ;
#298 = DIRECTION ( 'NONE',  ( 0.0000000000000000000, 0.0000000000000000000, 1.000000000000000000 ) ) ;
#299 = EDGE_CURVE ( 'NONE', #276, #268, #203, .T. ) ;
#300 = ORIENTED_EDGE ( 'NONE', *, *, #355, .T. ) ;
#301 = LINE ( 'NONE', #570, #594 ) ;
#302 = CYLINDRICAL_SURFACE ( 'NONE', #427, 0.1325000000000008393 ) ;
#303 = CARTESIAN_POINT ( 'NONE',  ( 0.0000000000000000000, 30.18750000000000711, 3.062500000000000444 ) ) ;
#304 = ORIENTED_EDGE ( 'NONE', *, *, #253, .T. ) ;
#305 = EDGE_CURVE ( 'NONE', #98, #297, #123, .T. ) ;
#306 = CARTESIAN_POINT ( 'NONE',  ( 0.0000000000000000000, 0.0000000000000000000, 0.0000000000000000000 ) ) ;
#307 = LINE ( 'NONE', #69, #82 ) ;
#308 = ADVANCED_FACE ( 'NONE', ( #132 ), #379, .T. ) ;
#309 = ORIENTED_EDGE ( 'NONE', *, *, #537, .T. ) ;
#310 = ORIENTED_EDGE ( 'NONE', *, *, #184, .T. ) ;
#311 = DIRECTION ( 'NONE',  ( 1.000000000000000000, 0.0000000000000000000, 0.0000000000000000000 ) ) ;
#312 =( NAMED_UNIT ( * ) SI_UNIT ( $, .STERADIAN. ) SOLID_ANGLE_UNIT ( ) );
#313 = AXIS2_PLACEMENT_3D ( 'NONE', #442, #588, #638 ) ;
#314 = ADVANCED_BREP_SHAPE_REPRESENTATION ( 'Left Wall', ( #444, #99 ), #128 ) ;
#315 = LINE ( 'NONE', #515, #451 ) ;
#316 = ORIENTED_EDGE ( 'NONE', *, *, #355, .F. ) ;
#317 = EDGE_LOOP ( 'NONE', ( #391, #535, #366, #556 ) ) ;
#318 =( CONVERSION_BASED_UNIT ( 'INCH', #634 ) LENGTH_UNIT ( ) NAMED_UNIT ( #54 ) );
#319 = FACE_OUTER_BOUND ( 'NONE', #604, .T. ) ;
#320 = DIRECTION ( 'NONE',  ( 1.000000000000000000, 0.0000000000000000000, -0.0000000000000000000 ) ) ;
#321 = CARTESIAN_POINT ( 'NONE',  ( 0.2500000000000000000, 0.0000000000000000000, 27.50000000000000000 ) ) ;
#322 = ORIENTED_EDGE ( 'NONE', *, *, #195, .T. ) ;
#323 = ORIENTED_EDGE ( 'NONE', *, *, #299, .F. ) ;
#324 = AXIS2_PLACEMENT_3D ( 'NONE', #281, #320, #510 ) ;
#325 = DIRECTION ( 'NONE',  ( 0.0000000000000000000, 0.0000000000000000000, -1.000000000000000000 ) ) ;
#326 = DIRECTION ( 'NONE',  ( 0.0000000000000000000, 0.0000000000000000000, 1.000000000000000000 ) ) ;
#327 = CARTESIAN_POINT ( 'NONE',  ( 0.2500000000000000000, 0.0000000000000000000, 0.0000000000000000000 ) ) ;
#328 = COLOUR_RGB ( '',0.7490196078431372584, 0.7490196078431372584, 0.7490196078431372584 ) ;
#329 = DIRECTION ( 'NONE',  ( 0.0000000000000000000, 0.0000000000000000000, -1.000000000000000000 ) ) ;
#330 = DIRECTION ( 'NONE',  ( 0.0000000000000000000, 0.0000000000000000000, 1.000000000000000000 ) ) ;
#331 = ORIENTED_EDGE ( 'NONE', *, *, #531, .T. ) ;
#332 = DIRECTION ( 'NONE',  ( 0.0000000000000000000, -1.000000000000000000, -0.0000000000000000000 ) ) ;
#333 = VERTEX_POINT ( 'NONE', #459 ) ;
#334 = CARTESIAN_POINT ( 'NONE',  ( 0.0000000000000000000, 44.69000000000000483, 17.53125000000000355 ) ) ;
#335 = CARTESIAN_POINT ( 'NONE',  ( 0.2500000000000000000, 30.59500000000000242, 13.75000000000000000 ) ) ;
#336 = LINE ( 'NONE', #272, #274 ) ;
#337 = CARTESIAN_POINT ( 'NONE',  ( 0.0000000000000000000, 30.18750000000000711, 3.062500000000000444 ) ) ;
#338 = LENGTH_MEASURE_WITH_UNIT ( LENGTH_MEASURE( 0.02539999999999999897 ), #363 );
#339 = CARTESIAN_POINT ( 'NONE',  ( 0.0000000000000000000, 44.69000000000000483, 9.968750000000003553 ) ) ;
#340 = EDGE_LOOP ( 'NONE', ( #472, #285, #485, #140 ) ) ;
#341 = EDGE_LOOP ( 'NONE', ( #255, #621, #181, #214 ) ) ;
#342 = CARTESIAN_POINT ( 'NONE',  ( 0.0000000000000000000, 61.19000000000000483, 0.0000000000000000000 ) ) ;
#343 = LINE ( 'NONE', #204, #618 ) ;
#344 = AXIS2_PLACEMENT_3D ( 'NONE', #10, #357, #600 ) ;
#345 = EDGE_LOOP ( 'NONE', ( #517, #309 ) ) ;
#346 = ORIENTED_EDGE ( 'NONE', *, *, #377, .T. ) ;
#347 = DIRECTION ( 'NONE',  ( 0.0000000000000000000, 0.0000000000000000000, 1.000000000000000000 ) ) ;
#348 = CARTESIAN_POINT ( 'NONE',  ( 0.0000000000000000000, 44.69000000000000483, 17.53125000000000355 ) ) ;
#349 = DIRECTION ( 'NONE',  ( -0.0000000000000000000, -0.0000000000000000000, 1.000000000000000000 ) ) ;
#350 = LINE ( 'NONE', #102, #248 ) ;
#351 = ADVANCED_FACE ( 'NONE', ( #319 ), #64, .F. ) ;
#352 = DIRECTION ( 'NONE',  ( 0.0000000000000000000, 0.0000000000000000000, -1.000000000000000000 ) ) ;
#353 = VERTEX_POINT ( 'NONE', #609 ) ;
#354 = ORIENTED_EDGE ( 'NONE', *, *, #48, .T. ) ;
#355 = EDGE_CURVE ( 'NONE', #288, #172, #548, .T. ) ;
#356 = STYLED_ITEM ( 'NONE', ( #434 ), #444 ) ;
#357 = DIRECTION ( 'NONE',  ( 0.0000000000000000000, 0.0000000000000000000, 1.000000000000000000 ) ) ;
#358 = DIMENSIONAL_EXPONENTS ( 1.000000000000000000, 0.0000000000000000000, 0.0000000000000000000, 0.0000000000000000000, 0.0000000000000000000, 0.0000000000000000000, 0.0000000000000000000 ) ;
#359 = FACE_BOUND ( 'NONE', #197, .T. ) ;
#360 = DIRECTION ( 'NONE',  ( 0.0000000000000000000, 1.000000000000000000, 0.0000000000000000000 ) ) ;
#361 = FILL_AREA_STYLE ('',( #530 ) ) ;
#362 = ORIENTED_EDGE ( 'NONE', *, *, #41, .F. ) ;
#363 =( LENGTH_UNIT ( ) NAMED_UNIT ( * ) SI_UNIT ( $, .METRE. ) );
#364 = CIRCLE ( 'NONE', #265, 0.1325000000000008393 ) ;
#365 = VECTOR ( 'NONE', #426, 39.37007874015748143 ) ;
#366 = ORIENTED_EDGE ( 'NONE', *, *, #59, .T. ) ;
#367 = DIRECTION ( 'NONE',  ( 1.000000000000000000, 0.0000000000000000000, -0.0000000000000000000 ) ) ;
#368 = ORIENTED_EDGE ( 'NONE', *, *, #560, .F. ) ;
#369 = DIRECTION ( 'NONE',  ( 1.000000000000000000, -0.0000000000000000000, -0.0000000000000000000 ) ) ;
#370 = DIRECTION ( 'NONE',  ( 1.000000000000000000, -0.0000000000000000000, -0.0000000000000000000 ) ) ;
#371 = CARTESIAN_POINT ( 'NONE',  ( 0.0000000000000000000, 30.18750000000000711, 22.63500000000000156 ) ) ;
#372 = FACE_OUTER_BOUND ( 'NONE', #403, .T. ) ;
#373 = DIRECTION ( 'NONE',  ( 0.0000000000000000000, 0.0000000000000000000, -1.000000000000000000 ) ) ;
#374 = SURFACE_STYLE_FILL_AREA ( #361 ) ;
#375 = EDGE_CURVE ( 'NONE', #445, #333, #336, .T. ) ;
#376 = ORIENTED_EDGE ( 'NONE', *, *, #126, .F. ) ;
#377 = EDGE_CURVE ( 'NONE', #148, #504, #186, .T. ) ;
#378 = DIRECTION ( 'NONE',  ( 1.000000000000000000, -0.0000000000000000000, -0.0000000000000000000 ) ) ;
#379 = PLANE ( 'NONE',  #51 ) ;
#380 = CARTESIAN_POINT ( 'NONE',  ( 0.2500000000000000000, 40.34625000000000483, 9.968750000000003553 ) ) ;
#381 = PLANE ( 'NONE',  #458 ) ;
#382 = CARTESIAN_POINT ( 'NONE',  ( 0.2500000000000000000, 61.19000000000000483, 27.50000000000000000 ) ) ;
#383 = FACE_OUTER_BOUND ( 'NONE', #341, .T. ) ;
#384 = CYLINDRICAL_SURFACE ( 'NONE', #60, 0.1325000000000008393 ) ;
#385 = CARTESIAN_POINT ( 'NONE',  ( 0.0000000000000000000, 44.69000000000000483, 17.53125000000000355 ) ) ;
#386 = VERTEX_POINT ( 'NONE', #520 ) ;
#387 = CARTESIAN_POINT ( 'NONE',  ( 0.2500000000000000000, 40.34625000000000483, 17.53125000000000355 ) ) ;
#388 = EDGE_CURVE ( 'NONE', #154, #495, #150, .T. ) ;
#389 = DIRECTION ( 'NONE',  ( -1.000000000000000000, 0.0000000000000000000, 0.0000000000000000000 ) ) ;
#390 = AXIS2_PLACEMENT_3D ( 'NONE', #465, #369, #325 ) ;
#391 = ORIENTED_EDGE ( 'NONE', *, *, #537, .F. ) ;
#392 = VECTOR ( 'NONE', #146, 39.37007874015748143 ) ;
#393 = ORIENTED_EDGE ( 'NONE', *, *, #446, .T. ) ;
#394 = LINE ( 'NONE', #114, #477 ) ;
#395 = CLOSED_SHELL ( 'NONE', ( #455, #543, #397, #606, #160, #308, #401, #450, #49, #405, #13, #351, #216, #11, #404, #205, #103, #489 ) ) ;
#396 = PRESENTATION_LAYER_ASSIGNMENT (  '', '', ( #503 ) ) ;
#397 = ADVANCED_FACE ( 'NONE', ( #428 ), #3, .F. ) ;
#398 = ORIENTED_EDGE ( 'NONE', *, *, #412, .F. ) ;
#399 = LINE ( 'NONE', #151, #514 ) ;
#400 = CARTESIAN_POINT ( 'NONE',  ( 0.2500000000000000000, 30.18750000000000711, 4.864999999999999325 ) ) ;
#401 = ADVANCED_FACE ( 'NONE', ( #639 ), #421, .T. ) ;
#402 = ORIENTED_EDGE ( 'NONE', *, *, #377, .F. ) ;
#403 = EDGE_LOOP ( 'NONE', ( #534, #304, #245, #75 ) ) ;
#404 = ADVANCED_FACE ( 'NONE', ( #484 ), #624, .F. ) ;
#405 = ADVANCED_FACE ( 'NONE', ( #227, #19, #533, #294, #359, #383 ), #381, .F. ) ;
#406 = FACE_OUTER_BOUND ( 'NONE', #454, .T. ) ;
#407 = VECTOR ( 'NONE', #33, 39.37007874015748143 ) ;
#408 = ORIENTED_EDGE ( 'NONE', *, *, #139, .F. ) ;
#409 = DIRECTION ( 'NONE',  ( -0.0000000000000000000, 1.000000000000000000, -0.0000000000000000000 ) ) ;
#410 = EDGE_LOOP ( 'NONE', ( #8, #558 ) ) ;
#411 = VECTOR ( 'NONE', #201, 39.37007874015748143 ) ;
#412 = EDGE_CURVE ( 'NONE', #443, #386, #315, .T. ) ;
#413 = CARTESIAN_POINT ( 'NONE',  ( 0.0000000000000000000, 0.0000000000000000000, 27.50000000000000000 ) ) ;
#414 = AXIS2_PLACEMENT_3D ( 'NONE', #218, #282, #329 ) ;
#415 = ORIENTED_EDGE ( 'NONE', *, *, #293, .F. ) ;
#416 = FILL_AREA_STYLE ('',( #67 ) ) ;
#417 = VERTEX_POINT ( 'NONE', #612 ) ;
#418 = DIRECTION ( 'NONE',  ( 0.0000000000000000000, -1.000000000000000000, 0.0000000000000000000 ) ) ;
#419 = DIRECTION ( 'NONE',  ( 0.0000000000000000000, 0.0000000000000000000, -1.000000000000000000 ) ) ;
#420 = DIRECTION ( 'NONE',  ( -0.0000000000000000000, 1.000000000000000000, -0.0000000000000000000 ) ) ;
#421 = PLANE ( 'NONE',  #448 ) ;
#422 = DIRECTION ( 'NONE',  ( 1.000000000000000000, -0.0000000000000000000, -0.0000000000000000000 ) ) ;
#423 = DIRECTION ( 'NONE',  ( 0.0000000000000000000, 0.0000000000000000000, -1.000000000000000000 ) ) ;
#424 = FACE_BOUND ( 'NONE', #22, .T. ) ;
#425 = ORIENTED_EDGE ( 'NONE', *, *, #71, .F. ) ;
#426 = DIRECTION ( 'NONE',  ( 1.000000000000000000, -0.0000000000000000000, -0.0000000000000000000 ) ) ;
#427 = AXIS2_PLACEMENT_3D ( 'NONE', #585, #87, #633 ) ;
#428 = FACE_OUTER_BOUND ( 'NONE', #258, .T. ) ;
#429 = ORIENTED_EDGE ( 'NONE', *, *, #253, .F. ) ;
#430 = ORIENTED_EDGE ( 'NONE', *, *, #48, .F. ) ;
#431 = CARTESIAN_POINT ( 'NONE',  ( 0.0000000000000000000, 30.18750000000000711, 22.37000000000000099 ) ) ;
#432 = EDGE_CURVE ( 'NONE', #417, #566, #58, .T. ) ;
#433 = MECHANICAL_DESIGN_GEOMETRIC_PRESENTATION_REPRESENTATION (  '', ( #356 ), #552 ) ;
#434 = PRESENTATION_STYLE_ASSIGNMENT (( #471 ) ) ;
#435 = VECTOR ( 'NONE', #578, 39.37007874015748143 ) ;
#436 = ORIENTED_EDGE ( 'NONE', *, *, #531, .F. ) ;
#437 = DIRECTION ( 'NONE',  ( 0.0000000000000000000, 0.0000000000000000000, -1.000000000000000000 ) ) ;
#438 = EDGE_LOOP ( 'NONE', ( #494, #425, #110, #550 ) ) ;
#439 = CARTESIAN_POINT ( 'NONE',  ( 0.0000000000000000000, 30.18750000000000711, 22.63500000000000156 ) ) ;
#440 = CARTESIAN_POINT ( 'NONE',  ( 0.0000000000000000000, 0.0000000000000000000, 0.0000000000000000000 ) ) ;
#441 = FACE_OUTER_BOUND ( 'NONE', #603, .T. ) ;
#442 = CARTESIAN_POINT ( 'NONE',  ( 0.2500000000000000000, 30.18750000000000711, 22.50250000000000128 ) ) ;
#443 = VERTEX_POINT ( 'NONE', #380 ) ;
#444 = MANIFOLD_SOLID_BREP ( 'Cut-Extrude1', #395 ) ;
#445 = VERTEX_POINT ( 'NONE', #277 ) ;
#446 = EDGE_CURVE ( 'NONE', #461, #213, #196, .T. ) ;
#447 = PLANE ( 'NONE',  #595 ) ;
#448 = AXIS2_PLACEMENT_3D ( 'NONE', #284, #178, #127 ) ;
#449 = DIRECTION ( 'NONE',  ( 0.0000000000000000000, 0.0000000000000000000, -1.000000000000000000 ) ) ;
#450 = ADVANCED_FACE ( 'NONE', ( #65 ), #24, .T. ) ;
#451 = VECTOR ( 'NONE', #409, 39.37007874015748143 ) ;
#452 = APPLICATION_PROTOCOL_DEFINITION ( 'draft international standard', 'automotive_design', 1998, #107 ) ;
#453 = FACE_BOUND ( 'NONE', #497, .T. ) ;
#454 = EDGE_LOOP ( 'NONE', ( #185, #89, #135, #490 ) ) ;
#455 = ADVANCED_FACE ( 'NONE', ( #478 ), #97, .F. ) ;
#456 = EDGE_CURVE ( 'NONE', #213, #461, #30, .T. ) ;
#457 = VECTOR ( 'NONE', #175, 39.37007874015748143 ) ;
#458 = AXIS2_PLACEMENT_3D ( 'NONE', #78, #235, #17 ) ;
#459 = CARTESIAN_POINT ( 'NONE',  ( 0.0000000000000000000, 61.19000000000000483, 27.50000000000000000 ) ) ;
#460 = ORIENTED_EDGE ( 'NONE', *, *, #615, .F. ) ;
#461 = VERTEX_POINT ( 'NONE', #614 ) ;
#462 = PRODUCT_DEFINITION ( 'UNKNOWN', '', #579, #192 ) ;
#463 = CARTESIAN_POINT ( 'NONE',  ( 0.0000000000000000000, 30.18750000000000711, 24.43750000000000000 ) ) ;
#464 = DIRECTION ( 'NONE',  ( 1.000000000000000000, -0.0000000000000000000, -0.0000000000000000000 ) ) ;
#465 = CARTESIAN_POINT ( 'NONE',  ( 0.0000000000000000000, 30.18750000000000711, 3.062500000000000444 ) ) ;
#466 = DIRECTION ( 'NONE',  ( 0.0000000000000000000, 0.0000000000000000000, -1.000000000000000000 ) ) ;
#467 = LINE ( 'NONE', #486, #411 ) ;
#468 = DIRECTION ( 'NONE',  ( 0.0000000000000000000, 0.0000000000000000000, -1.000000000000000000 ) ) ;
#469 = EDGE_LOOP ( 'NONE', ( #398, #104, #251, #430 ) ) ;
#470 = AXIS2_PLACEMENT_3D ( 'NONE', #283, #623, #620 ) ;
#471 = SURFACE_STYLE_USAGE ( .BOTH. , #521 ) ;
#472 = ORIENTED_EDGE ( 'NONE', *, *, #264, .F. ) ;
#473 = ORIENTED_EDGE ( 'NONE', *, *, #636, .F. ) ;
#474 = DIRECTION ( 'NONE',  ( 0.0000000000000000000, 0.0000000000000000000, 1.000000000000000000 ) ) ;
#475 = DIRECTION ( 'NONE',  ( 1.000000000000000000, -0.0000000000000000000, -0.0000000000000000000 ) ) ;
#476 = CARTESIAN_POINT ( 'NONE',  ( 0.0000000000000000000, 61.19000000000000483, 27.50000000000000000 ) ) ;
#477 = VECTOR ( 'NONE', #72, 39.37007874015748143 ) ;
#478 = FACE_OUTER_BOUND ( 'NONE', #551, .T. ) ;
#479 = ORIENTED_EDGE ( 'NONE', *, *, #412, .T. ) ;
#480 = CIRCLE ( 'NONE', #142, 0.1325000000000008393 ) ;
#481 = EDGE_CURVE ( 'NONE', #268, #276, #37, .T. ) ;
#482 = DIRECTION ( 'NONE',  ( 1.000000000000000000, 0.0000000000000000000, 0.0000000000000000000 ) ) ;
#483 = PRESENTATION_LAYER_ASSIGNMENT (  '', '', ( #356 ) ) ;
#484 = FACE_OUTER_BOUND ( 'NONE', #518, .T. ) ;
#485 = ORIENTED_EDGE ( 'NONE', *, *, #26, .T. ) ;
#486 = CARTESIAN_POINT ( 'NONE',  ( 0.0000000000000000000, 30.18750000000000711, 24.30499999999999972 ) ) ;
#487 = EDGE_CURVE ( 'NONE', #2, #566, #301, .T. ) ;
#488 = CARTESIAN_POINT ( 'NONE',  ( 0.2500000000000000000, 30.18750000000000711, 3.062500000000000444 ) ) ;
#489 = ADVANCED_FACE ( 'NONE', ( #188 ), #14, .F. ) ;
#490 = ORIENTED_EDGE ( 'NONE', *, *, #26, .F. ) ;
#491 = LINE ( 'NONE', #553, #36 ) ;
#492 = DIRECTION ( 'NONE',  ( 1.000000000000000000, 0.0000000000000000000, 0.0000000000000000000 ) ) ;
#493 = DIRECTION ( 'NONE',  ( 1.000000000000000000, 0.0000000000000000000, -0.0000000000000000000 ) ) ;
#494 = ORIENTED_EDGE ( 'NONE', *, *, #487, .F. ) ;
#495 = VERTEX_POINT ( 'NONE', #327 ) ;
#496 = AXIS2_PLACEMENT_3D ( 'NONE', #18, #121, #468 ) ;
#497 = EDGE_LOOP ( 'NONE', ( #473, #316 ) ) ;
#498 = VECTOR ( 'NONE', #420, 39.37007874015748143 ) ;
#499 = CARTESIAN_POINT ( 'NONE',  ( 0.2500000000000000000, 61.19000000000000483, 0.0000000000000000000 ) ) ;
#500 = SURFACE_SIDE_STYLE ('',( #374 ) ) ;
#501 = EDGE_LOOP ( 'NONE', ( #76, #346, #629, #539 ) ) ;
#502 = APPLICATION_CONTEXT ( 'automotive_design' ) ;
#503 = STYLED_ITEM ( 'NONE', ( #243 ), #314 ) ;
#504 = VERTEX_POINT ( 'NONE', #173 ) ;
#505 = CIRCLE ( 'NONE', #176, 0.1325000000000008393 ) ;
#506 = VECTOR ( 'NONE', #34, 39.37007874015748143 ) ;
#507 = ORIENTED_EDGE ( 'NONE', *, *, #105, .F. ) ;
#508 = DIRECTION ( 'NONE',  ( 0.0000000000000000000, 0.0000000000000000000, -1.000000000000000000 ) ) ;
#509 = DIRECTION ( 'NONE',  ( 1.000000000000000000, 0.0000000000000000000, 0.0000000000000000000 ) ) ;
#510 = DIRECTION ( 'NONE',  ( 0.0000000000000000000, 0.0000000000000000000, 1.000000000000000000 ) ) ;
#511 = EDGE_CURVE ( 'NONE', #504, #386, #527, .T. ) ;
#512 = CARTESIAN_POINT ( 'NONE',  ( 0.2500000000000000000, 30.18750000000000711, 4.997500000000000497 ) ) ;
#513 = ORIENTED_EDGE ( 'NONE', *, *, #195, .F. ) ;
#514 = VECTOR ( 'NONE', #643, 39.37007874015748143 ) ;
#515 = CARTESIAN_POINT ( 'NONE',  ( 0.2500000000000000000, 44.69000000000000483, 9.968750000000003553 ) ) ;
#516 = FACE_OUTER_BOUND ( 'NONE', #317, .T. ) ;
#517 = ORIENTED_EDGE ( 'NONE', *, *, #71, .T. ) ;
#518 = EDGE_LOOP ( 'NONE', ( #273, #589, #362, #40 ) ) ;
#519 = CARTESIAN_POINT ( 'NONE',  ( 0.0000000000000000000, 40.34625000000000483, 9.968750000000003553 ) ) ;
#520 = CARTESIAN_POINT ( 'NONE',  ( 0.2500000000000000000, 44.69000000000000483, 9.968750000000003553 ) ) ;
#521 = SURFACE_SIDE_STYLE ('',( #194 ) ) ;
#522 = DIRECTION ( 'NONE',  ( 1.000000000000000000, 0.0000000000000000000, -0.0000000000000000000 ) ) ;
#523 = EDGE_CURVE ( 'NONE', #148, #443, #179, .T. ) ;
#524 = DIRECTION ( 'NONE',  ( 0.0000000000000000000, 0.0000000000000000000, -1.000000000000000000 ) ) ;
#525 = ORIENTED_EDGE ( 'NONE', *, *, #90, .F. ) ;
#526 = FACE_OUTER_BOUND ( 'NONE', #438, .T. ) ;
#527 = LINE ( 'NONE', #25, #113 ) ;
#528 = CARTESIAN_POINT ( 'NONE',  ( 0.0000000000000000000, 40.34625000000000483, 17.53125000000000355 ) ) ;
#529 = ORIENTED_EDGE ( 'NONE', *, *, #375, .F. ) ;
#530 = FILL_AREA_STYLE_COLOUR ( '', #20 ) ;
#531 = EDGE_CURVE ( 'NONE', #445, #215, #575, .T. ) ;
#532 = DIRECTION ( 'NONE',  ( 0.0000000000000000000, 0.0000000000000000000, -1.000000000000000000 ) ) ;
#533 = FACE_BOUND ( 'NONE', #345, .T. ) ;
#534 = ORIENTED_EDGE ( 'NONE', *, *, #549, .T. ) ;
#535 = ORIENTED_EDGE ( 'NONE', *, *, #487, .T. ) ;
#536 = UNCERTAINTY_MEASURE_WITH_UNIT (LENGTH_MEASURE( 1.000000000000000082E-05 ), #212, 'distance_accuracy_value', 'NONE');
#537 = EDGE_CURVE ( 'NONE', #2, #198, #152, .T. ) ;
#538 = AXIS2_PLACEMENT_3D ( 'NONE', #488, #540, #1 ) ;
#539 = ORIENTED_EDGE ( 'NONE', *, *, #111, .T. ) ;
#540 = DIRECTION ( 'NONE',  ( 1.000000000000000000, 0.0000000000000000000, -0.0000000000000000000 ) ) ;
#541 = LENGTH_MEASURE_WITH_UNIT ( LENGTH_MEASURE( 0.02539999999999999897 ), #232 );
#542 = VECTOR ( 'NONE', #193, 39.37007874015748143 ) ;
#543 = ADVANCED_FACE ( 'NONE', ( #516 ), #138, .F. ) ;
#544 = ORIENTED_EDGE ( 'NONE', *, *, #111, .F. ) ;
#545 = CARTESIAN_POINT ( 'NONE',  ( 0.2500000000000000000, 44.69000000000000483, 17.53125000000000355 ) ) ;
#546 = CARTESIAN_POINT ( 'NONE',  ( 0.2500000000000000000, 44.69000000000000483, 17.53125000000000355 ) ) ;
#547 = CARTESIAN_POINT ( 'NONE',  ( 0.0000000000000000000, 30.18750000000000711, 2.929999999999999716 ) ) ;
#548 = CIRCLE ( 'NONE', #605, 0.1325000000000008393 ) ;
#549 = EDGE_CURVE ( 'NONE', #206, #207, #144, .T. ) ;
#550 = ORIENTED_EDGE ( 'NONE', *, *, #432, .T. ) ;
#551 = EDGE_LOOP ( 'NONE', ( #115, #278, #47, #376 ) ) ;
#552 =( GEOMETRIC_REPRESENTATION_CONTEXT ( 3 ) GLOBAL_UNCERTAINTY_ASSIGNED_CONTEXT ( ( #602 ) ) GLOBAL_UNIT_ASSIGNED_CONTEXT ( ( #70, #116, #120 ) ) REPRESENTATION_CONTEXT ( 'NONE', 'WORKASPACE' ) );
#553 = CARTESIAN_POINT ( 'NONE',  ( 0.2500000000000000000, 61.19000000000000483, 0.0000000000000000000 ) ) ;
#554 = APPLICATION_PROTOCOL_DEFINITION ( 'draft international standard', 'automotive_design', 1998, #502 ) ;
#555 = VECTOR ( 'NONE', #378, 39.37007874015748143 ) ;
#556 = ORIENTED_EDGE ( 'NONE', *, *, #157, .F. ) ;
#557 = EDGE_CURVE ( 'NONE', #333, #46, #161, .T. ) ;
#558 = ORIENTED_EDGE ( 'NONE', *, *, #59, .F. ) ;
#559 =( NAMED_UNIT ( * ) PLANE_ANGLE_UNIT ( ) SI_UNIT ( $, .RADIAN. ) );
#560 = EDGE_CURVE ( 'NONE', #610, #582, #581, .T. ) ;
#561 = DIRECTION ( 'NONE',  ( 1.000000000000000000, 0.0000000000000000000, 0.0000000000000000000 ) ) ;
#562 = VECTOR ( 'NONE', #254, 39.37007874015748143 ) ;
#563 = CARTESIAN_POINT ( 'NONE',  ( 0.0000000000000000000, 30.18750000000000711, 4.997500000000000497 ) ) ;
#564 = LINE ( 'NONE', #183, #239 ) ;
#565 = EDGE_LOOP ( 'NONE', ( #91, #642 ) ) ;
#566 = VERTEX_POINT ( 'NONE', #286 ) ;
#567 = DIRECTION ( 'NONE',  ( 0.0000000000000000000, -1.000000000000000000, 0.0000000000000000000 ) ) ;
#568 = DIRECTION ( 'NONE',  ( 1.000000000000000000, -0.0000000000000000000, -0.0000000000000000000 ) ) ;
#569 = DIRECTION ( 'NONE',  ( 0.0000000000000000000, 0.0000000000000000000, 1.000000000000000000 ) ) ;
#570 = CARTESIAN_POINT ( 'NONE',  ( 0.0000000000000000000, 30.18750000000000711, 3.195000000000001172 ) ) ;
#571 = CARTESIAN_POINT ( 'NONE',  ( 0.2500000000000000000, 0.0000000000000000000, 27.50000000000000000 ) ) ;
#572 = AXIS2_PLACEMENT_3D ( 'NONE', #225, #370, #466 ) ;
#573 = DIRECTION ( 'NONE',  ( 1.000000000000000000, -0.0000000000000000000, -0.0000000000000000000 ) ) ;
#574 = DIRECTION ( 'NONE',  ( 1.000000000000000000, 0.0000000000000000000, 0.0000000000000000000 ) ) ;
#575 = LINE ( 'NONE', #228, #267 ) ;
#576 = ORIENTED_EDGE ( 'NONE', *, *, #388, .F. ) ;
#577 = EDGE_LOOP ( 'NONE', ( #479, #44, #402, #141 ) ) ;
#578 = DIRECTION ( 'NONE',  ( 0.0000000000000000000, 0.0000000000000000000, -1.000000000000000000 ) ) ;
#579 = PRODUCT_DEFINITION_FORMATION_WITH_SPECIFIED_SOURCE ( 'ANY', '', #219, .NOT_KNOWN. ) ;
#580 = LINE ( 'NONE', #247, #626 ) ;
#581 = LINE ( 'NONE', #35, #365 ) ;
#582 = VERTEX_POINT ( 'NONE', #387 ) ;
#583 = EDGE_LOOP ( 'NONE', ( #15, #393 ) ) ;
#584 = CARTESIAN_POINT ( 'NONE',  ( 0.0000000000000000000, 30.18750000000000711, 22.50250000000000128 ) ) ;
#585 = CARTESIAN_POINT ( 'NONE',  ( 0.0000000000000000000, 30.18750000000000711, 22.50250000000000128 ) ) ;
#586 = LINE ( 'NONE', #590, #242 ) ;
#587 = FACE_OUTER_BOUND ( 'NONE', #340, .T. ) ;
#588 = DIRECTION ( 'NONE',  ( 1.000000000000000000, 0.0000000000000000000, 0.0000000000000000000 ) ) ;
#589 = ORIENTED_EDGE ( 'NONE', *, *, #523, .F. ) ;
#590 = CARTESIAN_POINT ( 'NONE',  ( 0.0000000000000000000, 30.18750000000000711, 24.57000000000000028 ) ) ;
#591 = EDGE_CURVE ( 'NONE', #631, #68, #6, .T. ) ;
#592 = CARTESIAN_POINT ( 'NONE',  ( 0.0000000000000000000, 30.18750000000000711, 5.130000000000001670 ) ) ;
#593 = FACE_OUTER_BOUND ( 'NONE', #635, .T. ) ;
#594 = VECTOR ( 'NONE', #573, 39.37007874015748143 ) ;
#595 = AXIS2_PLACEMENT_3D ( 'NONE', #348, #45, #249 ) ;
#596 = EDGE_LOOP ( 'NONE', ( #122, #231, #190, #576 ) ) ;
#597 = EDGE_LOOP ( 'NONE', ( #9, #240, #171, #460 ) ) ;
#598 = CARTESIAN_POINT ( 'NONE',  ( 0.0000000000000000000, 61.19000000000000483, 0.0000000000000000000 ) ) ;
#599 = DIRECTION ( 'NONE',  ( 1.000000000000000000, 0.0000000000000000000, 0.0000000000000000000 ) ) ;
#600 = DIRECTION ( 'NONE',  ( 1.000000000000000000, 0.0000000000000000000, -0.0000000000000000000 ) ) ;
#601 = CIRCLE ( 'NONE', #313, 0.1325000000000008393 ) ;
#602 = UNCERTAINTY_MEASURE_WITH_UNIT (LENGTH_MEASURE( 1.000000000000000082E-05 ), #70, 'distance_accuracy_value', 'NONE');
#603 = EDGE_LOOP ( 'NONE', ( #84, #368, #544, #52 ) ) ;
#604 = EDGE_LOOP ( 'NONE', ( #513, #415, #241, #168 ) ) ;
#605 = AXIS2_PLACEMENT_3D ( 'NONE', #512, #226, #326 ) ;
#606 = ADVANCED_FACE ( 'NONE', ( #406 ), #384, .F. ) ;
#607 = VECTOR ( 'NONE', #418, 39.37007874015748143 ) ;
#608 = CIRCLE ( 'NONE', #234, 0.1325000000000008393 ) ;
#609 = CARTESIAN_POINT ( 'NONE',  ( 0.0000000000000000000, 30.18750000000000711, 4.864999999999999325 ) ) ;
#610 = VERTEX_POINT ( 'NONE', #528 ) ;
#611 = FACE_OUTER_BOUND ( 'NONE', #577, .T. ) ;
#612 = CARTESIAN_POINT ( 'NONE',  ( 0.2500000000000000000, 30.18750000000000711, 2.929999999999999716 ) ) ;
#613 = CARTESIAN_POINT ( 'NONE',  ( 0.2500000000000000000, 30.18750000000000711, 24.30499999999999972 ) ) ;
#614 = CARTESIAN_POINT ( 'NONE',  ( 0.0000000000000000000, 30.18750000000000711, 24.57000000000000028 ) ) ;
#615 = EDGE_CURVE ( 'NONE', #46, #206, #640, .T. ) ;
#616 = AXIS2_PLACEMENT_3D ( 'NONE', #28, #568, #373 ) ;
#617 = DIRECTION ( 'NONE',  ( 0.0000000000000000000, 1.000000000000000000, 0.0000000000000000000 ) ) ;
#618 = VECTOR ( 'NONE', #101, 39.37007874015748143 ) ;
#619 = DIRECTION ( 'NONE',  ( 1.000000000000000000, -0.0000000000000000000, -0.0000000000000000000 ) ) ;
#620 = DIRECTION ( 'NONE',  ( 0.0000000000000000000, 0.0000000000000000000, -1.000000000000000000 ) ) ;
#621 = ORIENTED_EDGE ( 'NONE', *, *, #147, .T. ) ;
#622 = CARTESIAN_POINT ( 'NONE',  ( 0.2500000000000000000, 30.18750000000000711, 24.57000000000000028 ) ) ;
#623 = DIRECTION ( 'NONE',  ( 1.000000000000000000, 0.0000000000000000000, 0.0000000000000000000 ) ) ;
#624 = PLANE ( 'NONE',  #244 ) ;
#625 = EDGE_CURVE ( 'NONE', #582, #443, #564, .T. ) ;
#626 = VECTOR ( 'NONE', #96, 39.37007874015748143 ) ;
#627 = DIRECTION ( 'NONE',  ( 0.0000000000000000000, 0.0000000000000000000, 1.000000000000000000 ) ) ;
#628 = VECTOR ( 'NONE', #180, 39.37007874015748143 ) ;
#629 = ORIENTED_EDGE ( 'NONE', *, *, #105, .T. ) ;
#630 = CARTESIAN_POINT ( 'NONE',  ( 0.0000000000000000000, 30.18750000000000711, 3.062500000000000444 ) ) ;
#631 = VERTEX_POINT ( 'NONE', #385 ) ;
#632 = VECTOR ( 'NONE', #260, 39.37007874015748143 ) ;
#633 = DIRECTION ( 'NONE',  ( 0.0000000000000000000, 0.0000000000000000000, -1.000000000000000000 ) ) ;
#634 = LENGTH_MEASURE_WITH_UNIT ( LENGTH_MEASURE( 0.02539999999999999897 ), #57 );
#635 = EDGE_LOOP ( 'NONE', ( #354, #39, #507, #23 ) ) ;
#636 = EDGE_CURVE ( 'NONE', #172, #288, #608, .T. ) ;
#637 = AXIS2_PLACEMENT_3D ( 'NONE', #306, #352, #149 ) ;
#638 = DIRECTION ( 'NONE',  ( 0.0000000000000000000, 0.0000000000000000000, -1.000000000000000000 ) ) ;
#639 = FACE_OUTER_BOUND ( 'NONE', #296, .T. ) ;
#640 = LINE ( 'NONE', #289, #506 ) ;
#641 = CARTESIAN_POINT ( 'NONE',  ( 0.2500000000000000000, 30.18750000000000711, 22.37000000000000099 ) ) ;
#642 = ORIENTED_EDGE ( 'NONE', *, *, #90, .T. ) ;
#643 = DIRECTION ( 'NONE',  ( 0.0000000000000000000, -1.000000000000000000, 0.0000000000000000000 ) ) ;
ENDSEC;
END-ISO-10303-21;
