ISO-10303-21;
HEADER;
FILE_DESCRIPTION (( 'STEP AP214' ),
    '1' );
FILE_NAME ('Left Front Wall.step',
    '2018-09-03T05:45:27',
    ( '' ),
    ( '' ),
    'SwSTEP 2.0',
    'SolidWorks 2018',
    '' );
FILE_SCHEMA (( 'AUTOMOTIVE_DESIGN' ));
ENDSEC;

DATA;
#1 = ORIENTED_EDGE ( 'NONE', *, *, #51, .T. ) ;
#2 = PRODUCT_DEFINITION_SHAPE ( 'NONE', 'NONE',  #164 ) ;
#3 = ADVANCED_FACE ( 'NONE', ( #128 ), #29, .T. ) ;
#4 = ORIENTED_EDGE ( 'NONE', *, *, #113, .T. ) ;
#5 =( GEOMETRIC_REPRESENTATION_CONTEXT ( 3 ) GLOBAL_UNCERTAINTY_ASSIGNED_CONTEXT ( ( #26 ) ) GLOBAL_UNIT_ASSIGNED_CONTEXT ( ( #27, #67, #56 ) ) REPRESENTATION_CONTEXT ( 'NONE', 'WORKASPACE' ) );
#6 = SURFACE_SIDE_STYLE ('',( #24 ) ) ;
#7 = ORIENTED_EDGE ( 'NONE', *, *, #113, .F. ) ;
#8 = PLANE ( 'NONE',  #83 ) ;
#9 = APPLICATION_CONTEXT ( 'automotive_design' ) ;
#10 = LENGTH_MEASURE_WITH_UNIT ( LENGTH_MEASURE( 0.02539999999999999897 ), #66 );
#11 = CARTESIAN_POINT ( 'NONE',  ( 0.0000000000000000000, 61.19000000000000483, 0.2500000000000000000 ) ) ;
#12 = SURFACE_STYLE_USAGE ( .BOTH. , #149 ) ;
#13 = VERTEX_POINT ( 'NONE', #178 ) ;
#14 = PRESENTATION_LAYER_ASSIGNMENT (  '', '', ( #190 ) ) ;
#15 =( NAMED_UNIT ( * ) PLANE_ANGLE_UNIT ( ) SI_UNIT ( $, .RADIAN. ) );
#16 = AXIS2_PLACEMENT_3D ( 'NONE', #195, #48, #108 ) ;
#17 = MECHANICAL_DESIGN_GEOMETRIC_PRESENTATION_REPRESENTATION (  '', ( #123 ), #116 ) ;
#18 = CARTESIAN_POINT ( 'NONE',  ( 3.500000000000000444, 0.0000000000000000000, 0.0000000000000000000 ) ) ;
#19 = SURFACE_STYLE_FILL_AREA ( #139 ) ;
#20 = ORIENTED_EDGE ( 'NONE', *, *, #51, .F. ) ;
#21 = DIRECTION ( 'NONE',  ( 0.0000000000000000000, 0.0000000000000000000, 1.000000000000000000 ) ) ;
#22 = EDGE_LOOP ( 'NONE', ( #175, #81, #37, #79 ) ) ;
#23 = COLOUR_RGB ( '',0.7921568627450980005, 0.8196078431372548767, 0.9333333333333333481 ) ;
#24 = SURFACE_STYLE_FILL_AREA ( #148 ) ;
#25 = SURFACE_STYLE_USAGE ( .BOTH. , #6 ) ;
#26 = UNCERTAINTY_MEASURE_WITH_UNIT (LENGTH_MEASURE( 1.000000000000000082E-05 ), #27, 'distance_accuracy_value', 'NONE');
#27 =( CONVERSION_BASED_UNIT ( 'INCH', #205 ) LENGTH_UNIT ( ) NAMED_UNIT ( #208 ) );
#28 = VECTOR ( 'NONE', #117, 39.37007874015748143 ) ;
#29 = PLANE ( 'NONE',  #59 ) ;
#30 = CARTESIAN_POINT ( 'NONE',  ( 3.500000000000000444, 61.19000000000000483, 0.2500000000000000000 ) ) ;
#31 = CARTESIAN_POINT ( 'NONE',  ( 3.500000000000000444, 61.19000000000000483, 0.0000000000000000000 ) ) ;
#32 = VECTOR ( 'NONE', #200, 39.37007874015748143 ) ;
#33 = MECHANICAL_DESIGN_GEOMETRIC_PRESENTATION_REPRESENTATION (  '', ( #190 ), #5 ) ;
#34 = UNCERTAINTY_MEASURE_WITH_UNIT (LENGTH_MEASURE( 1.000000000000000082E-05 ), #182, 'distance_accuracy_value', 'NONE');
#35 = FACE_OUTER_BOUND ( 'NONE', #132, .T. ) ;
#36 = EDGE_CURVE ( 'NONE', #13, #187, #64, .T. ) ;
#37 = ORIENTED_EDGE ( 'NONE', *, *, #162, .T. ) ;
#38 =( GEOMETRIC_REPRESENTATION_CONTEXT ( 3 ) GLOBAL_UNCERTAINTY_ASSIGNED_CONTEXT ( ( #34 ) ) GLOBAL_UNIT_ASSIGNED_CONTEXT ( ( #182, #125, #115 ) ) REPRESENTATION_CONTEXT ( 'NONE', 'WORKASPACE' ) );
#39 = DIRECTION ( 'NONE',  ( 1.000000000000000000, 0.0000000000000000000, 0.0000000000000000000 ) ) ;
#40 = DIRECTION ( 'NONE',  ( 1.000000000000000000, 0.0000000000000000000, 0.0000000000000000000 ) ) ;
#41 = DIRECTION ( 'NONE',  ( 0.0000000000000000000, 0.0000000000000000000, 1.000000000000000000 ) ) ;
#42 = CARTESIAN_POINT ( 'NONE',  ( 3.500000000000000444, 61.19000000000000483, 0.0000000000000000000 ) ) ;
#43 = DIRECTION ( 'NONE',  ( 1.000000000000000000, 0.0000000000000000000, 0.0000000000000000000 ) ) ;
#44 = AXIS2_PLACEMENT_3D ( 'NONE', #137, #41, #43 ) ;
#45 = ORIENTED_EDGE ( 'NONE', *, *, #150, .T. ) ;
#46 = EDGE_LOOP ( 'NONE', ( #184, #4, #138, #126 ) ) ;
#47 = VERTEX_POINT ( 'NONE', #84 ) ;
#48 = DIRECTION ( 'NONE',  ( 1.000000000000000000, 0.0000000000000000000, 0.0000000000000000000 ) ) ;
#49 = DIRECTION ( 'NONE',  ( 0.0000000000000000000, 1.000000000000000000, 0.0000000000000000000 ) ) ;
#50 = ORIENTED_EDGE ( 'NONE', *, *, #103, .F. ) ;
#51 = EDGE_CURVE ( 'NONE', #95, #121, #203, .T. ) ;
#52 = ORIENTED_EDGE ( 'NONE', *, *, #36, .F. ) ;
#53 = PLANE ( 'NONE',  #111 ) ;
#54 = ADVANCED_FACE ( 'NONE', ( #35 ), #8, .T. ) ;
#55 = CARTESIAN_POINT ( 'NONE',  ( 0.0000000000000000000, 0.0000000000000000000, 0.0000000000000000000 ) ) ;
#56 =( NAMED_UNIT ( * ) SI_UNIT ( $, .STERADIAN. ) SOLID_ANGLE_UNIT ( ) );
#57 = CLOSED_SHELL ( 'NONE', ( #133, #165, #54, #146, #3, #185 ) ) ;
#58 = DIRECTION ( 'NONE',  ( -1.000000000000000000, 0.0000000000000000000, 0.0000000000000000000 ) ) ;
#59 = AXIS2_PLACEMENT_3D ( 'NONE', #207, #176, #72 ) ;
#60 = ORIENTED_EDGE ( 'NONE', *, *, #77, .F. ) ;
#61 = CARTESIAN_POINT ( 'NONE',  ( 3.500000000000000444, 0.0000000000000000000, 0.2500000000000000000 ) ) ;
#62 = LINE ( 'NONE', #80, #28 ) ;
#63 = LINE ( 'NONE', #210, #70 ) ;
#64 = LINE ( 'NONE', #30, #112 ) ;
#65 = UNCERTAINTY_MEASURE_WITH_UNIT (LENGTH_MEASURE( 1.000000000000000082E-05 ), #188, 'distance_accuracy_value', 'NONE');
#66 =( LENGTH_UNIT ( ) NAMED_UNIT ( * ) SI_UNIT ( $, .METRE. ) );
#67 =( NAMED_UNIT ( * ) PLANE_ANGLE_UNIT ( ) SI_UNIT ( $, .RADIAN. ) );
#68 = DIRECTION ( 'NONE',  ( 0.0000000000000000000, 0.0000000000000000000, 1.000000000000000000 ) ) ;
#69 = LINE ( 'NONE', #170, #75 ) ;
#70 = VECTOR ( 'NONE', #141, 39.37007874015748143 ) ;
#71 = PRESENTATION_STYLE_ASSIGNMENT (( #12 ) ) ;
#72 = DIRECTION ( 'NONE',  ( 1.000000000000000000, 0.0000000000000000000, 0.0000000000000000000 ) ) ;
#73 = CARTESIAN_POINT ( 'NONE',  ( 0.0000000000000000000, 61.19000000000000483, 0.0000000000000000000 ) ) ;
#74 = DIRECTION ( 'NONE',  ( 0.0000000000000000000, 0.0000000000000000000, 1.000000000000000000 ) ) ;
#75 = VECTOR ( 'NONE', #40, 39.37007874015748143 ) ;
#76 = FACE_OUTER_BOUND ( 'NONE', #180, .T. ) ;
#77 = EDGE_CURVE ( 'NONE', #121, #135, #69, .T. ) ;
#78 = VECTOR ( 'NONE', #209, 39.37007874015748143 ) ;
#79 = ORIENTED_EDGE ( 'NONE', *, *, #36, .T. ) ;
#80 = CARTESIAN_POINT ( 'NONE',  ( 3.500000000000000444, 61.19000000000000483, 0.0000000000000000000 ) ) ;
#81 = ORIENTED_EDGE ( 'NONE', *, *, #129, .T. ) ;
#82 = CARTESIAN_POINT ( 'NONE',  ( 3.500000000000000444, 0.0000000000000000000, 0.0000000000000000000 ) ) ;
#83 = AXIS2_PLACEMENT_3D ( 'NONE', #173, #201, #168 ) ;
#84 = CARTESIAN_POINT ( 'NONE',  ( 3.500000000000000444, 0.0000000000000000000, 0.2500000000000000000 ) ) ;
#85 = PRODUCT_CONTEXT ( 'NONE', #152, 'mechanical' ) ;
#86 = VECTOR ( 'NONE', #74, 39.37007874015748143 ) ;
#87 = ORIENTED_EDGE ( 'NONE', *, *, #150, .F. ) ;
#88 = ORIENTED_EDGE ( 'NONE', *, *, #181, .T. ) ;
#89 = CARTESIAN_POINT ( 'NONE',  ( 3.500000000000000444, 0.0000000000000000000, 0.0000000000000000000 ) ) ;
#90 = CARTESIAN_POINT ( 'NONE',  ( 0.0000000000000000000, 61.19000000000000483, 0.2500000000000000000 ) ) ;
#91 = EDGE_LOOP ( 'NONE', ( #45, #206, #52, #7 ) ) ;
#92 = DIRECTION ( 'NONE',  ( -1.000000000000000000, 0.0000000000000000000, 0.0000000000000000000 ) ) ;
#93 = EDGE_CURVE ( 'NONE', #121, #160, #199, .T. ) ;
#94 = DIRECTION ( 'NONE',  ( 1.000000000000000000, 0.0000000000000000000, 0.0000000000000000000 ) ) ;
#95 = VERTEX_POINT ( 'NONE', #186 ) ;
#96 = ADVANCED_BREP_SHAPE_REPRESENTATION ( 'Left Front Wall', ( #140, #44 ), #38 ) ;
#97 = DIMENSIONAL_EXPONENTS ( 1.000000000000000000, 0.0000000000000000000, 0.0000000000000000000, 0.0000000000000000000, 0.0000000000000000000, 0.0000000000000000000, 0.0000000000000000000 ) ;
#98 = DIRECTION ( 'NONE',  ( 0.0000000000000000000, -1.000000000000000000, 0.0000000000000000000 ) ) ;
#99 = APPLICATION_PROTOCOL_DEFINITION ( 'draft international standard', 'automotive_design', 1998, #152 ) ;
#100 = ORIENTED_EDGE ( 'NONE', *, *, #77, .T. ) ;
#101 = CARTESIAN_POINT ( 'NONE',  ( 0.0000000000000000000, 61.19000000000000483, 0.0000000000000000000 ) ) ;
#102 = APPLICATION_PROTOCOL_DEFINITION ( 'draft international standard', 'automotive_design', 1998, #9 ) ;
#103 = EDGE_CURVE ( 'NONE', #187, #160, #119, .T. ) ;
#104 = LENGTH_MEASURE_WITH_UNIT ( LENGTH_MEASURE( 0.02539999999999999897 ), #193 );
#105 = PRESENTATION_STYLE_ASSIGNMENT (( #25 ) ) ;
#106 = PLANE ( 'NONE',  #16 ) ;
#107 = PRESENTATION_LAYER_ASSIGNMENT (  '', '', ( #123 ) ) ;
#108 = DIRECTION ( 'NONE',  ( 0.0000000000000000000, 1.000000000000000000, 0.0000000000000000000 ) ) ;
#109 = PLANE ( 'NONE',  #122 ) ;
#110 = VECTOR ( 'NONE', #68, 39.37007874015748143 ) ;
#111 = AXIS2_PLACEMENT_3D ( 'NONE', #42, #151, #58 ) ;
#112 = VECTOR ( 'NONE', #127, 39.37007874015748143 ) ;
#113 = EDGE_CURVE ( 'NONE', #161, #13, #62, .T. ) ;
#114 = FACE_OUTER_BOUND ( 'NONE', #131, .T. ) ;
#115 =( NAMED_UNIT ( * ) SI_UNIT ( $, .STERADIAN. ) SOLID_ANGLE_UNIT ( ) );
#116 =( GEOMETRIC_REPRESENTATION_CONTEXT ( 3 ) GLOBAL_UNCERTAINTY_ASSIGNED_CONTEXT ( ( #65 ) ) GLOBAL_UNIT_ASSIGNED_CONTEXT ( ( #188, #15, #154 ) ) REPRESENTATION_CONTEXT ( 'NONE', 'WORKASPACE' ) );
#117 = DIRECTION ( 'NONE',  ( 0.0000000000000000000, 0.0000000000000000000, 1.000000000000000000 ) ) ;
#118 = PRODUCT_RELATED_PRODUCT_CATEGORY ( 'part', '', ( #167 ) ) ;
#119 = LINE ( 'NONE', #11, #157 ) ;
#120 = LINE ( 'NONE', #89, #86 ) ;
#121 = VERTEX_POINT ( 'NONE', #55 ) ;
#122 = AXIS2_PLACEMENT_3D ( 'NONE', #73, #92, #143 ) ;
#123 = STYLED_ITEM ( 'NONE', ( #105 ), #140 ) ;
#124 = LINE ( 'NONE', #18, #78 ) ;
#125 =( NAMED_UNIT ( * ) PLANE_ANGLE_UNIT ( ) SI_UNIT ( $, .RADIAN. ) );
#126 = ORIENTED_EDGE ( 'NONE', *, *, #181, .F. ) ;
#127 = DIRECTION ( 'NONE',  ( -1.000000000000000000, 0.0000000000000000000, 0.0000000000000000000 ) ) ;
#128 = FACE_OUTER_BOUND ( 'NONE', #22, .T. ) ;
#129 = EDGE_CURVE ( 'NONE', #160, #47, #153, .T. ) ;
#130 = VECTOR ( 'NONE', #49, 39.37007874015748143 ) ;
#131 = EDGE_LOOP ( 'NONE', ( #20, #87, #142, #60 ) ) ;
#132 = EDGE_LOOP ( 'NONE', ( #100, #88, #183, #145 ) ) ;
#133 = ADVANCED_FACE ( 'NONE', ( #196 ), #53, .T. ) ;
#134 = AXIS2_PLACEMENT_3D ( 'NONE', #156, #21, #94 ) ;
#135 = VERTEX_POINT ( 'NONE', #82 ) ;
#136 = CARTESIAN_POINT ( 'NONE',  ( 0.0000000000000000000, 0.0000000000000000000, 0.2500000000000000000 ) ) ;
#137 = CARTESIAN_POINT ( 'NONE',  ( 0.0000000000000000000, 0.0000000000000000000, 0.0000000000000000000 ) ) ;
#138 = ORIENTED_EDGE ( 'NONE', *, *, #162, .F. ) ;
#139 = FILL_AREA_STYLE ('',( #202 ) ) ;
#140 = MANIFOLD_SOLID_BREP ( 'Imported1', #57 ) ;
#141 = DIRECTION ( 'NONE',  ( -1.000000000000000000, 0.0000000000000000000, 0.0000000000000000000 ) ) ;
#142 = ORIENTED_EDGE ( 'NONE', *, *, #191, .F. ) ;
#143 = DIRECTION ( 'NONE',  ( 0.0000000000000000000, -1.000000000000000000, 0.0000000000000000000 ) ) ;
#144 = PRODUCT_DEFINITION_CONTEXT ( 'detailed design', #9, 'design' ) ;
#145 = ORIENTED_EDGE ( 'NONE', *, *, #93, .F. ) ;
#146 = ADVANCED_FACE ( 'NONE', ( #76 ), #109, .T. ) ;
#147 = CARTESIAN_POINT ( 'NONE',  ( 0.0000000000000000000, 0.0000000000000000000, 0.0000000000000000000 ) ) ;
#148 = FILL_AREA_STYLE ('',( #171 ) ) ;
#149 = SURFACE_SIDE_STYLE ('',( #19 ) ) ;
#150 = EDGE_CURVE ( 'NONE', #161, #95, #63, .T. ) ;
#151 = DIRECTION ( 'NONE',  ( 0.0000000000000000000, 1.000000000000000000, 0.0000000000000000000 ) ) ;
#152 = APPLICATION_CONTEXT ( 'automotive_design' ) ;
#153 = LINE ( 'NONE', #136, #166 ) ;
#154 =( NAMED_UNIT ( * ) SI_UNIT ( $, .STERADIAN. ) SOLID_ANGLE_UNIT ( ) );
#155 = CARTESIAN_POINT ( 'NONE',  ( 0.0000000000000000000, 0.0000000000000000000, 0.2500000000000000000 ) ) ;
#156 = CARTESIAN_POINT ( 'NONE',  ( 1.750000000000000222, 30.59500000000000242, 0.0000000000000000000 ) ) ;
#157 = VECTOR ( 'NONE', #98, 39.37007874015748143 ) ;
#158 = LINE ( 'NONE', #211, #163 ) ;
#159 = PLANE ( 'NONE',  #134 ) ;
#160 = VERTEX_POINT ( 'NONE', #155 ) ;
#161 = VERTEX_POINT ( 'NONE', #31 ) ;
#162 = EDGE_CURVE ( 'NONE', #47, #13, #204, .T. ) ;
#163 = VECTOR ( 'NONE', #194, 39.37007874015748143 ) ;
#164 = PRODUCT_DEFINITION ( 'UNKNOWN', '', #198, #144 ) ;
#165 = ADVANCED_FACE ( 'NONE', ( #172 ), #106, .T. ) ;
#166 = VECTOR ( 'NONE', #39, 39.37007874015748143 ) ;
#167 = PRODUCT ( 'Left Front Wall', 'Left Front Wall', '', ( #85 ) ) ;
#168 = DIRECTION ( 'NONE',  ( 1.000000000000000000, 0.0000000000000000000, 0.0000000000000000000 ) ) ;
#169 = DIMENSIONAL_EXPONENTS ( 1.000000000000000000, 0.0000000000000000000, 0.0000000000000000000, 0.0000000000000000000, 0.0000000000000000000, 0.0000000000000000000, 0.0000000000000000000 ) ;
#170 = CARTESIAN_POINT ( 'NONE',  ( 0.0000000000000000000, 0.0000000000000000000, 0.0000000000000000000 ) ) ;
#171 = FILL_AREA_STYLE_COLOUR ( '', #197 ) ;
#172 = FACE_OUTER_BOUND ( 'NONE', #46, .T. ) ;
#173 = CARTESIAN_POINT ( 'NONE',  ( 0.0000000000000000000, 0.0000000000000000000, 0.0000000000000000000 ) ) ;
#174 = EDGE_CURVE ( 'NONE', #95, #187, #158, .T. ) ;
#175 = ORIENTED_EDGE ( 'NONE', *, *, #103, .T. ) ;
#176 = DIRECTION ( 'NONE',  ( 0.0000000000000000000, 0.0000000000000000000, 1.000000000000000000 ) ) ;
#177 = ORIENTED_EDGE ( 'NONE', *, *, #174, .F. ) ;
#178 = CARTESIAN_POINT ( 'NONE',  ( 3.500000000000000444, 61.19000000000000483, 0.2500000000000000000 ) ) ;
#179 = SHAPE_DEFINITION_REPRESENTATION ( #2, #96 ) ;
#180 = EDGE_LOOP ( 'NONE', ( #1, #192, #50, #177 ) ) ;
#181 = EDGE_CURVE ( 'NONE', #135, #47, #120, .T. ) ;
#182 =( CONVERSION_BASED_UNIT ( 'INCH', #104 ) LENGTH_UNIT ( ) NAMED_UNIT ( #97 ) );
#183 = ORIENTED_EDGE ( 'NONE', *, *, #129, .F. ) ;
#184 = ORIENTED_EDGE ( 'NONE', *, *, #191, .T. ) ;
#185 = ADVANCED_FACE ( 'NONE', ( #114 ), #159, .F. ) ;
#186 = CARTESIAN_POINT ( 'NONE',  ( 0.0000000000000000000, 61.19000000000000483, 0.0000000000000000000 ) ) ;
#187 = VERTEX_POINT ( 'NONE', #90 ) ;
#188 =( CONVERSION_BASED_UNIT ( 'INCH', #10 ) LENGTH_UNIT ( ) NAMED_UNIT ( #169 ) );
#189 =( LENGTH_UNIT ( ) NAMED_UNIT ( * ) SI_UNIT ( $, .METRE. ) );
#190 = STYLED_ITEM ( 'NONE', ( #71 ), #96 ) ;
#191 = EDGE_CURVE ( 'NONE', #135, #161, #124, .T. ) ;
#192 = ORIENTED_EDGE ( 'NONE', *, *, #93, .T. ) ;
#193 =( LENGTH_UNIT ( ) NAMED_UNIT ( * ) SI_UNIT ( $, .METRE. ) );
#194 = DIRECTION ( 'NONE',  ( 0.0000000000000000000, 0.0000000000000000000, 1.000000000000000000 ) ) ;
#195 = CARTESIAN_POINT ( 'NONE',  ( 3.500000000000000444, 0.0000000000000000000, 0.0000000000000000000 ) ) ;
#196 = FACE_OUTER_BOUND ( 'NONE', #91, .T. ) ;
#197 = COLOUR_RGB ( '',0.9647058823529411908, 0.9647058823529411908, 0.9529411764705881804 ) ;
#198 = PRODUCT_DEFINITION_FORMATION_WITH_SPECIFIED_SOURCE ( 'ANY', '', #167, .NOT_KNOWN. ) ;
#199 = LINE ( 'NONE', #147, #110 ) ;
#200 = DIRECTION ( 'NONE',  ( 0.0000000000000000000, -1.000000000000000000, 0.0000000000000000000 ) ) ;
#201 = DIRECTION ( 'NONE',  ( 0.0000000000000000000, -1.000000000000000000, 0.0000000000000000000 ) ) ;
#202 = FILL_AREA_STYLE_COLOUR ( '', #23 ) ;
#203 = LINE ( 'NONE', #101, #32 ) ;
#204 = LINE ( 'NONE', #61, #130 ) ;
#205 = LENGTH_MEASURE_WITH_UNIT ( LENGTH_MEASURE( 0.02539999999999999897 ), #189 );
#206 = ORIENTED_EDGE ( 'NONE', *, *, #174, .T. ) ;
#207 = CARTESIAN_POINT ( 'NONE',  ( 1.750000000000000222, 30.59500000000000242, 0.2500000000000000000 ) ) ;
#208 = DIMENSIONAL_EXPONENTS ( 1.000000000000000000, 0.0000000000000000000, 0.0000000000000000000, 0.0000000000000000000, 0.0000000000000000000, 0.0000000000000000000, 0.0000000000000000000 ) ;
#209 = DIRECTION ( 'NONE',  ( 0.0000000000000000000, 1.000000000000000000, 0.0000000000000000000 ) ) ;
#210 = CARTESIAN_POINT ( 'NONE',  ( 3.500000000000000444, 61.19000000000000483, 0.0000000000000000000 ) ) ;
#211 = CARTESIAN_POINT ( 'NONE',  ( 0.0000000000000000000, 61.19000000000000483, 0.0000000000000000000 ) ) ;
ENDSEC;
END-ISO-10303-21;
