ISO-10303-21;
HEADER;
FILE_DESCRIPTION (( 'STEP AP214' ),
    '1' );
FILE_NAME ('Axle.step',
    '2018-09-03T05:32:21',
    ( '' ),
    ( '' ),
    'SwSTEP 2.0',
    'SolidWorks 2018',
    '' );
FILE_SCHEMA (( 'AUTOMOTIVE_DESIGN' ));
ENDSEC;

DATA;
#1 = EDGE_LOOP ( 'NONE', ( #290, #331, #376, #223, #355, #138 ) ) ;
#2 = SURFACE_STYLE_FILL_AREA ( #103 ) ;
#3 = VERTEX_POINT ( 'NONE', #94 ) ;
#4 = DIRECTION ( 'NONE',  ( -1.000000000000000000, 0.0000000000000000000, 0.0000000000000000000 ) ) ;
#5 = LINE ( 'NONE', #365, #66 ) ;
#6 = CARTESIAN_POINT ( 'NONE',  ( -1.524999999999999911, 6.556435184794232217E-17, 0.2886751438076771703 ) ) ;
#7 = VERTEX_POINT ( 'NONE', #405 ) ;
#8 = LENGTH_MEASURE_WITH_UNIT ( LENGTH_MEASURE( 0.02539999999999999897 ), #240 );
#9 = SURFACE_SIDE_STYLE ('',( #2 ) ) ;
#10 = EDGE_CURVE ( 'NONE', #309, #3, #5, .T. ) ;
#11 = DIRECTION ( 'NONE',  ( -1.000000000000000000, 0.0000000000000000000, 0.0000000000000000000 ) ) ;
#12 = ORIENTED_EDGE ( 'NONE', *, *, #183, .T. ) ;
#13 = DIRECTION ( 'NONE',  ( 0.0000000000000000000, 0.0000000000000000000, -1.000000000000000000 ) ) ;
#14 = ORIENTED_EDGE ( 'NONE', *, *, #142, .F. ) ;
#15 = LINE ( 'NONE', #390, #74 ) ;
#16 = MECHANICAL_DESIGN_GEOMETRIC_PRESENTATION_REPRESENTATION (  '', ( #24 ), #359 ) ;
#17 = CARTESIAN_POINT ( 'NONE',  ( -1.375000000000000000, 6.556435184794232217E-17, 0.2886751438076771703 ) ) ;
#18 = VERTEX_POINT ( 'NONE', #277 ) ;
#19 = DIRECTION ( 'NONE',  ( 1.000000000000000000, 0.0000000000000000000, 0.0000000000000000000 ) ) ;
#20 = ORIENTED_EDGE ( 'NONE', *, *, #397, .F. ) ;
#21 = DIRECTION ( 'NONE',  ( 0.0000000000000000000, 0.8660254037844385966, -0.4999999999999998335 ) ) ;
#22 = VECTOR ( 'NONE', #169, 39.37007874015748854 ) ;
#23 = FACE_BOUND ( 'NONE', #470, .T. ) ;
#24 = STYLED_ITEM ( 'NONE', ( #556 ), #152 ) ;
#25 = DIRECTION ( 'NONE',  ( 0.0000000000000000000, 0.8660254037844388186, -0.4999999999999998890 ) ) ;
#26 = EDGE_CURVE ( 'NONE', #87, #126, #524, .T. ) ;
#27 = CARTESIAN_POINT ( 'NONE',  ( 1.524999999999999911, -1.311287036958846443E-16, -0.2886751438076771703 ) ) ;
#28 = VERTEX_POINT ( 'NONE', #50 ) ;
#29 = DIRECTION ( 'NONE',  ( -1.000000000000000000, 0.0000000000000000000, 0.0000000000000000000 ) ) ;
#30 = ORIENTED_EDGE ( 'NONE', *, *, #279, .F. ) ;
#31 = CARTESIAN_POINT ( 'NONE',  ( -1.524999999999999911, -1.311287036958846443E-16, -0.2886751438076771703 ) ) ;
#32 = EDGE_CURVE ( 'NONE', #126, #371, #314, .T. ) ;
#33 =( GEOMETRIC_REPRESENTATION_CONTEXT ( 3 ) GLOBAL_UNCERTAINTY_ASSIGNED_CONTEXT ( ( #473 ) ) GLOBAL_UNIT_ASSIGNED_CONTEXT ( ( #153, #163, #208 ) ) REPRESENTATION_CONTEXT ( 'NONE', 'WORKASPACE' ) );
#34 = VERTEX_POINT ( 'NONE', #96 ) ;
#35 = DIRECTION ( 'NONE',  ( 1.000000000000000000, 0.0000000000000000000, 0.0000000000000000000 ) ) ;
#36 = FACE_OUTER_BOUND ( 'NONE', #1, .T. ) ;
#37 = LINE ( 'NONE', #293, #564 ) ;
#38 = DIRECTION ( 'NONE',  ( 0.0000000000000000000, 0.8660254037844385966, 0.4999999999999998335 ) ) ;
#39 = AXIS2_PLACEMENT_3D ( 'NONE', #58, #338, #284 ) ;
#40 = CARTESIAN_POINT ( 'NONE',  ( 1.375000000000000000, 6.556435184794232217E-17, 0.2886751438076771703 ) ) ;
#41 = ORIENTED_EDGE ( 'NONE', *, *, #60, .F. ) ;
#42 = LINE ( 'NONE', #553, #265 ) ;
#43 = PRODUCT_DEFINITION_SHAPE ( 'NONE', 'NONE',  #336 ) ;
#44 = ORIENTED_EDGE ( 'NONE', *, *, #456, .F. ) ;
#45 = DIMENSIONAL_EXPONENTS ( 1.000000000000000000, 0.0000000000000000000, 0.0000000000000000000, 0.0000000000000000000, 0.0000000000000000000, 0.0000000000000000000, 0.0000000000000000000 ) ;
#46 = ORIENTED_EDGE ( 'NONE', *, *, #416, .T. ) ;
#47 = FACE_OUTER_BOUND ( 'NONE', #127, .T. ) ;
#48 = LENGTH_MEASURE_WITH_UNIT ( LENGTH_MEASURE( 0.02539999999999999897 ), #157 );
#49 = DIRECTION ( 'NONE',  ( 0.0000000000000000000, -1.000000000000000000, 6.056575196893109953E-16 ) ) ;
#50 = CARTESIAN_POINT ( 'NONE',  ( -1.524999999999999911, -0.2500000079785744123, 0.1443375719038385852 ) ) ;
#51 = VECTOR ( 'NONE', #276, 39.37007874015748854 ) ;
#52 = AXIS2_PLACEMENT_3D ( 'NONE', #75, #70, #172 ) ;
#53 =( CONVERSION_BASED_UNIT ( 'INCH', #8 ) LENGTH_UNIT ( ) NAMED_UNIT ( #483 ) );
#54 = CARTESIAN_POINT ( 'NONE',  ( -1.375000000000000000, -0.2500000079785744123, -0.1443375719038383909 ) ) ;
#55 =( NAMED_UNIT ( * ) PLANE_ANGLE_UNIT ( ) SI_UNIT ( $, .RADIAN. ) );
#56 = LINE ( 'NONE', #164, #166 ) ;
#57 = CARTESIAN_POINT ( 'NONE',  ( -1.375000000000000000, 0.0000000000000000000, 0.0000000000000000000 ) ) ;
#58 = CARTESIAN_POINT ( 'NONE',  ( 0.0000000000000000000, 0.0000000000000000000, 0.0000000000000000000 ) ) ;
#59 = ORIENTED_EDGE ( 'NONE', *, *, #189, .T. ) ;
#60 = EDGE_CURVE ( 'NONE', #28, #455, #322, .T. ) ;
#61 = VERTEX_POINT ( 'NONE', #500 ) ;
#62 = LINE ( 'NONE', #311, #22 ) ;
#63 = FACE_OUTER_BOUND ( 'NONE', #339, .T. ) ;
#64 = ORIENTED_EDGE ( 'NONE', *, *, #60, .T. ) ;
#65 = CARTESIAN_POINT ( 'NONE',  ( 1.375000000000000000, 0.2500000079785744123, -0.1443375719038385852 ) ) ;
#66 = VECTOR ( 'NONE', #4, 39.37007874015748143 ) ;
#67 = EDGE_CURVE ( 'NONE', #270, #398, #446, .T. ) ;
#68 = SURFACE_SIDE_STYLE ('',( #312 ) ) ;
#69 = CARTESIAN_POINT ( 'NONE',  ( -1.524999999999999911, 0.0000000000000000000, 4.370956789862818808E-17 ) ) ;
#70 = DIRECTION ( 'NONE',  ( 0.0000000000000000000, 0.4999999999999998890, -0.8660254037844388186 ) ) ;
#71 = CARTESIAN_POINT ( 'NONE',  ( 0.0000000000000000000, 0.0000000000000000000, 0.0000000000000000000 ) ) ;
#72 = AXIS2_PLACEMENT_3D ( 'NONE', #71, #29, #516 ) ;
#73 = ORIENTED_EDGE ( 'NONE', *, *, #508, .T. ) ;
#74 = VECTOR ( 'NONE', #317, 39.37007874015748854 ) ;
#75 = CARTESIAN_POINT ( 'NONE',  ( -1.375000000000000000, 6.556435184794232217E-17, 0.2886751438076771703 ) ) ;
#76 = VECTOR ( 'NONE', #254, 39.37007874015748143 ) ;
#77 = EDGE_CURVE ( 'NONE', #292, #360, #534, .T. ) ;
#78 = CARTESIAN_POINT ( 'NONE',  ( 1.375000000000000000, 0.2500000079785744123, 0.1443375719038385852 ) ) ;
#79 = CARTESIAN_POINT ( 'NONE',  ( 1.375000000000000000, -1.311287036958846443E-16, -0.2886751438076771703 ) ) ;
#80 = ORIENTED_EDGE ( 'NONE', *, *, #558, .F. ) ;
#81 = DIRECTION ( 'NONE',  ( 0.0000000000000000000, -0.8660254037844385966, -0.4999999999999998335 ) ) ;
#82 = ORIENTED_EDGE ( 'NONE', *, *, #125, .F. ) ;
#83 = FACE_OUTER_BOUND ( 'NONE', #546, .T. ) ;
#84 = AXIS2_PLACEMENT_3D ( 'NONE', #213, #346, #25 ) ;
#85 = FACE_OUTER_BOUND ( 'NONE', #106, .T. ) ;
#86 = ADVANCED_FACE ( 'NONE', ( #85 ), #202, .F. ) ;
#87 = VERTEX_POINT ( 'NONE', #414 ) ;
#88 = FACE_OUTER_BOUND ( 'NONE', #394, .T. ) ;
#89 = VECTOR ( 'NONE', #425, 39.37007874015748143 ) ;
#90 = ADVANCED_FACE ( 'NONE', ( #526, #23 ), #102, .F. ) ;
#91 = EDGE_CURVE ( 'NONE', #305, #451, #489, .T. ) ;
#92 = FILL_AREA_STYLE_COLOUR ( '', #462 ) ;
#93 = DIRECTION ( 'NONE',  ( 0.0000000000000000000, 0.0000000000000000000, -1.000000000000000000 ) ) ;
#94 = CARTESIAN_POINT ( 'NONE',  ( -1.524999999999999911, 0.2500000079785744123, 0.1443375719038385852 ) ) ;
#95 = PLANE ( 'NONE',  #215 ) ;
#96 = CARTESIAN_POINT ( 'NONE',  ( 1.524999999999999911, -1.311287036958846443E-16, -0.2886751438076771703 ) ) ;
#97 = ORIENTED_EDGE ( 'NONE', *, *, #148, .T. ) ;
#98 = AXIS2_PLACEMENT_3D ( 'NONE', #57, #375, #413 ) ;
#99 = DIRECTION ( 'NONE',  ( -1.000000000000000000, 0.0000000000000000000, 0.0000000000000000000 ) ) ;
#100 = VERTEX_POINT ( 'NONE', #104 ) ;
#101 = FACE_OUTER_BOUND ( 'NONE', #504, .T. ) ;
#102 = PLANE ( 'NONE',  #295 ) ;
#103 = FILL_AREA_STYLE ('',( #92 ) ) ;
#104 = CARTESIAN_POINT ( 'NONE',  ( 1.375000000000000000, -1.311287036958846443E-16, -0.2886751438076771703 ) ) ;
#105 = DIRECTION ( 'NONE',  ( 0.0000000000000000000, -3.028287598446554976E-16, -1.000000000000000000 ) ) ;
#106 = EDGE_LOOP ( 'NONE', ( #219, #203, #64, #424 ) ) ;
#107 = PRODUCT_DEFINITION_FORMATION_WITH_SPECIFIED_SOURCE ( 'ANY', '', #485, .NOT_KNOWN. ) ;
#108 = CARTESIAN_POINT ( 'NONE',  ( 1.375000000000000000, -0.2500000079785744123, -0.1443375719038383909 ) ) ;
#109 = LINE ( 'NONE', #177, #403 ) ;
#110 = VECTOR ( 'NONE', #149, 39.37007874015748854 ) ;
#111 = DIRECTION ( 'NONE',  ( 0.0000000000000000000, 0.4999999999999998890, 0.8660254037844388186 ) ) ;
#112 = ORIENTED_EDGE ( 'NONE', *, *, #137, .T. ) ;
#113 = CARTESIAN_POINT ( 'NONE',  ( 1.524999999999999911, 0.2500000079785744123, -0.1443375719038385852 ) ) ;
#114 = DIRECTION ( 'NONE',  ( 0.0000000000000000000, -1.000000000000000000, 3.028287598446554976E-16 ) ) ;
#115 = ORIENTED_EDGE ( 'NONE', *, *, #224, .T. ) ;
#116 = LINE ( 'NONE', #79, #310 ) ;
#117 = AXIS2_PLACEMENT_3D ( 'NONE', #273, #221, #562 ) ;
#118 = VECTOR ( 'NONE', #119, 39.37007874015748143 ) ;
#119 = DIRECTION ( 'NONE',  ( -1.000000000000000000, 0.0000000000000000000, 0.0000000000000000000 ) ) ;
#120 = CARTESIAN_POINT ( 'NONE',  ( -1.375000000000000000, -0.2500000079785744123, 0.1443375719038385852 ) ) ;
#121 = ORIENTED_EDGE ( 'NONE', *, *, #366, .T. ) ;
#122 = FACE_OUTER_BOUND ( 'NONE', #522, .T. ) ;
#123 = CARTESIAN_POINT ( 'NONE',  ( 1.524999999999999911, 0.0000000000000000000, 4.370956789862818808E-17 ) ) ;
#124 = DIRECTION ( 'NONE',  ( -1.000000000000000000, 0.0000000000000000000, 0.0000000000000000000 ) ) ;
#125 = EDGE_CURVE ( 'NONE', #18, #34, #302, .T. ) ;
#126 = VERTEX_POINT ( 'NONE', #288 ) ;
#127 = EDGE_LOOP ( 'NONE', ( #131, #12, #212, #493, #210, #199 ) ) ;
#128 = CIRCLE ( 'NONE', #201, 0.1499999999999999944 ) ;
#129 = CIRCLE ( 'NONE', #529, 0.1499999999999999944 ) ;
#130 = CARTESIAN_POINT ( 'NONE',  ( 1.375000000000000000, 0.2500000079785744123, 0.1443375719038385852 ) ) ;
#131 = ORIENTED_EDGE ( 'NONE', *, *, #510, .T. ) ;
#132 = AXIS2_PLACEMENT_3D ( 'NONE', #333, #111, #547 ) ;
#133 = MECHANICAL_DESIGN_GEOMETRIC_PRESENTATION_REPRESENTATION (  '', ( #211 ), #33 ) ;
#134 = ORIENTED_EDGE ( 'NONE', *, *, #216, .T. ) ;
#135 = DIMENSIONAL_EXPONENTS ( 1.000000000000000000, 0.0000000000000000000, 0.0000000000000000000, 0.0000000000000000000, 0.0000000000000000000, 0.0000000000000000000, 0.0000000000000000000 ) ;
#136 = APPLICATION_CONTEXT ( 'automotive_design' ) ;
#137 = EDGE_CURVE ( 'NONE', #180, #100, #453, .T. ) ;
#138 = ORIENTED_EDGE ( 'NONE', *, *, #279, .T. ) ;
#139 = FACE_OUTER_BOUND ( 'NONE', #356, .T. ) ;
#140 =( NAMED_UNIT ( * ) SI_UNIT ( $, .STERADIAN. ) SOLID_ANGLE_UNIT ( ) );
#141 = LINE ( 'NONE', #65, #535 ) ;
#142 = EDGE_CURVE ( 'NONE', #180, #18, #507, .T. ) ;
#143 = PRESENTATION_LAYER_ASSIGNMENT (  '', '', ( #24 ) ) ;
#144 = DIRECTION ( 'NONE',  ( 1.000000000000000000, 0.0000000000000000000, 0.0000000000000000000 ) ) ;
#145 =( NAMED_UNIT ( * ) PLANE_ANGLE_UNIT ( ) SI_UNIT ( $, .RADIAN. ) );
#146 = CARTESIAN_POINT ( 'NONE',  ( -1.375000000000000000, 0.2500000079785744123, 0.1443375719038385852 ) ) ;
#147 = CARTESIAN_POINT ( 'NONE',  ( 1.375000000000000000, 0.2500000079785744123, 0.1443375719038385852 ) ) ;
#148 = EDGE_CURVE ( 'NONE', #549, #187, #129, .T. ) ;
#149 = DIRECTION ( 'NONE',  ( 0.0000000000000000000, 0.8660254037844385966, -0.4999999999999998335 ) ) ;
#150 = ADVANCED_FACE ( 'NONE', ( #101 ), #543, .T. ) ;
#151 = DIRECTION ( 'NONE',  ( 0.0000000000000000000, -3.028287598446554976E-16, -1.000000000000000000 ) ) ;
#152 = ADVANCED_BREP_SHAPE_REPRESENTATION ( 'Axle', ( #250, #325 ), #267 ) ;
#153 =( CONVERSION_BASED_UNIT ( 'INCH', #48 ) LENGTH_UNIT ( ) NAMED_UNIT ( #135 ) );
#154 = EDGE_CURVE ( 'NONE', #398, #455, #432, .T. ) ;
#155 = VERTEX_POINT ( 'NONE', #196 ) ;
#156 = ORIENTED_EDGE ( 'NONE', *, *, #502, .F. ) ;
#157 =( LENGTH_UNIT ( ) NAMED_UNIT ( * ) SI_UNIT ( $, .METRE. ) );
#158 = VECTOR ( 'NONE', #335, 39.37007874015748143 ) ;
#159 = CARTESIAN_POINT ( 'NONE',  ( 1.375000000000000000, -0.2500000079785744123, 0.1443375719038385852 ) ) ;
#160 = ORIENTED_EDGE ( 'NONE', *, *, #313, .T. ) ;
#161 = VECTOR ( 'NONE', #99, 39.37007874015748143 ) ;
#162 = EDGE_CURVE ( 'NONE', #87, #465, #205, .T. ) ;
#163 =( NAMED_UNIT ( * ) PLANE_ANGLE_UNIT ( ) SI_UNIT ( $, .RADIAN. ) );
#164 = CARTESIAN_POINT ( 'NONE',  ( 1.375000000000000000, -0.2500000079785744123, 0.1443375719038385852 ) ) ;
#165 = ORIENTED_EDGE ( 'NONE', *, *, #183, .F. ) ;
#166 = VECTOR ( 'NONE', #207, 39.37007874015748143 ) ;
#167 = ORIENTED_EDGE ( 'NONE', *, *, #313, .F. ) ;
#168 = DIRECTION ( 'NONE',  ( 0.0000000000000000000, 0.8660254037844385966, -0.4999999999999998335 ) ) ;
#169 = DIRECTION ( 'NONE',  ( 0.0000000000000000000, -0.8660254037844385966, -0.4999999999999998335 ) ) ;
#170 = DIRECTION ( 'NONE',  ( 0.0000000000000000000, 1.000000000000000000, -6.056575196893109953E-16 ) ) ;
#171 = ORIENTED_EDGE ( 'NONE', *, *, #260, .F. ) ;
#172 = DIRECTION ( 'NONE',  ( 0.0000000000000000000, -0.8660254037844388186, -0.4999999999999998890 ) ) ;
#173 = ORIENTED_EDGE ( 'NONE', *, *, #154, .T. ) ;
#174 = VECTOR ( 'NONE', #282, 39.37007874015748143 ) ;
#175 = PLANE ( 'NONE',  #52 ) ;
#176 = ORIENTED_EDGE ( 'NONE', *, *, #162, .T. ) ;
#177 = CARTESIAN_POINT ( 'NONE',  ( -1.375000000000000000, 6.556435184794232217E-17, 0.2886751438076771703 ) ) ;
#178 = PRODUCT_RELATED_PRODUCT_CATEGORY ( 'part', '', ( #485 ) ) ;
#179 = DIRECTION ( 'NONE',  ( 0.0000000000000000000, 0.4999999999999998890, 0.8660254037844388186 ) ) ;
#180 = VERTEX_POINT ( 'NONE', #537 ) ;
#181 = LINE ( 'NONE', #209, #89 ) ;
#182 = PRESENTATION_LAYER_ASSIGNMENT (  '', '', ( #211 ) ) ;
#183 = EDGE_CURVE ( 'NONE', #309, #305, #550, .T. ) ;
#184 = EDGE_CURVE ( 'NONE', #268, #241, #530, .T. ) ;
#185 = ADVANCED_FACE ( 'NONE', ( #230 ), #494, .F. ) ;
#186 = ORIENTED_EDGE ( 'NONE', *, *, #255, .F. ) ;
#187 = VERTEX_POINT ( 'NONE', #459 ) ;
#188 = FACE_OUTER_BOUND ( 'NONE', #415, .T. ) ;
#189 = EDGE_CURVE ( 'NONE', #155, #180, #181, .T. ) ;
#190 = PRESENTATION_STYLE_ASSIGNMENT (( #420 ) ) ;
#191 = ADVANCED_FACE ( 'NONE', ( #197 ), #511, .T. ) ;
#192 = APPLICATION_CONTEXT ( 'automotive_design' ) ;
#193 = DIRECTION ( 'NONE',  ( 0.0000000000000000000, 0.0000000000000000000, 1.000000000000000000 ) ) ;
#194 = PRODUCT_CONTEXT ( 'NONE', #192, 'mechanical' ) ;
#195 = UNCERTAINTY_MEASURE_WITH_UNIT (LENGTH_MEASURE( 1.000000000000000082E-05 ), #533, 'distance_accuracy_value', 'NONE');
#196 = CARTESIAN_POINT ( 'NONE',  ( 1.375000000000000000, -0.2500000079785744123, 0.1443375719038385852 ) ) ;
#197 = FACE_OUTER_BOUND ( 'NONE', #563, .T. ) ;
#198 = DIRECTION ( 'NONE',  ( 0.0000000000000000000, -3.028287598446554976E-16, -1.000000000000000000 ) ) ;
#199 = ORIENTED_EDGE ( 'NONE', *, *, #26, .T. ) ;
#200 = DIRECTION ( 'NONE',  ( 0.0000000000000000000, 0.0000000000000000000, -1.000000000000000000 ) ) ;
#201 = AXIS2_PLACEMENT_3D ( 'NONE', #351, #124, #472 ) ;
#202 = PLANE ( 'NONE',  #408 ) ;
#203 = ORIENTED_EDGE ( 'NONE', *, *, #255, .T. ) ;
#204 = VECTOR ( 'NONE', #168, 39.37007874015748854 ) ;
#205 = LINE ( 'NONE', #452, #521 ) ;
#206 = LENGTH_MEASURE_WITH_UNIT ( LENGTH_MEASURE( 0.02539999999999999897 ), #454 );
#207 = DIRECTION ( 'NONE',  ( 1.000000000000000000, 0.0000000000000000000, 0.0000000000000000000 ) ) ;
#208 =( NAMED_UNIT ( * ) SI_UNIT ( $, .STERADIAN. ) SOLID_ANGLE_UNIT ( ) );
#209 = CARTESIAN_POINT ( 'NONE',  ( 1.375000000000000000, -0.2500000079785744123, 0.1443375719038385852 ) ) ;
#210 = ORIENTED_EDGE ( 'NONE', *, *, #260, .T. ) ;
#211 = STYLED_ITEM ( 'NONE', ( #190 ), #250 ) ;
#212 = ORIENTED_EDGE ( 'NONE', *, *, #466, .T. ) ;
#213 = CARTESIAN_POINT ( 'NONE',  ( 1.375000000000000000, -0.2500000079785744123, -0.1443375719038383909 ) ) ;
#214 = VECTOR ( 'NONE', #469, 39.37007874015748854 ) ;
#215 = AXIS2_PLACEMENT_3D ( 'NONE', #245, #449, #285 ) ;
#216 = EDGE_CURVE ( 'NONE', #155, #450, #56, .T. ) ;
#217 = PLANE ( 'NONE',  #499 ) ;
#218 = PLANE ( 'NONE',  #440 ) ;
#219 = ORIENTED_EDGE ( 'NONE', *, *, #67, .F. ) ;
#220 = LINE ( 'NONE', #147, #520 ) ;
#221 = DIRECTION ( 'NONE',  ( 0.0000000000000000000, 0.4999999999999998890, -0.8660254037844388186 ) ) ;
#222 = VECTOR ( 'NONE', #384, 39.37007874015748854 ) ;
#223 = ORIENTED_EDGE ( 'NONE', *, *, #565, .T. ) ;
#224 = EDGE_CURVE ( 'NONE', #187, #241, #443, .T. ) ;
#225 = CARTESIAN_POINT ( 'NONE',  ( 1.524999999999999911, 0.2500000079785744123, 0.1443375719038385852 ) ) ;
#226 = DIRECTION ( 'NONE',  ( -1.000000000000000000, 0.0000000000000000000, 0.0000000000000000000 ) ) ;
#227 = EDGE_LOOP ( 'NONE', ( #541, #44, #278, #271, #319, #286 ) ) ;
#228 = CARTESIAN_POINT ( 'NONE',  ( -1.524999999999999911, 8.741913579725649941E-17, 0.2886751438076771703 ) ) ;
#229 = ORIENTED_EDGE ( 'NONE', *, *, #491, .T. ) ;
#230 = FACE_OUTER_BOUND ( 'NONE', #318, .T. ) ;
#231 = ADVANCED_FACE ( 'NONE', ( #478 ), #464, .F. ) ;
#232 = ORIENTED_EDGE ( 'NONE', *, *, #352, .F. ) ;
#233 = LINE ( 'NONE', #31, #234 ) ;
#234 = VECTOR ( 'NONE', #38, 39.37007874015748854 ) ;
#235 = EDGE_CURVE ( 'NONE', #426, #61, #399, .T. ) ;
#236 = CARTESIAN_POINT ( 'NONE',  ( 1.524999999999999911, -0.2500000079785744123, 0.1443375719038385852 ) ) ;
#237 = EDGE_CURVE ( 'NONE', #7, #450, #340, .T. ) ;
#238 = ADVANCED_FACE ( 'NONE', ( #63 ), #423, .T. ) ;
#239 = ORIENTED_EDGE ( 'NONE', *, *, #377, .F. ) ;
#240 =( LENGTH_UNIT ( ) NAMED_UNIT ( * ) SI_UNIT ( $, .METRE. ) );
#241 = VERTEX_POINT ( 'NONE', #299 ) ;
#242 = LINE ( 'NONE', #363, #158 ) ;
#243 = PRODUCT_DEFINITION_CONTEXT ( 'detailed design', #136, 'design' ) ;
#244 = LINE ( 'NONE', #27, #214 ) ;
#245 = CARTESIAN_POINT ( 'NONE',  ( 1.375000000000000000, 6.556435184794232217E-17, 0.2886751438076771703 ) ) ;
#246 = DIRECTION ( 'NONE',  ( 0.0000000000000000000, -0.8660254037844385966, 0.4999999999999998335 ) ) ;
#247 = DIRECTION ( 'NONE',  ( 1.000000000000000000, 0.0000000000000000000, 0.0000000000000000000 ) ) ;
#248 = DIRECTION ( 'NONE',  ( 0.0000000000000000000, 1.000000000000000000, -3.028287598446554976E-16 ) ) ;
#249 = ORIENTED_EDGE ( 'NONE', *, *, #476, .F. ) ;
#250 = MANIFOLD_SOLID_BREP ( 'Imported1', #505 ) ;
#251 = CARTESIAN_POINT ( 'NONE',  ( 1.524999999999999911, -0.2500000079785744123, -0.1443375719038383909 ) ) ;
#252 = DIRECTION ( 'NONE',  ( -1.000000000000000000, 0.0000000000000000000, 0.0000000000000000000 ) ) ;
#253 = ORIENTED_EDGE ( 'NONE', *, *, #148, .F. ) ;
#254 = DIRECTION ( 'NONE',  ( 0.0000000000000000000, 6.056575196893109953E-16, 1.000000000000000000 ) ) ;
#255 = EDGE_CURVE ( 'NONE', #270, #28, #383, .T. ) ;
#256 = AXIS2_PLACEMENT_3D ( 'NONE', #345, #545, #422 ) ;
#257 = CARTESIAN_POINT ( 'NONE',  ( -1.375000000000000000, -1.836970198721029749E-17, 0.1499999999999999944 ) ) ;
#258 = ORIENTED_EDGE ( 'NONE', *, *, #565, .F. ) ;
#259 = DIRECTION ( 'NONE',  ( 0.0000000000000000000, -3.028287598446554976E-16, -1.000000000000000000 ) ) ;
#260 = EDGE_CURVE ( 'NONE', #398, #87, #37, .T. ) ;
#261 = PLANE ( 'NONE',  #509 ) ;
#262 = DIRECTION ( 'NONE',  ( 1.000000000000000000, 0.0000000000000000000, 0.0000000000000000000 ) ) ;
#263 = ORIENTED_EDGE ( 'NONE', *, *, #216, .F. ) ;
#264 = CARTESIAN_POINT ( 'NONE',  ( -1.375000000000000000, -0.2500000079785744123, -0.1443375719038383909 ) ) ;
#265 = VECTOR ( 'NONE', #392, 39.37007874015748143 ) ;
#266 = DIRECTION ( 'NONE',  ( 1.000000000000000000, 0.0000000000000000000, 0.0000000000000000000 ) ) ;
#267 =( GEOMETRIC_REPRESENTATION_CONTEXT ( 3 ) GLOBAL_UNCERTAINTY_ASSIGNED_CONTEXT ( ( #435 ) ) GLOBAL_UNIT_ASSIGNED_CONTEXT ( ( #53, #55, #458 ) ) REPRESENTATION_CONTEXT ( 'NONE', 'WORKASPACE' ) );
#268 = VERTEX_POINT ( 'NONE', #257 ) ;
#269 = CARTESIAN_POINT ( 'NONE',  ( -1.524999999999999911, 0.2500000079785744123, -0.1443375719038385852 ) ) ;
#270 = VERTEX_POINT ( 'NONE', #548 ) ;
#271 = ORIENTED_EDGE ( 'NONE', *, *, #189, .F. ) ;
#272 = VECTOR ( 'NONE', #404, 39.37007874015748854 ) ;
#273 = CARTESIAN_POINT ( 'NONE',  ( 1.375000000000000000, -1.311287036958846443E-16, -0.2886751438076771703 ) ) ;
#274 = FACE_OUTER_BOUND ( 'NONE', #518, .T. ) ;
#275 = DIRECTION ( 'NONE',  ( 0.0000000000000000000, 0.8660254037844385966, 0.4999999999999998335 ) ) ;
#276 = DIRECTION ( 'NONE',  ( 0.0000000000000000000, 0.8660254037844385966, 0.4999999999999998335 ) ) ;
#277 = CARTESIAN_POINT ( 'NONE',  ( 1.524999999999999911, -0.2500000079785744123, -0.1443375719038383909 ) ) ;
#278 = ORIENTED_EDGE ( 'NONE', *, *, #137, .F. ) ;
#279 = EDGE_CURVE ( 'NONE', #34, #426, #244, .T. ) ;
#280 = EDGE_LOOP ( 'NONE', ( #481, #421, #542, #484 ) ) ;
#281 = LINE ( 'NONE', #354, #204 ) ;
#282 = DIRECTION ( 'NONE',  ( 0.0000000000000000000, 6.056575196893109953E-16, 1.000000000000000000 ) ) ;
#283 = CARTESIAN_POINT ( 'NONE',  ( -1.375000000000000000, 0.2500000079785744123, -0.1443375719038385852 ) ) ;
#284 = DIRECTION ( 'NONE',  ( 0.0000000000000000000, 0.0000000000000000000, -1.000000000000000000 ) ) ;
#285 = DIRECTION ( 'NONE',  ( 0.0000000000000000000, -0.8660254037844388186, -0.4999999999999998890 ) ) ;
#286 = ORIENTED_EDGE ( 'NONE', *, *, #508, .F. ) ;
#287 = CARTESIAN_POINT ( 'NONE',  ( 0.0000000000000000000, 0.0000000000000000000, 0.0000000000000000000 ) ) ;
#288 = CARTESIAN_POINT ( 'NONE',  ( -1.375000000000000000, 0.2500000079785744123, -0.1443375719038385852 ) ) ;
#289 = VECTOR ( 'NONE', #198, 39.37007874015748143 ) ;
#290 = ORIENTED_EDGE ( 'NONE', *, *, #235, .T. ) ;
#291 = CARTESIAN_POINT ( 'NONE',  ( -1.524999999999999911, -0.2500000079785744123, 0.1443375719038385852 ) ) ;
#292 = VERTEX_POINT ( 'NONE', #551 ) ;
#293 = CARTESIAN_POINT ( 'NONE',  ( -1.375000000000000000, -0.2500000079785744123, -0.1443375719038383909 ) ) ;
#294 = LINE ( 'NONE', #538, #174 ) ;
#295 = AXIS2_PLACEMENT_3D ( 'NONE', #457, #409, #200 ) ;
#296 = DIRECTION ( 'NONE',  ( -1.000000000000000000, 0.0000000000000000000, 0.0000000000000000000 ) ) ;
#297 = ORIENTED_EDGE ( 'NONE', *, *, #237, .F. ) ;
#298 = VECTOR ( 'NONE', #105, 39.37007874015748143 ) ;
#299 = CARTESIAN_POINT ( 'NONE',  ( -1.375000000000000000, 0.0000000000000000000, -0.1499999999999999944 ) ) ;
#300 = PLANE ( 'NONE',  #315 ) ;
#301 = ORIENTED_EDGE ( 'NONE', *, *, #142, .T. ) ;
#302 = LINE ( 'NONE', #251, #357 ) ;
#303 = CARTESIAN_POINT ( 'NONE',  ( -1.375000000000000000, 6.556435184794232217E-17, 0.2886751438076771703 ) ) ;
#304 = AXIS2_PLACEMENT_3D ( 'NONE', #406, #49, #410 ) ;
#305 = VERTEX_POINT ( 'NONE', #303 ) ;
#306 = CARTESIAN_POINT ( 'NONE',  ( 1.375000000000000000, 0.0000000000000000000, 0.0000000000000000000 ) ) ;
#307 = ORIENTED_EDGE ( 'NONE', *, *, #401, .T. ) ;
#308 = DIRECTION ( 'NONE',  ( 0.0000000000000000000, 0.0000000000000000000, -1.000000000000000000 ) ) ;
#309 = VERTEX_POINT ( 'NONE', #343 ) ;
#310 = VECTOR ( 'NONE', #275, 39.37007874015748854 ) ;
#311 = CARTESIAN_POINT ( 'NONE',  ( 1.375000000000000000, 6.556435184794232217E-17, 0.2886751438076771703 ) ) ;
#312 = SURFACE_STYLE_FILL_AREA ( #379 ) ;
#313 = EDGE_CURVE ( 'NONE', #292, #426, #141, .T. ) ;
#314 = LINE ( 'NONE', #283, #161 ) ;
#315 = AXIS2_PLACEMENT_3D ( 'NONE', #69, #364, #93 ) ;
#316 = ORIENTED_EDGE ( 'NONE', *, *, #366, .F. ) ;
#317 = DIRECTION ( 'NONE',  ( 0.0000000000000000000, -0.8660254037844385966, 0.4999999999999998335 ) ) ;
#318 = EDGE_LOOP ( 'NONE', ( #171, #173, #121, #323 ) ) ;
#319 = ORIENTED_EDGE ( 'NONE', *, *, #491, .F. ) ;
#320 = FACE_OUTER_BOUND ( 'NONE', #367, .T. ) ;
#321 = ADVANCED_FACE ( 'NONE', ( #274 ), #261, .T. ) ;
#322 = LINE ( 'NONE', #291, #289 ) ;
#323 = ORIENTED_EDGE ( 'NONE', *, *, #162, .F. ) ;
#324 = EDGE_LOOP ( 'NONE', ( #165, #554, #527, #433 ) ) ;
#325 = AXIS2_PLACEMENT_3D ( 'NONE', #287, #193, #247 ) ;
#326 = ADVANCED_FACE ( 'NONE', ( #83 ), #488, .T. ) ;
#327 = ORIENTED_EDGE ( 'NONE', *, *, #397, .T. ) ;
#328 = LINE ( 'NONE', #78, #498 ) ;
#329 = VECTOR ( 'NONE', #252, 39.37007874015748143 ) ;
#330 = PLANE ( 'NONE',  #304 ) ;
#331 = ORIENTED_EDGE ( 'NONE', *, *, #476, .T. ) ;
#332 = APPLICATION_PROTOCOL_DEFINITION ( 'draft international standard', 'automotive_design', 1998, #192 ) ;
#333 = CARTESIAN_POINT ( 'NONE',  ( -1.375000000000000000, -0.2500000079785744123, -0.1443375719038383909 ) ) ;
#334 = ADVANCED_FACE ( 'NONE', ( #320 ), #559, .F. ) ;
#335 = DIRECTION ( 'NONE',  ( 0.0000000000000000000, 6.056575196893109953E-16, 1.000000000000000000 ) ) ;
#336 = PRODUCT_DEFINITION ( 'UNKNOWN', '', #107, #243 ) ;
#337 = DIRECTION ( 'NONE',  ( 0.0000000000000000000, -0.8660254037844385966, 0.4999999999999998335 ) ) ;
#338 = DIRECTION ( 'NONE',  ( -1.000000000000000000, 0.0000000000000000000, 0.0000000000000000000 ) ) ;
#339 = EDGE_LOOP ( 'NONE', ( #59, #301, #258, #263 ) ) ;
#340 = LINE ( 'NONE', #552, #222 ) ;
#341 = CARTESIAN_POINT ( 'NONE',  ( 1.375000000000000000, 0.0000000000000000000, 0.0000000000000000000 ) ) ;
#342 = FILL_AREA_STYLE_COLOUR ( '', #419 ) ;
#343 = CARTESIAN_POINT ( 'NONE',  ( -1.375000000000000000, 0.2500000079785744123, 0.1443375719038385852 ) ) ;
#344 = ORIENTED_EDGE ( 'NONE', *, *, #184, .T. ) ;
#345 = CARTESIAN_POINT ( 'NONE',  ( -1.375000000000000000, 0.2500000079785744123, 0.1443375719038385852 ) ) ;
#346 = DIRECTION ( 'NONE',  ( 0.0000000000000000000, -0.4999999999999998890, -0.8660254037844388186 ) ) ;
#347 = CARTESIAN_POINT ( 'NONE',  ( 0.0000000000000000000, 0.0000000000000000000, -0.1499999999999999944 ) ) ;
#348 = DIRECTION ( 'NONE',  ( 0.0000000000000000000, -0.4999999999999998890, 0.8660254037844388186 ) ) ;
#349 = ORIENTED_EDGE ( 'NONE', *, *, #382, .F. ) ;
#350 = LINE ( 'NONE', #434, #528 ) ;
#351 = CARTESIAN_POINT ( 'NONE',  ( -1.375000000000000000, 0.0000000000000000000, 0.0000000000000000000 ) ) ;
#352 = EDGE_CURVE ( 'NONE', #468, #7, #42, .T. ) ;
#353 = FACE_BOUND ( 'NONE', #388, .T. ) ;
#354 = CARTESIAN_POINT ( 'NONE',  ( -1.524999999999999911, -0.2500000079785744123, -0.1443375719038383909 ) ) ;
#355 = ORIENTED_EDGE ( 'NONE', *, *, #125, .T. ) ;
#356 = EDGE_LOOP ( 'NONE', ( #487, #160, #30, #374 ) ) ;
#357 = VECTOR ( 'NONE', #539, 39.37007874015748854 ) ;
#358 = DIRECTION ( 'NONE',  ( 1.000000000000000000, 0.0000000000000000000, 0.0000000000000000000 ) ) ;
#359 =( GEOMETRIC_REPRESENTATION_CONTEXT ( 3 ) GLOBAL_UNCERTAINTY_ASSIGNED_CONTEXT ( ( #195 ) ) GLOBAL_UNIT_ASSIGNED_CONTEXT ( ( #533, #145, #140 ) ) REPRESENTATION_CONTEXT ( 'NONE', 'WORKASPACE' ) );
#360 = VERTEX_POINT ( 'NONE', #514 ) ;
#361 = VECTOR ( 'NONE', #532, 39.37007874015748143 ) ;
#362 = ADVANCED_FACE ( 'NONE', ( #36 ), #218, .T. ) ;
#363 = CARTESIAN_POINT ( 'NONE',  ( -1.524999999999999911, 0.2500000079785744123, -0.1443375719038385852 ) ) ;
#364 = DIRECTION ( 'NONE',  ( 1.000000000000000000, 0.0000000000000000000, 0.0000000000000000000 ) ) ;
#365 = CARTESIAN_POINT ( 'NONE',  ( -1.375000000000000000, 0.2500000079785744123, 0.1443375719038385852 ) ) ;
#366 = EDGE_CURVE ( 'NONE', #455, #465, #281, .T. ) ;
#367 = EDGE_LOOP ( 'NONE', ( #519, #176, #430, #429 ) ) ;
#368 = CARTESIAN_POINT ( 'NONE',  ( 1.375000000000000000, -1.836970198721029749E-17, 0.1499999999999999944 ) ) ;
#369 = CARTESIAN_POINT ( 'NONE',  ( -1.375000000000000000, -1.311287036958846443E-16, -0.2886751438076771703 ) ) ;
#370 = FACE_OUTER_BOUND ( 'NONE', #417, .T. ) ;
#371 = VERTEX_POINT ( 'NONE', #269 ) ;
#372 = ADVANCED_FACE ( 'NONE', ( #122 ), #175, .F. ) ;
#373 = DIRECTION ( 'NONE',  ( -1.000000000000000000, 0.0000000000000000000, 0.0000000000000000000 ) ) ;
#374 = ORIENTED_EDGE ( 'NONE', *, *, #393, .F. ) ;
#375 = DIRECTION ( 'NONE',  ( -1.000000000000000000, 0.0000000000000000000, 0.0000000000000000000 ) ) ;
#376 = ORIENTED_EDGE ( 'NONE', *, *, #237, .T. ) ;
#377 = EDGE_CURVE ( 'NONE', #360, #61, #328, .T. ) ;
#378 = AXIS2_PLACEMENT_3D ( 'NONE', #130, #179, #395 ) ;
#379 = FILL_AREA_STYLE ('',( #342 ) ) ;
#380 = ORIENTED_EDGE ( 'NONE', *, *, #377, .T. ) ;
#381 = FACE_OUTER_BOUND ( 'NONE', #280, .T. ) ;
#382 = EDGE_CURVE ( 'NONE', #3, #451, #15, .T. ) ;
#383 = LINE ( 'NONE', #120, #118 ) ;
#384 = DIRECTION ( 'NONE',  ( 0.0000000000000000000, -0.8660254037844385966, -0.4999999999999998335 ) ) ;
#385 = DIRECTION ( 'NONE',  ( 0.0000000000000000000, -0.8660254037844385966, 0.4999999999999998335 ) ) ;
#386 = LINE ( 'NONE', #6, #272 ) ;
#387 = AXIS2_PLACEMENT_3D ( 'NONE', #561, #348, #427 ) ;
#388 = EDGE_LOOP ( 'NONE', ( #46, #344 ) ) ;
#389 = CARTESIAN_POINT ( 'NONE',  ( 1.524999999999999911, 0.2500000079785744123, -0.1443375719038385852 ) ) ;
#390 = CARTESIAN_POINT ( 'NONE',  ( -1.524999999999999911, 0.2500000079785744123, 0.1443375719038385852 ) ) ;
#391 = ORIENTED_EDGE ( 'NONE', *, *, #235, .F. ) ;
#392 = DIRECTION ( 'NONE',  ( 1.000000000000000000, 0.0000000000000000000, 0.0000000000000000000 ) ) ;
#393 = EDGE_CURVE ( 'NONE', #100, #34, #431, .T. ) ;
#394 = EDGE_LOOP ( 'NONE', ( #73, #461, #249, #239 ) ) ;
#395 = DIRECTION ( 'NONE',  ( 0.0000000000000000000, -0.8660254037844388186, 0.4999999999999998890 ) ) ;
#396 = PLANE ( 'NONE',  #378 ) ;
#397 = EDGE_CURVE ( 'NONE', #549, #268, #350, .T. ) ;
#398 = VERTEX_POINT ( 'NONE', #264 ) ;
#399 = LINE ( 'NONE', #113, #76 ) ;
#400 = ORIENTED_EDGE ( 'NONE', *, *, #558, .T. ) ;
#401 = EDGE_CURVE ( 'NONE', #187, #549, #418, .T. ) ;
#402 = ORIENTED_EDGE ( 'NONE', *, *, #224, .F. ) ;
#403 = VECTOR ( 'NONE', #81, 39.37007874015748854 ) ;
#404 = DIRECTION ( 'NONE',  ( 0.0000000000000000000, -0.8660254037844385966, -0.4999999999999998335 ) ) ;
#405 = CARTESIAN_POINT ( 'NONE',  ( 1.524999999999999911, 8.741913579725649941E-17, 0.2886751438076771703 ) ) ;
#406 = CARTESIAN_POINT ( 'NONE',  ( -1.375000000000000000, 0.2500000079785744123, -0.1443375719038385852 ) ) ;
#407 = ORIENTED_EDGE ( 'NONE', *, *, #184, .F. ) ;
#408 = AXIS2_PLACEMENT_3D ( 'NONE', #495, #248, #151 ) ;
#409 = DIRECTION ( 'NONE',  ( 1.000000000000000000, 0.0000000000000000000, 0.0000000000000000000 ) ) ;
#410 = DIRECTION ( 'NONE',  ( 0.0000000000000000000, 6.056575196893109953E-16, 1.000000000000000000 ) ) ;
#411 = VECTOR ( 'NONE', #19, 39.37007874015748143 ) ;
#412 = SURFACE_STYLE_USAGE ( .BOTH. , #9 ) ;
#413 = DIRECTION ( 'NONE',  ( 0.0000000000000000000, 0.0000000000000000000, -1.000000000000000000 ) ) ;
#414 = CARTESIAN_POINT ( 'NONE',  ( -1.375000000000000000, -1.311287036958846443E-16, -0.2886751438076771703 ) ) ;
#415 = EDGE_LOOP ( 'NONE', ( #156, #437, #316, #41, #80, #349 ) ) ;
#416 = EDGE_CURVE ( 'NONE', #241, #268, #128, .T. ) ;
#417 = EDGE_LOOP ( 'NONE', ( #229, #134, #297, #232 ) ) ;
#418 = CIRCLE ( 'NONE', #544, 0.1499999999999999944 ) ;
#419 = COLOUR_RGB ( '',0.7490196078431372584, 0.7490196078431372584, 0.7490196078431372584 ) ;
#420 = SURFACE_STYLE_USAGE ( .BOTH. , #68 ) ;
#421 = ORIENTED_EDGE ( 'NONE', *, *, #32, .T. ) ;
#422 = DIRECTION ( 'NONE',  ( 0.0000000000000000000, -0.8660254037844388186, 0.4999999999999998890 ) ) ;
#423 = PLANE ( 'NONE',  #477 ) ;
#424 = ORIENTED_EDGE ( 'NONE', *, *, #154, .F. ) ;
#425 = DIRECTION ( 'NONE',  ( 0.0000000000000000000, -3.028287598446554976E-16, -1.000000000000000000 ) ) ;
#426 = VERTEX_POINT ( 'NONE', #389 ) ;
#427 = DIRECTION ( 'NONE',  ( 0.0000000000000000000, 0.8660254037844388186, 0.4999999999999998890 ) ) ;
#428 = DIRECTION ( 'NONE',  ( 0.0000000000000000000, 6.056575196893109953E-16, 1.000000000000000000 ) ) ;
#429 = ORIENTED_EDGE ( 'NONE', *, *, #32, .F. ) ;
#430 = ORIENTED_EDGE ( 'NONE', *, *, #444, .T. ) ;
#431 = LINE ( 'NONE', #475, #463 ) ;
#432 = LINE ( 'NONE', #54, #329 ) ;
#433 = ORIENTED_EDGE ( 'NONE', *, *, #91, .F. ) ;
#434 = CARTESIAN_POINT ( 'NONE',  ( 0.0000000000000000000, -1.836970198721029749E-17, 0.1499999999999999944 ) ) ;
#435 = UNCERTAINTY_MEASURE_WITH_UNIT (LENGTH_MEASURE( 1.000000000000000082E-05 ), #53, 'distance_accuracy_value', 'NONE');
#436 = DIRECTION ( 'NONE',  ( 0.0000000000000000000, 0.0000000000000000000, -1.000000000000000000 ) ) ;
#437 = ORIENTED_EDGE ( 'NONE', *, *, #444, .F. ) ;
#438 = CARTESIAN_POINT ( 'NONE',  ( -1.524999999999999911, -0.2500000079785744123, -0.1443375719038383909 ) ) ;
#439 = VECTOR ( 'NONE', #246, 39.37007874015748854 ) ;
#440 = AXIS2_PLACEMENT_3D ( 'NONE', #123, #35, #308 ) ;
#441 = ADVANCED_FACE ( 'NONE', ( #139 ), #523, .T. ) ;
#442 = ORIENTED_EDGE ( 'NONE', *, *, #91, .T. ) ;
#443 = LINE ( 'NONE', #347, #513 ) ;
#444 = EDGE_CURVE ( 'NONE', #465, #371, #233, .T. ) ;
#445 = ADVANCED_FACE ( 'NONE', ( #47, #353 ), #217, .T. ) ;
#446 = LINE ( 'NONE', #492, #298 ) ;
#447 = ORIENTED_EDGE ( 'NONE', *, *, #77, .T. ) ;
#448 = ADVANCED_FACE ( 'NONE', ( #88 ), #396, .T. ) ;
#449 = DIRECTION ( 'NONE',  ( 0.0000000000000000000, -0.4999999999999998890, 0.8660254037844388186 ) ) ;
#450 = VERTEX_POINT ( 'NONE', #479 ) ;
#451 = VERTEX_POINT ( 'NONE', #228 ) ;
#452 = CARTESIAN_POINT ( 'NONE',  ( -1.375000000000000000, -1.311287036958846443E-16, -0.2886751438076771703 ) ) ;
#453 = LINE ( 'NONE', #108, #110 ) ;
#454 =( LENGTH_UNIT ( ) NAMED_UNIT ( * ) SI_UNIT ( $, .METRE. ) );
#455 = VERTEX_POINT ( 'NONE', #438 ) ;
#456 = EDGE_CURVE ( 'NONE', #100, #292, #116, .T. ) ;
#457 = CARTESIAN_POINT ( 'NONE',  ( 1.375000000000000000, 0.0000000000000000000, 4.370956789862818808E-17 ) ) ;
#458 =( NAMED_UNIT ( * ) SI_UNIT ( $, .STERADIAN. ) SOLID_ANGLE_UNIT ( ) );
#459 = CARTESIAN_POINT ( 'NONE',  ( 1.375000000000000000, 0.0000000000000000000, -0.1499999999999999944 ) ) ;
#460 = DIRECTION ( 'NONE',  ( 0.0000000000000000000, 6.056575196893109953E-16, 1.000000000000000000 ) ) ;
#461 = ORIENTED_EDGE ( 'NONE', *, *, #352, .T. ) ;
#462 = COLOUR_RGB ( '',0.7921568627450980005, 0.8196078431372548767, 0.9333333333333333481 ) ;
#463 = VECTOR ( 'NONE', #555, 39.37007874015748143 ) ;
#464 = PLANE ( 'NONE',  #256 ) ;
#465 = VERTEX_POINT ( 'NONE', #525 ) ;
#466 = EDGE_CURVE ( 'NONE', #305, #270, #109, .T. ) ;
#467 = VECTOR ( 'NONE', #385, 39.37007874015748854 ) ;
#468 = VERTEX_POINT ( 'NONE', #40 ) ;
#469 = DIRECTION ( 'NONE',  ( 0.0000000000000000000, 0.8660254037844385966, 0.4999999999999998335 ) ) ;
#470 = EDGE_LOOP ( 'NONE', ( #307, #97 ) ) ;
#471 = DIRECTION ( 'NONE',  ( 0.0000000000000000000, 0.0000000000000000000, -1.000000000000000000 ) ) ;
#472 = DIRECTION ( 'NONE',  ( 0.0000000000000000000, 0.0000000000000000000, -1.000000000000000000 ) ) ;
#473 = UNCERTAINTY_MEASURE_WITH_UNIT (LENGTH_MEASURE( 1.000000000000000082E-05 ), #153, 'distance_accuracy_value', 'NONE');
#474 = ORIENTED_EDGE ( 'NONE', *, *, #401, .F. ) ;
#475 = CARTESIAN_POINT ( 'NONE',  ( 1.375000000000000000, -1.311287036958846443E-16, -0.2886751438076771703 ) ) ;
#476 = EDGE_CURVE ( 'NONE', #61, #7, #506, .T. ) ;
#477 = AXIS2_PLACEMENT_3D ( 'NONE', #159, #114, #259 ) ;
#478 = FACE_OUTER_BOUND ( 'NONE', #324, .T. ) ;
#479 = CARTESIAN_POINT ( 'NONE',  ( 1.524999999999999911, -0.2500000079785744123, 0.1443375719038385852 ) ) ;
#480 = CARTESIAN_POINT ( 'NONE',  ( -1.375000000000000000, 0.0000000000000000000, 4.370956789862818808E-17 ) ) ;
#481 = ORIENTED_EDGE ( 'NONE', *, *, #510, .F. ) ;
#482 = LINE ( 'NONE', #236, #361 ) ;
#483 = DIMENSIONAL_EXPONENTS ( 1.000000000000000000, 0.0000000000000000000, 0.0000000000000000000, 0.0000000000000000000, 0.0000000000000000000, 0.0000000000000000000, 0.0000000000000000000 ) ;
#484 = ORIENTED_EDGE ( 'NONE', *, *, #10, .F. ) ;
#485 = PRODUCT ( 'Axle', 'Axle', '', ( #194 ) ) ;
#486 = ADVANCED_FACE ( 'NONE', ( #188 ), #300, .F. ) ;
#487 = ORIENTED_EDGE ( 'NONE', *, *, #456, .T. ) ;
#488 = CYLINDRICAL_SURFACE ( 'NONE', #72, 0.1499999999999999944 ) ;
#489 = LINE ( 'NONE', #17, #557 ) ;
#490 = APPLICATION_PROTOCOL_DEFINITION ( 'draft international standard', 'automotive_design', 1998, #136 ) ;
#491 = EDGE_CURVE ( 'NONE', #468, #155, #62, .T. ) ;
#492 = CARTESIAN_POINT ( 'NONE',  ( -1.375000000000000000, -0.2500000079785744123, 0.1443375719038385852 ) ) ;
#493 = ORIENTED_EDGE ( 'NONE', *, *, #67, .T. ) ;
#494 = PLANE ( 'NONE',  #132 ) ;
#495 = CARTESIAN_POINT ( 'NONE',  ( -1.375000000000000000, -0.2500000079785744123, 0.1443375719038385852 ) ) ;
#496 = ADVANCED_FACE ( 'NONE', ( #370 ), #95, .T. ) ;
#497 = CARTESIAN_POINT ( 'NONE',  ( 1.375000000000000000, 0.2500000079785744123, -0.1443375719038385852 ) ) ;
#498 = VECTOR ( 'NONE', #266, 39.37007874015748143 ) ;
#499 = AXIS2_PLACEMENT_3D ( 'NONE', #480, #358, #436 ) ;
#500 = CARTESIAN_POINT ( 'NONE',  ( 1.524999999999999911, 0.2500000079785744123, 0.1443375719038385852 ) ) ;
#501 = ORIENTED_EDGE ( 'NONE', *, *, #466, .F. ) ;
#502 = EDGE_CURVE ( 'NONE', #371, #3, #242, .T. ) ;
#503 = CARTESIAN_POINT ( 'NONE',  ( 1.375000000000000000, 0.2500000079785744123, -0.1443375719038385852 ) ) ;
#504 = EDGE_LOOP ( 'NONE', ( #20, #474, #115, #407 ) ) ;
#505 = CLOSED_SHELL ( 'NONE', ( #326, #445, #334, #185, #86, #372, #231, #536, #486, #90, #441, #191, #238, #496, #448, #321, #362, #150 ) ) ;
#506 = LINE ( 'NONE', #225, #467 ) ;
#507 = LINE ( 'NONE', #540, #411 ) ;
#508 = EDGE_CURVE ( 'NONE', #360, #468, #220, .T. ) ;
#509 = AXIS2_PLACEMENT_3D ( 'NONE', #503, #170, #428 ) ;
#510 = EDGE_CURVE ( 'NONE', #126, #309, #294, .T. ) ;
#511 = PLANE ( 'NONE',  #84 ) ;
#512 = VECTOR ( 'NONE', #460, 39.37007874015748143 ) ;
#513 = VECTOR ( 'NONE', #296, 39.37007874015748143 ) ;
#514 = CARTESIAN_POINT ( 'NONE',  ( 1.375000000000000000, 0.2500000079785744123, 0.1443375719038385852 ) ) ;
#515 = ORIENTED_EDGE ( 'NONE', *, *, #416, .F. ) ;
#516 = DIRECTION ( 'NONE',  ( 0.0000000000000000000, 0.0000000000000000000, -1.000000000000000000 ) ) ;
#517 = DIRECTION ( 'NONE',  ( 1.000000000000000000, 0.0000000000000000000, 0.0000000000000000000 ) ) ;
#518 = EDGE_LOOP ( 'NONE', ( #447, #380, #391, #167 ) ) ;
#519 = ORIENTED_EDGE ( 'NONE', *, *, #26, .F. ) ;
#520 = VECTOR ( 'NONE', #337, 39.37007874015748854 ) ;
#521 = VECTOR ( 'NONE', #11, 39.37007874015748143 ) ;
#522 = EDGE_LOOP ( 'NONE', ( #501, #442, #400, #186 ) ) ;
#523 = PLANE ( 'NONE',  #117 ) ;
#524 = LINE ( 'NONE', #369, #51 ) ;
#525 = CARTESIAN_POINT ( 'NONE',  ( -1.524999999999999911, -1.311287036958846443E-16, -0.2886751438076771703 ) ) ;
#526 = FACE_OUTER_BOUND ( 'NONE', #227, .T. ) ;
#527 = ORIENTED_EDGE ( 'NONE', *, *, #382, .T. ) ;
#528 = VECTOR ( 'NONE', #226, 39.37007874015748143 ) ;
#529 = AXIS2_PLACEMENT_3D ( 'NONE', #341, #144, #13 ) ;
#530 = CIRCLE ( 'NONE', #98, 0.1499999999999999944 ) ;
#531 = SHAPE_DEFINITION_REPRESENTATION ( #43, #152 ) ;
#532 = DIRECTION ( 'NONE',  ( 0.0000000000000000000, -3.028287598446554976E-16, -1.000000000000000000 ) ) ;
#533 =( CONVERSION_BASED_UNIT ( 'INCH', #206 ) LENGTH_UNIT ( ) NAMED_UNIT ( #45 ) );
#534 = LINE ( 'NONE', #497, #512 ) ;
#535 = VECTOR ( 'NONE', #262, 39.37007874015748143 ) ;
#536 = ADVANCED_FACE ( 'NONE', ( #381 ), #330, .F. ) ;
#537 = CARTESIAN_POINT ( 'NONE',  ( 1.375000000000000000, -0.2500000079785744123, -0.1443375719038383909 ) ) ;
#538 = CARTESIAN_POINT ( 'NONE',  ( -1.375000000000000000, 0.2500000079785744123, -0.1443375719038385852 ) ) ;
#539 = DIRECTION ( 'NONE',  ( 0.0000000000000000000, 0.8660254037844385966, -0.4999999999999998335 ) ) ;
#540 = CARTESIAN_POINT ( 'NONE',  ( 1.375000000000000000, -0.2500000079785744123, -0.1443375719038383909 ) ) ;
#541 = ORIENTED_EDGE ( 'NONE', *, *, #77, .F. ) ;
#542 = ORIENTED_EDGE ( 'NONE', *, *, #502, .T. ) ;
#543 = CYLINDRICAL_SURFACE ( 'NONE', #39, 0.1499999999999999944 ) ;
#544 = AXIS2_PLACEMENT_3D ( 'NONE', #306, #517, #471 ) ;
#545 = DIRECTION ( 'NONE',  ( 0.0000000000000000000, -0.4999999999999998890, -0.8660254037844388186 ) ) ;
#546 = EDGE_LOOP ( 'NONE', ( #253, #327, #515, #402 ) ) ;
#547 = DIRECTION ( 'NONE',  ( 0.0000000000000000000, 0.8660254037844388186, -0.4999999999999998890 ) ) ;
#548 = CARTESIAN_POINT ( 'NONE',  ( -1.375000000000000000, -0.2500000079785744123, 0.1443375719038385852 ) ) ;
#549 = VERTEX_POINT ( 'NONE', #368 ) ;
#550 = LINE ( 'NONE', #146, #439 ) ;
#551 = CARTESIAN_POINT ( 'NONE',  ( 1.375000000000000000, 0.2500000079785744123, -0.1443375719038385852 ) ) ;
#552 = CARTESIAN_POINT ( 'NONE',  ( 1.524999999999999911, 6.556435184794232217E-17, 0.2886751438076771703 ) ) ;
#553 = CARTESIAN_POINT ( 'NONE',  ( 1.375000000000000000, 6.556435184794232217E-17, 0.2886751438076771703 ) ) ;
#554 = ORIENTED_EDGE ( 'NONE', *, *, #10, .T. ) ;
#555 = DIRECTION ( 'NONE',  ( 1.000000000000000000, 0.0000000000000000000, 0.0000000000000000000 ) ) ;
#556 = PRESENTATION_STYLE_ASSIGNMENT (( #412 ) ) ;
#557 = VECTOR ( 'NONE', #373, 39.37007874015748143 ) ;
#558 = EDGE_CURVE ( 'NONE', #451, #28, #386, .T. ) ;
#559 = PLANE ( 'NONE',  #387 ) ;
#560 = ORIENTED_EDGE ( 'NONE', *, *, #393, .T. ) ;
#561 = CARTESIAN_POINT ( 'NONE',  ( -1.375000000000000000, -1.311287036958846443E-16, -0.2886751438076771703 ) ) ;
#562 = DIRECTION ( 'NONE',  ( 0.0000000000000000000, 0.8660254037844388186, 0.4999999999999998890 ) ) ;
#563 = EDGE_LOOP ( 'NONE', ( #112, #560, #82, #14 ) ) ;
#564 = VECTOR ( 'NONE', #21, 39.37007874015748854 ) ;
#565 = EDGE_CURVE ( 'NONE', #450, #18, #482, .T. ) ;
ENDSEC;
END-ISO-10303-21;
