ISO-10303-21;
HEADER;
FILE_DESCRIPTION (( 'STEP AP214' ),
    '1' );
FILE_NAME ('Floor Support.step',
    '2018-09-03T05:30:50',
    ( '' ),
    ( '' ),
    'SwSTEP 2.0',
    'SolidWorks 2018',
    '' );
FILE_SCHEMA (( 'AUTOMOTIVE_DESIGN' ));
ENDSEC;

DATA;
#1 = CIRCLE ( 'NONE', #805, 0.1250000000000000833 ) ;
#2 = CARTESIAN_POINT ( 'NONE',  ( 0.0000000000000000000, 0.0000000000000000000, 0.8750000000000001110 ) ) ;
#3 = DIRECTION ( 'NONE',  ( 1.000000000000000000, 0.0000000000000000000, 0.0000000000000000000 ) ) ;
#4 = AXIS2_PLACEMENT_3D ( 'NONE', #505, #501, #85 ) ;
#5 = CARTESIAN_POINT ( 'NONE',  ( 0.0000000000000000000, 0.5000000000000000000, 0.5000000000000000000 ) ) ;
#6 = ADVANCED_FACE ( 'NONE', ( #77 ), #801, .F. ) ;
#7 = DIRECTION ( 'NONE',  ( 0.0000000000000000000, 0.7071067811865474617, 0.7071067811865474617 ) ) ;
#8 = CIRCLE ( 'NONE', #814, 0.1250000000000001110 ) ;
#9 = VERTEX_POINT ( 'NONE', #749 ) ;
#10 = EDGE_LOOP ( 'NONE', ( #80, #759, #745, #131 ) ) ;
#11 = DIRECTION ( 'NONE',  ( 0.0000000000000000000, 0.7071067811865476838, -0.7071067811865475727 ) ) ;
#12 = ORIENTED_EDGE ( 'NONE', *, *, #591, .F. ) ;
#13 = EDGE_CURVE ( 'NONE', #347, #451, #818, .T. ) ;
#14 = DIRECTION ( 'NONE',  ( -1.000000000000000000, 0.0000000000000000000, 0.0000000000000000000 ) ) ;
#15 = CARTESIAN_POINT ( 'NONE',  ( 0.0000000000000000000, 0.8750000000000001110, 0.1250000000000000000 ) ) ;
#16 =( GEOMETRIC_REPRESENTATION_CONTEXT ( 3 ) GLOBAL_UNCERTAINTY_ASSIGNED_CONTEXT ( ( #112 ) ) GLOBAL_UNIT_ASSIGNED_CONTEXT ( ( #36, #95, #588 ) ) REPRESENTATION_CONTEXT ( 'NONE', 'WORKASPACE' ) );
#17 = ADVANCED_FACE ( 'NONE', ( #642 ), #180, .F. ) ;
#18 = LINE ( 'NONE', #558, #513 ) ;
#19 = DIRECTION ( 'NONE',  ( 0.0000000000000000000, 0.7071067811865476838, -0.7071067811865475727 ) ) ;
#20 = ORIENTED_EDGE ( 'NONE', *, *, #880, .T. ) ;
#21 = STYLED_ITEM ( 'NONE', ( #641 ), #385 ) ;
#22 = ADVANCED_FACE ( 'NONE', ( #905 ), #601, .F. ) ;
#23 = ORIENTED_EDGE ( 'NONE', *, *, #786, .F. ) ;
#24 = CARTESIAN_POINT ( 'NONE',  ( 11.00000000000000000, 0.0000000000000000000, 0.1250000000000000000 ) ) ;
#25 = EDGE_LOOP ( 'NONE', ( #628, #560, #856, #290 ) ) ;
#26 = SURFACE_SIDE_STYLE ('',( #322 ) ) ;
#27 = EDGE_CURVE ( 'NONE', #648, #536, #729, .T. ) ;
#28 = DIRECTION ( 'NONE',  ( 0.0000000000000000000, 0.7071067811865476838, -0.7071067811865475727 ) ) ;
#29 =( NAMED_UNIT ( * ) SI_UNIT ( $, .STERADIAN. ) SOLID_ANGLE_UNIT ( ) );
#30 = CARTESIAN_POINT ( 'NONE',  ( 11.00000000000000000, 0.1250000000000000000, 0.1250000000000000000 ) ) ;
#31 = CIRCLE ( 'NONE', #394, 0.1250000000000001110 ) ;
#32 = VERTEX_POINT ( 'NONE', #679 ) ;
#33 = ORIENTED_EDGE ( 'NONE', *, *, #93, .T. ) ;
#34 = VERTEX_POINT ( 'NONE', #51 ) ;
#35 = CIRCLE ( 'NONE', #184, 0.1250000000000000833 ) ;
#36 =( CONVERSION_BASED_UNIT ( 'INCH', #458 ) LENGTH_UNIT ( ) NAMED_UNIT ( #587 ) );
#37 = VECTOR ( 'NONE', #218, 39.37007874015748143 ) ;
#38 = AXIS2_PLACEMENT_3D ( 'NONE', #464, #46, #689 ) ;
#39 = LINE ( 'NONE', #471, #770 ) ;
#40 = EDGE_LOOP ( 'NONE', ( #411, #463, #595, #633 ) ) ;
#41 = PRODUCT_DEFINITION_FORMATION_WITH_SPECIFIED_SOURCE ( 'ANY', '', #498, .NOT_KNOWN. ) ;
#42 = EDGE_CURVE ( 'NONE', #9, #557, #792, .T. ) ;
#43 = CARTESIAN_POINT ( 'NONE',  ( 0.0000000000000000000, 0.2500000000000000000, 0.7500000000000001110 ) ) ;
#44 = DIRECTION ( 'NONE',  ( 1.000000000000000000, 0.0000000000000000000, 0.0000000000000000000 ) ) ;
#45 = MECHANICAL_DESIGN_GEOMETRIC_PRESENTATION_REPRESENTATION (  '', ( #313 ), #16 ) ;
#46 = DIRECTION ( 'NONE',  ( -1.000000000000000000, 0.0000000000000000000, 0.0000000000000000000 ) ) ;
#47 = CARTESIAN_POINT ( 'NONE',  ( 0.0000000000000000000, 0.8383883476483185992, 0.1616116523516815395 ) ) ;
#48 = CARTESIAN_POINT ( 'NONE',  ( 11.00000000000000000, 1.000000000000000000, 0.0000000000000000000 ) ) ;
#49 = LINE ( 'NONE', #58, #409 ) ;
#50 = ORIENTED_EDGE ( 'NONE', *, *, #725, .F. ) ;
#51 = CARTESIAN_POINT ( 'NONE',  ( 11.00000000000000000, 0.8750000000000001110, 0.2500000000000000000 ) ) ;
#52 = VERTEX_POINT ( 'NONE', #253 ) ;
#53 = DIRECTION ( 'NONE',  ( 0.0000000000000000000, -0.7071067811865474617, 0.7071067811865474617 ) ) ;
#54 = VERTEX_POINT ( 'NONE', #816 ) ;
#55 = CIRCLE ( 'NONE', #567, 0.1250000000000001110 ) ;
#56 = EDGE_LOOP ( 'NONE', ( #596, #719, #864, #457 ) ) ;
#57 = DIRECTION ( 'NONE',  ( -1.000000000000000000, 0.0000000000000000000, 0.0000000000000000000 ) ) ;
#58 = CARTESIAN_POINT ( 'NONE',  ( 11.00000000000000000, 0.1250000000000000000, 0.8750000000000001110 ) ) ;
#59 = EDGE_CURVE ( 'NONE', #676, #34, #39, .T. ) ;
#60 = VECTOR ( 'NONE', #613, 39.37007874015748143 ) ;
#61 = ADVANCED_FACE ( 'NONE', ( #614 ), #478, .T. ) ;
#62 = CARTESIAN_POINT ( 'NONE',  ( 0.0000000000000000000, 0.2500000000000000000, 0.2500000000000000000 ) ) ;
#63 = DIRECTION ( 'NONE',  ( 1.000000000000000000, 0.0000000000000000000, 0.0000000000000000000 ) ) ;
#64 = VECTOR ( 'NONE', #885, 39.37007874015748143 ) ;
#65 = ORIENTED_EDGE ( 'NONE', *, *, #214, .F. ) ;
#66 = DIRECTION ( 'NONE',  ( 0.0000000000000000000, -0.7071067811865475727, 0.7071067811865476838 ) ) ;
#67 = CARTESIAN_POINT ( 'NONE',  ( 0.0000000000000000000, 0.1250000000000000000, 0.7500000000000001110 ) ) ;
#68 = ORIENTED_EDGE ( 'NONE', *, *, #751, .T. ) ;
#69 = AXIS2_PLACEMENT_3D ( 'NONE', #408, #138, #630 ) ;
#70 = DIRECTION ( 'NONE',  ( 0.0000000000000000000, 0.7071067811865474617, -0.7071067811865474617 ) ) ;
#71 = SHAPE_DEFINITION_REPRESENTATION ( #195, #94 ) ;
#72 = AXIS2_PLACEMENT_3D ( 'NONE', #459, #111, #606 ) ;
#73 = ADVANCED_FACE ( 'NONE', ( #224 ), #328, .T. ) ;
#74 = CARTESIAN_POINT ( 'NONE',  ( 0.0000000000000000000, 0.1250000000000000000, 0.1250000000000000000 ) ) ;
#75 = CARTESIAN_POINT ( 'NONE',  ( 11.00000000000000000, 0.1250000000000000000, 0.8750000000000001110 ) ) ;
#76 = CYLINDRICAL_SURFACE ( 'NONE', #475, 0.1250000000000000833 ) ;
#77 = FACE_OUTER_BOUND ( 'NONE', #892, .T. ) ;
#78 = PLANE ( 'NONE',  #683 ) ;
#79 = DIRECTION ( 'NONE',  ( -1.000000000000000000, 0.0000000000000000000, 0.0000000000000000000 ) ) ;
#80 = ORIENTED_EDGE ( 'NONE', *, *, #386, .F. ) ;
#81 = EDGE_CURVE ( 'NONE', #466, #242, #533, .T. ) ;
#82 = EDGE_LOOP ( 'NONE', ( #456, #213, #862, #855 ) ) ;
#83 = LINE ( 'NONE', #659, #351 ) ;
#84 = CARTESIAN_POINT ( 'NONE',  ( 0.0000000000000000000, 0.8750000000000001110, 0.0000000000000000000 ) ) ;
#85 = DIRECTION ( 'NONE',  ( 0.0000000000000000000, -0.7071067811865474617, 0.7071067811865474617 ) ) ;
#86 = LINE ( 'NONE', #343, #806 ) ;
#87 = AXIS2_PLACEMENT_3D ( 'NONE', #228, #300, #522 ) ;
#88 = VECTOR ( 'NONE', #704, 39.37007874015748143 ) ;
#89 = VERTEX_POINT ( 'NONE', #528 ) ;
#90 = ORIENTED_EDGE ( 'NONE', *, *, #737, .F. ) ;
#91 = DIRECTION ( 'NONE',  ( 1.000000000000000000, 0.0000000000000000000, 0.0000000000000000000 ) ) ;
#92 = ORIENTED_EDGE ( 'NONE', *, *, #314, .T. ) ;
#93 = EDGE_CURVE ( 'NONE', #811, #874, #583, .T. ) ;
#94 = ADVANCED_BREP_SHAPE_REPRESENTATION ( 'Floor Support', ( #385, #294 ), #133 ) ;
#95 =( NAMED_UNIT ( * ) PLANE_ANGLE_UNIT ( ) SI_UNIT ( $, .RADIAN. ) );
#96 = FACE_OUTER_BOUND ( 'NONE', #468, .T. ) ;
#97 =( NAMED_UNIT ( * ) PLANE_ANGLE_UNIT ( ) SI_UNIT ( $, .RADIAN. ) );
#98 = VERTEX_POINT ( 'NONE', #746 ) ;
#99 = AXIS2_PLACEMENT_3D ( 'NONE', #243, #836, #276 ) ;
#100 = VERTEX_POINT ( 'NONE', #708 ) ;
#101 = VERTEX_POINT ( 'NONE', #416 ) ;
#102 = CIRCLE ( 'NONE', #865, 0.1250000000000001110 ) ;
#103 = CARTESIAN_POINT ( 'NONE',  ( 0.0000000000000000000, 0.1250000000000000000, 0.0000000000000000000 ) ) ;
#104 = EDGE_CURVE ( 'NONE', #441, #536, #288, .T. ) ;
#105 = FACE_OUTER_BOUND ( 'NONE', #10, .T. ) ;
#106 = LINE ( 'NONE', #847, #851 ) ;
#107 = ORIENTED_EDGE ( 'NONE', *, *, #636, .F. ) ;
#108 = EDGE_LOOP ( 'NONE', ( #634, #819, #381, #866 ) ) ;
#109 = LINE ( 'NONE', #572, #867 ) ;
#110 = AXIS2_PLACEMENT_3D ( 'NONE', #769, #340, #349 ) ;
#111 = DIRECTION ( 'NONE',  ( -1.000000000000000000, 0.0000000000000000000, 0.0000000000000000000 ) ) ;
#112 = UNCERTAINTY_MEASURE_WITH_UNIT (LENGTH_MEASURE( 1.000000000000000082E-05 ), #36, 'distance_accuracy_value', 'NONE');
#113 = VECTOR ( 'NONE', #859, 39.37007874015748143 ) ;
#114 = CARTESIAN_POINT ( 'NONE',  ( 0.0000000000000000000, 0.2500000000000000000, 0.2500000000000000000 ) ) ;
#115 = EDGE_CURVE ( 'NONE', #755, #101, #791, .T. ) ;
#116 = CARTESIAN_POINT ( 'NONE',  ( 11.00000000000000000, 0.03661165235168155341, 0.03661165235168155341 ) ) ;
#117 = VERTEX_POINT ( 'NONE', #768 ) ;
#118 = ORIENTED_EDGE ( 'NONE', *, *, #873, .F. ) ;
#119 = VERTEX_POINT ( 'NONE', #197 ) ;
#120 = FACE_BOUND ( 'NONE', #699, .T. ) ;
#121 = EDGE_CURVE ( 'NONE', #34, #722, #696, .T. ) ;
#122 =( NAMED_UNIT ( * ) SI_UNIT ( $, .STERADIAN. ) SOLID_ANGLE_UNIT ( ) );
#123 = CARTESIAN_POINT ( 'NONE',  ( 11.00000000000000000, 0.0000000000000000000, 0.8750000000000001110 ) ) ;
#124 = DIRECTION ( 'NONE',  ( 0.0000000000000000000, -0.7071067811865474617, 0.7071067811865474617 ) ) ;
#125 = FACE_OUTER_BOUND ( 'NONE', #82, .T. ) ;
#126 = SURFACE_STYLE_FILL_AREA ( #894 ) ;
#127 = DIRECTION ( 'NONE',  ( 1.000000000000000000, 0.0000000000000000000, 0.0000000000000000000 ) ) ;
#128 = DIRECTION ( 'NONE',  ( 0.0000000000000000000, -0.7071067811865474617, -0.7071067811865474617 ) ) ;
#129 = ORIENTED_EDGE ( 'NONE', *, *, #607, .T. ) ;
#130 = DIRECTION ( 'NONE',  ( 0.0000000000000000000, 0.0000000000000000000, -1.000000000000000000 ) ) ;
#131 = ORIENTED_EDGE ( 'NONE', *, *, #798, .T. ) ;
#132 = ADVANCED_FACE ( 'NONE', ( #172 ), #162, .T. ) ;
#133 =( GEOMETRIC_REPRESENTATION_CONTEXT ( 3 ) GLOBAL_UNCERTAINTY_ASSIGNED_CONTEXT ( ( #599 ) ) GLOBAL_UNIT_ASSIGNED_CONTEXT ( ( #308, #97, #29 ) ) REPRESENTATION_CONTEXT ( 'NONE', 'WORKASPACE' ) );
#134 = ORIENTED_EDGE ( 'NONE', *, *, #668, .T. ) ;
#135 = CARTESIAN_POINT ( 'NONE',  ( 0.0000000000000000000, 0.1250000000000000000, 0.1250000000000000000 ) ) ;
#136 = DIRECTION ( 'NONE',  ( 0.0000000000000000000, -0.7071067811865474617, -0.7071067811865474617 ) ) ;
#137 = EDGE_CURVE ( 'NONE', #98, #896, #358, .T. ) ;
#138 = DIRECTION ( 'NONE',  ( -1.000000000000000000, 0.0000000000000000000, 0.0000000000000000000 ) ) ;
#139 = DIRECTION ( 'NONE',  ( -1.000000000000000000, 0.0000000000000000000, 0.0000000000000000000 ) ) ;
#140 = CARTESIAN_POINT ( 'NONE',  ( 11.00000000000000000, 0.2500000000000000000, 0.2500000000000000000 ) ) ;
#141 = CYLINDRICAL_SURFACE ( 'NONE', #69, 0.1250000000000001110 ) ;
#142 = ORIENTED_EDGE ( 'NONE', *, *, #27, .T. ) ;
#143 = ORIENTED_EDGE ( 'NONE', *, *, #354, .T. ) ;
#144 = DIRECTION ( 'NONE',  ( 0.0000000000000000000, -0.7071067811865475727, -0.7071067811865475727 ) ) ;
#145 = CARTESIAN_POINT ( 'NONE',  ( 0.0000000000000000000, 0.8750000000000001110, 0.8750000000000001110 ) ) ;
#146 = EDGE_LOOP ( 'NONE', ( #265, #234, #508, #516 ) ) ;
#147 = AXIS2_PLACEMENT_3D ( 'NONE', #716, #788, #848 ) ;
#148 = ADVANCED_FACE ( 'NONE', ( #96 ), #325, .T. ) ;
#149 = CARTESIAN_POINT ( 'NONE',  ( 0.0000000000000000000, 0.1250000000000000000, 1.000000000000000000 ) ) ;
#150 = DIRECTION ( 'NONE',  ( 0.0000000000000000000, 1.000000000000000000, 0.0000000000000000000 ) ) ;
#151 = ADVANCED_FACE ( 'NONE', ( #890 ), #141, .F. ) ;
#152 = VECTOR ( 'NONE', #271, 39.37007874015748143 ) ;
#153 = LINE ( 'NONE', #352, #779 ) ;
#154 = DIRECTION ( 'NONE',  ( -1.000000000000000000, 0.0000000000000000000, 0.0000000000000000000 ) ) ;
#155 = ORIENTED_EDGE ( 'NONE', *, *, #730, .F. ) ;
#156 = EDGE_CURVE ( 'NONE', #32, #833, #815, .T. ) ;
#157 = ORIENTED_EDGE ( 'NONE', *, *, #307, .F. ) ;
#158 = ORIENTED_EDGE ( 'NONE', *, *, #259, .F. ) ;
#159 = DIRECTION ( 'NONE',  ( 0.0000000000000000000, -1.000000000000000000, 5.827942386483758821E-17 ) ) ;
#160 = DIRECTION ( 'NONE',  ( 0.0000000000000000000, 0.7071067811865474617, -0.7071067811865474617 ) ) ;
#161 = CARTESIAN_POINT ( 'NONE',  ( 0.0000000000000000000, 0.7500000000000001110, 0.1250000000000000000 ) ) ;
#162 = CYLINDRICAL_SURFACE ( 'NONE', #302, 0.1250000000000000833 ) ;
#163 = ORIENTED_EDGE ( 'NONE', *, *, #121, .F. ) ;
#164 = ADVANCED_FACE ( 'NONE', ( #531 ), #462, .T. ) ;
#165 = EDGE_LOOP ( 'NONE', ( #268, #255, #907, #526 ) ) ;
#166 = VERTEX_POINT ( 'NONE', #763 ) ;
#167 = AXIS2_PLACEMENT_3D ( 'NONE', #893, #484, #898 ) ;
#168 = CARTESIAN_POINT ( 'NONE',  ( 0.0000000000000000000, 0.2500000000000000000, 0.8750000000000001110 ) ) ;
#169 = DIRECTION ( 'NONE',  ( 0.0000000000000000000, -0.7071067811865475727, -0.7071067811865475727 ) ) ;
#170 = EDGE_CURVE ( 'NONE', #100, #542, #681, .T. ) ;
#171 = CYLINDRICAL_SURFACE ( 'NONE', #298, 0.1250000000000000833 ) ;
#172 = FACE_OUTER_BOUND ( 'NONE', #545, .T. ) ;
#173 = ORIENTED_EDGE ( 'NONE', *, *, #543, .F. ) ;
#174 = ORIENTED_EDGE ( 'NONE', *, *, #751, .F. ) ;
#175 = EDGE_LOOP ( 'NONE', ( #158, #449, #392, #383 ) ) ;
#176 = DIRECTION ( 'NONE',  ( -1.000000000000000000, 0.0000000000000000000, 0.0000000000000000000 ) ) ;
#177 = EDGE_CURVE ( 'NONE', #242, #202, #878, .T. ) ;
#178 = LINE ( 'NONE', #559, #476 ) ;
#179 = VECTOR ( 'NONE', #14, 39.37007874015748143 ) ;
#180 = CYLINDRICAL_SURFACE ( 'NONE', #372, 0.1250000000000001110 ) ;
#181 = VERTEX_POINT ( 'NONE', #773 ) ;
#182 = DIRECTION ( 'NONE',  ( 1.000000000000000000, 0.0000000000000000000, 0.0000000000000000000 ) ) ;
#183 =( CONVERSION_BASED_UNIT ( 'INCH', #410 ) LENGTH_UNIT ( ) NAMED_UNIT ( #724 ) );
#184 = AXIS2_PLACEMENT_3D ( 'NONE', #15, #437, #11 ) ;
#185 = DIRECTION ( 'NONE',  ( 0.0000000000000000000, 0.7071067811865474617, -0.7071067811865474617 ) ) ;
#186 = CARTESIAN_POINT ( 'NONE',  ( 11.00000000000000000, 0.2500000000000000000, 0.2500000000000000000 ) ) ;
#187 = LINE ( 'NONE', #256, #60 ) ;
#188 = DIRECTION ( 'NONE',  ( -1.000000000000000000, 0.0000000000000000000, 0.0000000000000000000 ) ) ;
#189 = DIRECTION ( 'NONE',  ( 1.000000000000000000, 0.0000000000000000000, 0.0000000000000000000 ) ) ;
#190 = ORIENTED_EDGE ( 'NONE', *, *, #104, .T. ) ;
#191 = ORIENTED_EDGE ( 'NONE', *, *, #706, .F. ) ;
#192 = ORIENTED_EDGE ( 'NONE', *, *, #225, .T. ) ;
#193 = CARTESIAN_POINT ( 'NONE',  ( 0.0000000000000000000, 0.8750000000000001110, 0.7500000000000001110 ) ) ;
#194 = CLOSED_SHELL ( 'NONE', ( #649, #22, #629, #61, #353, #151, #511, #433, #483, #423, #73, #714, #771, #407, #283, #6, #148, #132, #835, #164, #900, #17, #223, #499, #570, #337 ) ) ;
#195 = PRODUCT_DEFINITION_SHAPE ( 'NONE', 'NONE',  #698 ) ;
#196 = EDGE_CURVE ( 'NONE', #373, #98, #18, .T. ) ;
#197 = CARTESIAN_POINT ( 'NONE',  ( 11.00000000000000000, 1.000000000000000000, 0.1250000000000000000 ) ) ;
#198 = CARTESIAN_POINT ( 'NONE',  ( 11.00000000000000000, 0.1250000000000000000, 1.000000000000000000 ) ) ;
#199 = CARTESIAN_POINT ( 'NONE',  ( 11.00000000000000000, 1.000000000000000000, 0.8750000000000001110 ) ) ;
#200 = CARTESIAN_POINT ( 'NONE',  ( 0.0000000000000000000, 0.8750000000000001110, 1.000000000000000000 ) ) ;
#201 = LINE ( 'NONE', #272, #222 ) ;
#202 = VERTEX_POINT ( 'NONE', #199 ) ;
#203 = DIRECTION ( 'NONE',  ( 0.0000000000000000000, 5.827942386483758821E-17, 1.000000000000000000 ) ) ;
#204 = ORIENTED_EDGE ( 'NONE', *, *, #434, .F. ) ;
#205 = AXIS2_PLACEMENT_3D ( 'NONE', #860, #661, #670 ) ;
#206 = LINE ( 'NONE', #161, #618 ) ;
#207 = DIRECTION ( 'NONE',  ( -1.000000000000000000, 0.0000000000000000000, 0.0000000000000000000 ) ) ;
#208 = CARTESIAN_POINT ( 'NONE',  ( 11.00000000000000000, 0.2500000000000000000, 0.7500000000000001110 ) ) ;
#209 = DIRECTION ( 'NONE',  ( 1.000000000000000000, 0.0000000000000000000, 0.0000000000000000000 ) ) ;
#210 = DIRECTION ( 'NONE',  ( 0.0000000000000000000, 5.827942386483758821E-17, 1.000000000000000000 ) ) ;
#211 = DIRECTION ( 'NONE',  ( -1.000000000000000000, 0.0000000000000000000, 0.0000000000000000000 ) ) ;
#212 = VECTOR ( 'NONE', #44, 39.37007874015748143 ) ;
#213 = ORIENTED_EDGE ( 'NONE', *, *, #115, .T. ) ;
#214 = EDGE_CURVE ( 'NONE', #542, #427, #705, .T. ) ;
#215 = ORIENTED_EDGE ( 'NONE', *, *, #480, .T. ) ;
#216 = EDGE_LOOP ( 'NONE', ( #414, #794, #129, #620 ) ) ;
#217 = FACE_OUTER_BOUND ( 'NONE', #697, .T. ) ;
#218 = DIRECTION ( 'NONE',  ( 1.000000000000000000, 0.0000000000000000000, 0.0000000000000000000 ) ) ;
#219 = CARTESIAN_POINT ( 'NONE',  ( 11.00000000000000000, 0.2500000000000000000, 0.1250000000000000000 ) ) ;
#220 = DIRECTION ( 'NONE',  ( -1.000000000000000000, 0.0000000000000000000, 0.0000000000000000000 ) ) ;
#221 = LINE ( 'NONE', #48, #829 ) ;
#222 = VECTOR ( 'NONE', #364, 39.37007874015748143 ) ;
#223 = ADVANCED_FACE ( 'NONE', ( #861 ), #78, .T. ) ;
#224 = FACE_OUTER_BOUND ( 'NONE', #175, .T. ) ;
#225 = EDGE_CURVE ( 'NONE', #557, #722, #807, .T. ) ;
#226 = ORIENTED_EDGE ( 'NONE', *, *, #713, .T. ) ;
#227 = DIRECTION ( 'NONE',  ( 1.000000000000000000, 0.0000000000000000000, 0.0000000000000000000 ) ) ;
#228 = CARTESIAN_POINT ( 'NONE',  ( 0.0000000000000000000, 0.2500000000000000000, 0.2500000000000000000 ) ) ;
#229 = AXIS2_PLACEMENT_3D ( 'NONE', #282, #840, #284 ) ;
#230 = FACE_OUTER_BOUND ( 'NONE', #146, .T. ) ;
#231 = VERTEX_POINT ( 'NONE', #504 ) ;
#232 = DIRECTION ( 'NONE',  ( 0.0000000000000000000, 0.7071067811865474617, 0.7071067811865474617 ) ) ;
#233 = DIRECTION ( 'NONE',  ( 0.0000000000000000000, 1.000000000000000000, 0.0000000000000000000 ) ) ;
#234 = ORIENTED_EDGE ( 'NONE', *, *, #386, .T. ) ;
#235 = ORIENTED_EDGE ( 'NONE', *, *, #238, .T. ) ;
#236 = VECTOR ( 'NONE', #715, 39.37007874015748143 ) ;
#237 = DIRECTION ( 'NONE',  ( 1.000000000000000000, 0.0000000000000000000, 0.0000000000000000000 ) ) ;
#238 = EDGE_CURVE ( 'NONE', #452, #52, #554, .T. ) ;
#239 = CYLINDRICAL_SURFACE ( 'NONE', #795, 0.1250000000000001110 ) ;
#240 = LINE ( 'NONE', #2, #37 ) ;
#241 = ORIENTED_EDGE ( 'NONE', *, *, #494, .T. ) ;
#242 = VERTEX_POINT ( 'NONE', #776 ) ;
#243 = CARTESIAN_POINT ( 'NONE',  ( 0.0000000000000000000, 0.2500000000000000000, 0.2500000000000000000 ) ) ;
#244 = ORIENTED_EDGE ( 'NONE', *, *, #652, .F. ) ;
#245 = PRESENTATION_STYLE_ASSIGNMENT (( #514 ) ) ;
#246 = AXIS2_PLACEMENT_3D ( 'NONE', #335, #254, #404 ) ;
#247 = DIRECTION ( 'NONE',  ( 0.0000000000000000000, 1.000000000000000000, 0.0000000000000000000 ) ) ;
#248 = EDGE_CURVE ( 'NONE', #89, #682, #106, .T. ) ;
#249 =( NAMED_UNIT ( * ) PLANE_ANGLE_UNIT ( ) SI_UNIT ( $, .RADIAN. ) );
#250 = CARTESIAN_POINT ( 'NONE',  ( 0.0000000000000000000, 0.1250000000000000000, 0.1250000000000000000 ) ) ;
#251 = LINE ( 'NONE', #774, #611 ) ;
#252 = ORIENTED_EDGE ( 'NONE', *, *, #81, .F. ) ;
#253 = CARTESIAN_POINT ( 'NONE',  ( 11.00000000000000000, 0.03661165235168155341, 0.9633883476483185992 ) ) ;
#254 = DIRECTION ( 'NONE',  ( 0.0000000000000000000, -1.000000000000000000, 0.0000000000000000000 ) ) ;
#255 = ORIENTED_EDGE ( 'NONE', *, *, #214, .T. ) ;
#256 = CARTESIAN_POINT ( 'NONE',  ( 0.0000000000000000000, 1.000000000000000000, 1.000000000000000000 ) ) ;
#257 = ORIENTED_EDGE ( 'NONE', *, *, #880, .F. ) ;
#258 = CIRCLE ( 'NONE', #897, 0.1250000000000000833 ) ;
#259 = EDGE_CURVE ( 'NONE', #594, #605, #201, .T. ) ;
#260 = CARTESIAN_POINT ( 'NONE',  ( 0.0000000000000000000, 0.1250000000000000000, 0.1250000000000000000 ) ) ;
#261 = LINE ( 'NONE', #461, #592 ) ;
#262 = DIRECTION ( 'NONE',  ( -1.000000000000000000, 0.0000000000000000000, 0.0000000000000000000 ) ) ;
#263 = CARTESIAN_POINT ( 'NONE',  ( 0.0000000000000000000, 0.2500000000000000000, 0.1250000000000000000 ) ) ;
#264 = VECTOR ( 'NONE', #207, 39.37007874015748143 ) ;
#265 = ORIENTED_EDGE ( 'NONE', *, *, #790, .T. ) ;
#266 = AXIS2_PLACEMENT_3D ( 'NONE', #863, #233, #804 ) ;
#267 = ORIENTED_EDGE ( 'NONE', *, *, #296, .T. ) ;
#268 = ORIENTED_EDGE ( 'NONE', *, *, #170, .T. ) ;
#269 = VECTOR ( 'NONE', #237, 39.37007874015748143 ) ;
#270 = EDGE_CURVE ( 'NONE', #452, #375, #315, .T. ) ;
#271 = DIRECTION ( 'NONE',  ( -1.000000000000000000, 0.0000000000000000000, 0.0000000000000000000 ) ) ;
#272 = CARTESIAN_POINT ( 'NONE',  ( 0.0000000000000000000, 0.03661165235168150484, 0.03661165235168150484 ) ) ;
#273 = DIRECTION ( 'NONE',  ( 0.0000000000000000000, -1.000000000000000000, 0.0000000000000000000 ) ) ;
#274 = CIRCLE ( 'NONE', #602, 0.1250000000000000833 ) ;
#275 = ORIENTED_EDGE ( 'NONE', *, *, #115, .F. ) ;
#276 = DIRECTION ( 'NONE',  ( 0.0000000000000000000, -0.7071067811865474617, -0.7071067811865474617 ) ) ;
#277 = DIRECTION ( 'NONE',  ( 0.0000000000000000000, -0.7071067811865474617, 0.7071067811865474617 ) ) ;
#278 = VERTEX_POINT ( 'NONE', #852 ) ;
#279 = PRESENTATION_LAYER_ASSIGNMENT (  '', '', ( #21 ) ) ;
#280 = ORIENTED_EDGE ( 'NONE', *, *, #311, .F. ) ;
#281 = FACE_OUTER_BOUND ( 'NONE', #108, .T. ) ;
#282 = CARTESIAN_POINT ( 'NONE',  ( 11.00000000000000000, 0.1250000000000000000, 0.8750000000000001110 ) ) ;
#283 = ADVANCED_FACE ( 'NONE', ( #371 ), #639, .T. ) ;
#284 = DIRECTION ( 'NONE',  ( 0.0000000000000000000, -0.7071067811865475727, 0.7071067811865476838 ) ) ;
#285 = CARTESIAN_POINT ( 'NONE',  ( 0.0000000000000000000, 0.8750000000000001110, 0.8750000000000001110 ) ) ;
#286 = DIRECTION ( 'NONE',  ( -1.000000000000000000, 0.0000000000000000000, 0.0000000000000000000 ) ) ;
#287 = VECTOR ( 'NONE', #485, 39.37007874015748143 ) ;
#288 = CIRCLE ( 'NONE', #460, 0.1250000000000000833 ) ;
#289 = EDGE_CURVE ( 'NONE', #384, #534, #872, .T. ) ;
#290 = ORIENTED_EDGE ( 'NONE', *, *, #507, .F. ) ;
#291 = DIRECTION ( 'NONE',  ( 1.000000000000000000, 0.0000000000000000000, 0.0000000000000000000 ) ) ;
#292 = ORIENTED_EDGE ( 'NONE', *, *, #156, .F. ) ;
#293 = CIRCLE ( 'NONE', #446, 0.1250000000000001110 ) ;
#294 = AXIS2_PLACEMENT_3D ( 'NONE', #732, #728, #450 ) ;
#295 = CARTESIAN_POINT ( 'NONE',  ( 0.0000000000000000000, 0.03661165235168150484, 0.9633883476483185992 ) ) ;
#296 = EDGE_CURVE ( 'NONE', #536, #452, #240, .T. ) ;
#297 = CARTESIAN_POINT ( 'NONE',  ( 0.0000000000000000000, 0.1250000000000000000, 0.2500000000000000000 ) ) ;
#298 = AXIS2_PLACEMENT_3D ( 'NONE', #260, #405, #886 ) ;
#299 = LINE ( 'NONE', #844, #727 ) ;
#300 = DIRECTION ( 'NONE',  ( -1.000000000000000000, 0.0000000000000000000, 0.0000000000000000000 ) ) ;
#301 = ORIENTED_EDGE ( 'NONE', *, *, #713, .F. ) ;
#302 = AXIS2_PLACEMENT_3D ( 'NONE', #827, #403, #66 ) ;
#303 = VERTEX_POINT ( 'NONE', #785 ) ;
#304 = ORIENTED_EDGE ( 'NONE', *, *, #225, .F. ) ;
#305 = CIRCLE ( 'NONE', #741, 0.1250000000000001110 ) ;
#306 = APPLICATION_CONTEXT ( 'automotive_design' ) ;
#307 = EDGE_CURVE ( 'NONE', #658, #441, #436, .T. ) ;
#308 =( CONVERSION_BASED_UNIT ( 'INCH', #442 ) LENGTH_UNIT ( ) NAMED_UNIT ( #428 ) );
#309 = VECTOR ( 'NONE', #412, 39.37007874015748143 ) ;
#310 = EDGE_LOOP ( 'NONE', ( #292, #350, #118, #215 ) ) ;
#311 = EDGE_CURVE ( 'NONE', #648, #605, #274, .T. ) ;
#312 = ORIENTED_EDGE ( 'NONE', *, *, #137, .T. ) ;
#313 = STYLED_ITEM ( 'NONE', ( #245 ), #94 ) ;
#314 = EDGE_CURVE ( 'NONE', #100, #783, #904, .T. ) ;
#315 = LINE ( 'NONE', #576, #488 ) ;
#316 = DIRECTION ( 'NONE',  ( -1.000000000000000000, 0.0000000000000000000, 0.0000000000000000000 ) ) ;
#317 = ORIENTED_EDGE ( 'NONE', *, *, #813, .T. ) ;
#318 = EDGE_LOOP ( 'NONE', ( #731, #192, #163, #820 ) ) ;
#319 = ORIENTED_EDGE ( 'NONE', *, *, #170, .F. ) ;
#320 = CARTESIAN_POINT ( 'NONE',  ( 0.0000000000000000000, 0.0000000000000000000, 0.0000000000000000000 ) ) ;
#321 = CARTESIAN_POINT ( 'NONE',  ( 0.0000000000000000000, 0.2500000000000000000, 0.7500000000000001110 ) ) ;
#322 = SURFACE_STYLE_FILL_AREA ( #380 ) ;
#323 = AXIS2_PLACEMENT_3D ( 'NONE', #186, #473, #128 ) ;
#324 = CARTESIAN_POINT ( 'NONE',  ( 11.00000000000000000, 0.7500000000000001110, 0.7500000000000001110 ) ) ;
#325 = PLANE ( 'NONE',  #538 ) ;
#326 = DIRECTION ( 'NONE',  ( 1.000000000000000000, 0.0000000000000000000, 0.0000000000000000000 ) ) ;
#327 = LINE ( 'NONE', #67, #152 ) ;
#328 = CYLINDRICAL_SURFACE ( 'NONE', #72, 0.1250000000000000833 ) ;
#329 = DIRECTION ( 'NONE',  ( -1.000000000000000000, 0.0000000000000000000, 0.0000000000000000000 ) ) ;
#330 = ORIENTED_EDGE ( 'NONE', *, *, #366, .F. ) ;
#331 = CARTESIAN_POINT ( 'NONE',  ( 0.0000000000000000000, 0.0000000000000000000, 1.000000000000000000 ) ) ;
#332 = EDGE_LOOP ( 'NONE', ( #491, #301, #515, #173 ) ) ;
#333 = EDGE_CURVE ( 'NONE', #242, #451, #299, .T. ) ;
#334 = DIRECTION ( 'NONE',  ( 0.0000000000000000000, -0.7071067811865475727, 0.7071067811865476838 ) ) ;
#335 = CARTESIAN_POINT ( 'NONE',  ( 0.0000000000000000000, 0.8750000000000001110, 0.8750000000000001110 ) ) ;
#336 = CARTESIAN_POINT ( 'NONE',  ( 0.0000000000000000000, 0.8750000000000001110, 0.2500000000000000000 ) ) ;
#337 = ADVANCED_FACE ( 'NONE', ( #674, #344 ), #419, .F. ) ;
#338 = PRODUCT_RELATED_PRODUCT_CATEGORY ( 'part', '', ( #498 ) ) ;
#339 = DIRECTION ( 'NONE',  ( 0.0000000000000000000, -0.7071067811865474617, -0.7071067811865474617 ) ) ;
#340 = DIRECTION ( 'NONE',  ( -1.000000000000000000, 0.0000000000000000000, 0.0000000000000000000 ) ) ;
#341 = CIRCLE ( 'NONE', #578, 0.1250000000000000833 ) ;
#342 = CARTESIAN_POINT ( 'NONE',  ( 11.00000000000000000, 0.7500000000000001110, 0.2500000000000000000 ) ) ;
#343 = CARTESIAN_POINT ( 'NONE',  ( 0.0000000000000000000, 0.0000000000000000000, 0.1250000000000000000 ) ) ;
#344 = FACE_BOUND ( 'NONE', #555, .T. ) ;
#345 = ORIENTED_EDGE ( 'NONE', *, *, #512, .T. ) ;
#346 = AXIS2_PLACEMENT_3D ( 'NONE', #5, #495, #564 ) ;
#347 = VERTEX_POINT ( 'NONE', #849 ) ;
#348 = DIRECTION ( 'NONE',  ( 0.0000000000000000000, -1.000000000000000000, 5.827942386483758821E-17 ) ) ;
#349 = DIRECTION ( 'NONE',  ( 0.0000000000000000000, -0.7071067811865475727, -0.7071067811865475727 ) ) ;
#350 = ORIENTED_EDGE ( 'NONE', *, *, #527, .F. ) ;
#351 = VECTOR ( 'NONE', #432, 39.37007874015748143 ) ;
#352 = CARTESIAN_POINT ( 'NONE',  ( 0.0000000000000000000, 0.8383883476483185992, 0.8383883476483185992 ) ) ;
#353 = ADVANCED_FACE ( 'NONE', ( #654 ), #841, .F. ) ;
#354 = EDGE_CURVE ( 'NONE', #52, #441, #447, .T. ) ;
#355 = DIRECTION ( 'NONE',  ( -1.000000000000000000, 0.0000000000000000000, 0.0000000000000000000 ) ) ;
#356 = CARTESIAN_POINT ( 'NONE',  ( 0.0000000000000000000, 0.7500000000000001110, 0.8750000000000001110 ) ) ;
#357 = FACE_OUTER_BOUND ( 'NONE', #506, .T. ) ;
#358 = CIRCLE ( 'NONE', #556, 0.1250000000000001110 ) ;
#359 = CARTESIAN_POINT ( 'NONE',  ( 0.0000000000000000000, 0.1250000000000000000, 0.8750000000000001110 ) ) ;
#360 = CARTESIAN_POINT ( 'NONE',  ( 11.00000000000000000, 0.9633883476483185992, 0.03661165235168155341 ) ) ;
#361 = EDGE_LOOP ( 'NONE', ( #65, #376, #524, #20 ) ) ;
#362 = VERTEX_POINT ( 'NONE', #453 ) ;
#363 = VECTOR ( 'NONE', #832, 39.37007874015748143 ) ;
#364 = DIRECTION ( 'NONE',  ( -1.000000000000000000, 0.0000000000000000000, 0.0000000000000000000 ) ) ;
#365 = CARTESIAN_POINT ( 'NONE',  ( 0.0000000000000000000, 0.7500000000000001110, 0.7500000000000001110 ) ) ;
#366 = EDGE_CURVE ( 'NONE', #231, #534, #664, .T. ) ;
#367 = DIRECTION ( 'NONE',  ( 0.0000000000000000000, 0.0000000000000000000, -1.000000000000000000 ) ) ;
#368 =( GEOMETRIC_REPRESENTATION_CONTEXT ( 3 ) GLOBAL_UNCERTAINTY_ASSIGNED_CONTEXT ( ( #643 ) ) GLOBAL_UNIT_ASSIGNED_CONTEXT ( ( #183, #249, #122 ) ) REPRESENTATION_CONTEXT ( 'NONE', 'WORKASPACE' ) );
#369 = CARTESIAN_POINT ( 'NONE',  ( 11.00000000000000000, 0.7500000000000001110, 0.2500000000000000000 ) ) ;
#370 = FACE_OUTER_BOUND ( 'NONE', #758, .T. ) ;
#371 = FACE_OUTER_BOUND ( 'NONE', #310, .T. ) ;
#372 = AXIS2_PLACEMENT_3D ( 'NONE', #387, #883, #185 ) ;
#373 = VERTEX_POINT ( 'NONE', #444 ) ;
#374 = CARTESIAN_POINT ( 'NONE',  ( 0.0000000000000000000, 0.7500000000000001110, 0.2500000000000000000 ) ) ;
#375 = VERTEX_POINT ( 'NONE', #24 ) ;
#376 = ORIENTED_EDGE ( 'NONE', *, *, #725, .T. ) ;
#377 = PLANE ( 'NONE',  #266 ) ;
#378 = AXIS2_PLACEMENT_3D ( 'NONE', #324, #680, #748 ) ;
#379 = LINE ( 'NONE', #622, #212 ) ;
#380 = FILL_AREA_STYLE ('',( #590 ) ) ;
#381 = ORIENTED_EDGE ( 'NONE', *, *, #296, .F. ) ;
#382 = ORIENTED_EDGE ( 'NONE', *, *, #766, .T. ) ;
#383 = ORIENTED_EDGE ( 'NONE', *, *, #311, .T. ) ;
#384 = VERTEX_POINT ( 'NONE', #685 ) ;
#385 = MANIFOLD_SOLID_BREP ( 'Imported1', #194 ) ;
#386 = EDGE_CURVE ( 'NONE', #117, #9, #153, .T. ) ;
#387 = CARTESIAN_POINT ( 'NONE',  ( 0.0000000000000000000, 0.7500000000000001110, 0.2500000000000000000 ) ) ;
#388 = LINE ( 'NONE', #200, #287 ) ;
#389 = ORIENTED_EDGE ( 'NONE', *, *, #693, .T. ) ;
#390 = EDGE_CURVE ( 'NONE', #54, #373, #735, .T. ) ;
#391 = CARTESIAN_POINT ( 'NONE',  ( 0.0000000000000000000, 0.7500000000000001110, 0.2500000000000000000 ) ) ;
#392 = ORIENTED_EDGE ( 'NONE', *, *, #678, .T. ) ;
#393 = ORIENTED_EDGE ( 'NONE', *, *, #289, .F. ) ;
#394 = AXIS2_PLACEMENT_3D ( 'NONE', #208, #3, #277 ) ;
#395 = DIRECTION ( 'NONE',  ( 0.0000000000000000000, -0.7071067811865475727, -0.7071067811865475727 ) ) ;
#396 = VECTOR ( 'NONE', #189, 39.37007874015748143 ) ;
#397 = CARTESIAN_POINT ( 'NONE',  ( 0.0000000000000000000, 0.03661165235168155341, 0.9633883476483185992 ) ) ;
#398 = CARTESIAN_POINT ( 'NONE',  ( 0.0000000000000000000, 0.8750000000000001110, 0.1250000000000000000 ) ) ;
#399 = VERTEX_POINT ( 'NONE', #546 ) ;
#400 = ORIENTED_EDGE ( 'NONE', *, *, #598, .T. ) ;
#401 = ORIENTED_EDGE ( 'NONE', *, *, #826, .T. ) ;
#402 = CIRCLE ( 'NONE', #510, 0.1250000000000001110 ) ;
#403 = DIRECTION ( 'NONE',  ( -1.000000000000000000, 0.0000000000000000000, 0.0000000000000000000 ) ) ;
#404 = DIRECTION ( 'NONE',  ( 0.0000000000000000000, 0.0000000000000000000, -1.000000000000000000 ) ) ;
#405 = DIRECTION ( 'NONE',  ( -1.000000000000000000, 0.0000000000000000000, 0.0000000000000000000 ) ) ;
#406 = FILL_AREA_STYLE_COLOUR ( '', #502 ) ;
#407 = ADVANCED_FACE ( 'NONE', ( #740 ), #903, .F. ) ;
#408 = CARTESIAN_POINT ( 'NONE',  ( 0.0000000000000000000, 0.2500000000000000000, 0.7500000000000001110 ) ) ;
#409 = VECTOR ( 'NONE', #753, 39.37007874015748143 ) ;
#410 = LENGTH_MEASURE_WITH_UNIT ( LENGTH_MEASURE( 0.02539999999999999897 ), #465 );
#411 = ORIENTED_EDGE ( 'NONE', *, *, #580, .F. ) ;
#412 = DIRECTION ( 'NONE',  ( -1.000000000000000000, 0.0000000000000000000, 0.0000000000000000000 ) ) ;
#413 = ORIENTED_EDGE ( 'NONE', *, *, #512, .F. ) ;
#414 = ORIENTED_EDGE ( 'NONE', *, *, #333, .F. ) ;
#415 = AXIS2_PLACEMENT_3D ( 'NONE', #391, #684, #532 ) ;
#416 = CARTESIAN_POINT ( 'NONE',  ( 0.0000000000000000000, 0.9633883476483185992, 0.03661165235168155341 ) ) ;
#417 = CARTESIAN_POINT ( 'NONE',  ( 0.0000000000000000000, 0.8750000000000001110, 0.1250000000000000000 ) ) ;
#418 = EDGE_CURVE ( 'NONE', #755, #399, #341, .T. ) ;
#419 = PLANE ( 'NONE',  #346 ) ;
#420 = CARTESIAN_POINT ( 'NONE',  ( 0.0000000000000000000, 0.03661165235168155341, 0.03661165235168155341 ) ) ;
#421 = VECTOR ( 'NONE', #474, 39.37007874015748143 ) ;
#422 = ORIENTED_EDGE ( 'NONE', *, *, #739, .F. ) ;
#423 = ADVANCED_FACE ( 'NONE', ( #552 ), #612, .T. ) ;
#424 = AXIS2_PLACEMENT_3D ( 'NONE', #761, #750, #53 ) ;
#425 = ORIENTED_EDGE ( 'NONE', *, *, #668, .F. ) ;
#426 = DIRECTION ( 'NONE',  ( 0.0000000000000000000, 0.0000000000000000000, -1.000000000000000000 ) ) ;
#427 = VERTEX_POINT ( 'NONE', #47 ) ;
#428 = DIMENSIONAL_EXPONENTS ( 1.000000000000000000, 0.0000000000000000000, 0.0000000000000000000, 0.0000000000000000000, 0.0000000000000000000, 0.0000000000000000000, 0.0000000000000000000 ) ;
#429 = DIRECTION ( 'NONE',  ( -1.000000000000000000, 0.0000000000000000000, 0.0000000000000000000 ) ) ;
#430 = PLANE ( 'NONE',  #147 ) ;
#431 = AXIS2_PLACEMENT_3D ( 'NONE', #540, #624, #823 ) ;
#432 = DIRECTION ( 'NONE',  ( 0.0000000000000000000, 0.0000000000000000000, 1.000000000000000000 ) ) ;
#433 = ADVANCED_FACE ( 'NONE', ( #230 ), #239, .F. ) ;
#434 = EDGE_CURVE ( 'NONE', #119, #755, #435, .T. ) ;
#435 = CIRCLE ( 'NONE', #703, 0.1250000000000000833 ) ;
#436 = CIRCLE ( 'NONE', #638, 0.1250000000000000833 ) ;
#437 = DIRECTION ( 'NONE',  ( 1.000000000000000000, 0.0000000000000000000, 0.0000000000000000000 ) ) ;
#438 = ORIENTED_EDGE ( 'NONE', *, *, #248, .F. ) ;
#439 = EDGE_LOOP ( 'NONE', ( #280, #142, #675, #157, #876, #525, #586, #479, #155, #23, #33, #617 ) ) ;
#440 = ORIENTED_EDGE ( 'NONE', *, *, #580, .T. ) ;
#441 = VERTEX_POINT ( 'NONE', #397 ) ;
#442 = LENGTH_MEASURE_WITH_UNIT ( LENGTH_MEASURE( 0.02539999999999999897 ), #593 );
#443 = DIRECTION ( 'NONE',  ( 1.000000000000000000, 0.0000000000000000000, 0.0000000000000000000 ) ) ;
#444 = CARTESIAN_POINT ( 'NONE',  ( 11.00000000000000000, 0.1616116523516815395, 0.1616116523516815395 ) ) ;
#445 = CARTESIAN_POINT ( 'NONE',  ( 0.0000000000000000000, 0.7500000000000001110, 0.7500000000000001110 ) ) ;
#446 = AXIS2_PLACEMENT_3D ( 'NONE', #369, #443, #160 ) ;
#447 = LINE ( 'NONE', #295, #113 ) ;
#448 = EDGE_CURVE ( 'NONE', #117, #32, #653, .T. ) ;
#449 = ORIENTED_EDGE ( 'NONE', *, *, #636, .T. ) ;
#450 = DIRECTION ( 'NONE',  ( 1.000000000000000000, 0.0000000000000000000, 0.0000000000000000000 ) ) ;
#451 = VERTEX_POINT ( 'NONE', #472 ) ;
#452 = VERTEX_POINT ( 'NONE', #123 ) ;
#453 = CARTESIAN_POINT ( 'NONE',  ( 0.0000000000000000000, 0.2500000000000000000, 0.8750000000000001110 ) ) ;
#454 = CYLINDRICAL_SURFACE ( 'NONE', #431, 0.1250000000000001110 ) ;
#455 = ORIENTED_EDGE ( 'NONE', *, *, #366, .T. ) ;
#456 = ORIENTED_EDGE ( 'NONE', *, *, #434, .T. ) ;
#457 = ORIENTED_EDGE ( 'NONE', *, *, #690, .T. ) ;
#458 = LENGTH_MEASURE_WITH_UNIT ( LENGTH_MEASURE( 0.02539999999999999897 ), #666 );
#459 = CARTESIAN_POINT ( 'NONE',  ( 0.0000000000000000000, 0.1250000000000000000, 0.1250000000000000000 ) ) ;
#460 = AXIS2_PLACEMENT_3D ( 'NONE', #902, #548, #334 ) ;
#461 = CARTESIAN_POINT ( 'NONE',  ( 0.0000000000000000000, 0.8750000000000001110, 0.7500000000000001110 ) ) ;
#462 = CYLINDRICAL_SURFACE ( 'NONE', #837, 0.1250000000000001110 ) ;
#463 = ORIENTED_EDGE ( 'NONE', *, *, #93, .F. ) ;
#464 = CARTESIAN_POINT ( 'NONE',  ( 0.0000000000000000000, 0.7500000000000001110, 0.7500000000000001110 ) ) ;
#465 =( LENGTH_UNIT ( ) NAMED_UNIT ( * ) SI_UNIT ( $, .METRE. ) );
#466 = VERTEX_POINT ( 'NONE', #889 ) ;
#467 = DIRECTION ( 'NONE',  ( 0.0000000000000000000, 1.000000000000000000, 0.0000000000000000000 ) ) ;
#468 = EDGE_LOOP ( 'NONE', ( #425, #244, #191, #68 ) ) ;
#469 = VECTOR ( 'NONE', #273, 39.37007874015748143 ) ;
#470 = AXIS2_PLACEMENT_3D ( 'NONE', #550, #130, #247 ) ;
#471 = CARTESIAN_POINT ( 'NONE',  ( 11.00000000000000000, 0.8750000000000001110, 0.8750000000000001110 ) ) ;
#472 = CARTESIAN_POINT ( 'NONE',  ( 0.0000000000000000000, 0.9633883476483184882, 0.9633883476483184882 ) ) ;
#473 = DIRECTION ( 'NONE',  ( 1.000000000000000000, 0.0000000000000000000, 0.0000000000000000000 ) ) ;
#474 = DIRECTION ( 'NONE',  ( 0.0000000000000000000, 1.000000000000000000, 0.0000000000000000000 ) ) ;
#475 = AXIS2_PLACEMENT_3D ( 'NONE', #398, #316, #692 ) ;
#476 = VECTOR ( 'NONE', #79, 39.37007874015748143 ) ;
#477 = PLANE ( 'NONE',  #470 ) ;
#478 = CYLINDRICAL_SURFACE ( 'NONE', #663, 0.1250000000000000833 ) ;
#479 = ORIENTED_EDGE ( 'NONE', *, *, #507, .T. ) ;
#480 = EDGE_CURVE ( 'NONE', #362, #833, #726, .T. ) ;
#481 = VERTEX_POINT ( 'NONE', #687 ) ;
#482 = ORIENTED_EDGE ( 'NONE', *, *, #826, .F. ) ;
#483 = ADVANCED_FACE ( 'NONE', ( #105 ), #454, .F. ) ;
#484 = DIRECTION ( 'NONE',  ( -1.000000000000000000, 0.0000000000000000000, 0.0000000000000000000 ) ) ;
#485 = DIRECTION ( 'NONE',  ( 1.000000000000000000, 0.0000000000000000000, 0.0000000000000000000 ) ) ;
#486 = DIRECTION ( 'NONE',  ( 0.0000000000000000000, 0.7071067811865474617, 0.7071067811865474617 ) ) ;
#487 = PRESENTATION_LAYER_ASSIGNMENT (  '', '', ( #313 ) ) ;
#488 = VECTOR ( 'NONE', #426, 39.37007874015748143 ) ;
#489 = ORIENTED_EDGE ( 'NONE', *, *, #627, .T. ) ;
#490 = DIRECTION ( 'NONE',  ( -1.000000000000000000, 0.0000000000000000000, 0.0000000000000000000 ) ) ;
#491 = ORIENTED_EDGE ( 'NONE', *, *, #644, .F. ) ;
#492 = ORIENTED_EDGE ( 'NONE', *, *, #390, .T. ) ;
#493 = LINE ( 'NONE', #647, #236 ) ;
#494 = EDGE_CURVE ( 'NONE', #605, #874, #625, .T. ) ;
#495 = DIRECTION ( 'NONE',  ( 1.000000000000000000, 0.0000000000000000000, 0.0000000000000000000 ) ) ;
#496 = DIRECTION ( 'NONE',  ( 0.0000000000000000000, -0.7071067811865475727, 0.7071067811865476838 ) ) ;
#497 = DIRECTION ( 'NONE',  ( 0.0000000000000000000, 0.7071067811865474617, 0.7071067811865474617 ) ) ;
#498 = PRODUCT ( 'Floor Support', 'Floor Support', '', ( #800 ) ) ;
#499 = ADVANCED_FACE ( 'NONE', ( #370 ), #76, .T. ) ;
#500 = DIRECTION ( 'NONE',  ( 0.0000000000000000000, 0.0000000000000000000, -1.000000000000000000 ) ) ;
#501 = DIRECTION ( 'NONE',  ( 1.000000000000000000, 0.0000000000000000000, 0.0000000000000000000 ) ) ;
#502 = COLOUR_RGB ( '',0.7490196078431372584, 0.7490196078431372584, 0.7490196078431372584 ) ;
#503 = ORIENTED_EDGE ( 'NONE', *, *, #706, .T. ) ;
#504 = CARTESIAN_POINT ( 'NONE',  ( 0.0000000000000000000, 0.1250000000000000000, 0.7500000000000001110 ) ) ;
#505 = CARTESIAN_POINT ( 'NONE',  ( 11.00000000000000000, 0.2500000000000000000, 0.7500000000000001110 ) ) ;
#506 = EDGE_LOOP ( 'NONE', ( #401, #657, #241, #440 ) ) ;
#507 = EDGE_CURVE ( 'NONE', #347, #278, #187, .T. ) ;
#508 = ORIENTED_EDGE ( 'NONE', *, *, #42, .T. ) ;
#509 = CARTESIAN_POINT ( 'NONE',  ( 0.0000000000000000000, 0.7500000000000001110, 0.2500000000000000000 ) ) ;
#510 = AXIS2_PLACEMENT_3D ( 'NONE', #374, #869, #799 ) ;
#511 = ADVANCED_FACE ( 'NONE', ( #357 ), #171, .T. ) ;
#512 = EDGE_CURVE ( 'NONE', #534, #362, #871, .T. ) ;
#513 = VECTOR ( 'NONE', #57, 39.37007874015748143 ) ;
#514 = SURFACE_STYLE_USAGE ( .BOTH. , #26 ) ;
#515 = ORIENTED_EDGE ( 'NONE', *, *, #690, .F. ) ;
#516 = ORIENTED_EDGE ( 'NONE', *, *, #530, .T. ) ;
#517 = ORIENTED_EDGE ( 'NONE', *, *, #737, .T. ) ;
#518 = DIRECTION ( 'NONE',  ( -1.000000000000000000, 0.0000000000000000000, 0.0000000000000000000 ) ) ;
#519 = AXIS2_PLACEMENT_3D ( 'NONE', #720, #571, #150 ) ;
#520 = VECTOR ( 'NONE', #210, 39.37007874015748143 ) ;
#521 = VECTOR ( 'NONE', #159, 39.37007874015748143 ) ;
#522 = DIRECTION ( 'NONE',  ( 0.0000000000000000000, -0.7071067811865474617, -0.7071067811865474617 ) ) ;
#523 = AXIS2_PLACEMENT_3D ( 'NONE', #43, #549, #124 ) ;
#524 = ORIENTED_EDGE ( 'NONE', *, *, #121, .T. ) ;
#525 = ORIENTED_EDGE ( 'NONE', *, *, #747, .F. ) ;
#526 = ORIENTED_EDGE ( 'NONE', *, *, #901, .T. ) ;
#527 = EDGE_CURVE ( 'NONE', #481, #32, #49, .T. ) ;
#528 = CARTESIAN_POINT ( 'NONE',  ( 0.0000000000000000000, 0.7500000000000001110, 0.1250000000000000000 ) ) ;
#529 = FACE_OUTER_BOUND ( 'NONE', #40, .T. ) ;
#530 = EDGE_CURVE ( 'NONE', #557, #676, #261, .T. ) ;
#531 = FACE_OUTER_BOUND ( 'NONE', #216, .T. ) ;
#532 = DIRECTION ( 'NONE',  ( 0.0000000000000000000, 0.7071067811865474617, -0.7071067811865474617 ) ) ;
#533 = CIRCLE ( 'NONE', #167, 0.1250000000000001110 ) ;
#534 = VERTEX_POINT ( 'NONE', #884 ) ;
#535 = MECHANICAL_DESIGN_GEOMETRIC_PRESENTATION_REPRESENTATION (  '', ( #21 ), #368 ) ;
#536 = VERTEX_POINT ( 'NONE', #619 ) ;
#537 = CARTESIAN_POINT ( 'NONE',  ( 0.0000000000000000000, 0.1250000000000000000, 0.0000000000000000000 ) ) ;
#538 = AXIS2_PLACEMENT_3D ( 'NONE', #135, #906, #203 ) ;
#539 = DIRECTION ( 'NONE',  ( 0.0000000000000000000, -0.7071067811865474617, -0.7071067811865474617 ) ) ;
#540 = CARTESIAN_POINT ( 'NONE',  ( 0.0000000000000000000, 0.7500000000000001110, 0.7500000000000001110 ) ) ;
#541 = VECTOR ( 'NONE', #467, 39.37007874015748143 ) ;
#542 = VERTEX_POINT ( 'NONE', #895 ) ;
#543 = EDGE_CURVE ( 'NONE', #658, #166, #600, .T. ) ;
#544 = DIRECTION ( 'NONE',  ( 0.0000000000000000000, -1.000000000000000000, 0.0000000000000000000 ) ) ;
#545 = EDGE_LOOP ( 'NONE', ( #891, #738, #875, #574 ) ) ;
#546 = CARTESIAN_POINT ( 'NONE',  ( 11.00000000000000000, 0.8750000000000001110, 0.0000000000000000000 ) ) ;
#547 = ORIENTED_EDGE ( 'NONE', *, *, #59, .T. ) ;
#548 = DIRECTION ( 'NONE',  ( 1.000000000000000000, 0.0000000000000000000, 0.0000000000000000000 ) ) ;
#549 = DIRECTION ( 'NONE',  ( -1.000000000000000000, 0.0000000000000000000, 0.0000000000000000000 ) ) ;
#550 = CARTESIAN_POINT ( 'NONE',  ( 0.0000000000000000000, 0.0000000000000000000, 0.0000000000000000000 ) ) ;
#551 = DIRECTION ( 'NONE',  ( -1.000000000000000000, 0.0000000000000000000, 0.0000000000000000000 ) ) ;
#552 = FACE_OUTER_BOUND ( 'NONE', #318, .T. ) ;
#553 = CARTESIAN_POINT ( 'NONE',  ( 0.0000000000000000000, 1.000000000000000000, 0.0000000000000000000 ) ) ;
#554 = CIRCLE ( 'NONE', #229, 0.1250000000000000833 ) ;
#555 = EDGE_LOOP ( 'NONE', ( #710, #438, #422, #257, #304, #686, #782, #744, #413, #330, #174, #707 ) ) ;
#556 = AXIS2_PLACEMENT_3D ( 'NONE', #62, #756, #339 ) ;
#557 = VERTEX_POINT ( 'NONE', #193 ) ;
#558 = CARTESIAN_POINT ( 'NONE',  ( 0.0000000000000000000, 0.1616116523516814840, 0.1616116523516814840 ) ) ;
#559 = CARTESIAN_POINT ( 'NONE',  ( 0.0000000000000000000, 0.1250000000000000000, 1.000000000000000000 ) ) ;
#560 = ORIENTED_EDGE ( 'NONE', *, *, #813, .F. ) ;
#561 = DIRECTION ( 'NONE',  ( 1.000000000000000000, 0.0000000000000000000, 0.0000000000000000000 ) ) ;
#562 = DIRECTION ( 'NONE',  ( -1.000000000000000000, 0.0000000000000000000, 0.0000000000000000000 ) ) ;
#563 = EDGE_CURVE ( 'NONE', #278, #119, #379, .T. ) ;
#564 = DIRECTION ( 'NONE',  ( 0.0000000000000000000, 0.0000000000000000000, -1.000000000000000000 ) ) ;
#565 = CARTESIAN_POINT ( 'NONE',  ( 0.0000000000000000000, 0.0000000000000000000, 0.1250000000000000000 ) ) ;
#566 = PRODUCT_DEFINITION_CONTEXT ( 'detailed design', #734, 'design' ) ;
#567 = AXIS2_PLACEMENT_3D ( 'NONE', #577, #581, #7 ) ;
#568 = CYLINDRICAL_SURFACE ( 'NONE', #762, 0.1250000000000000833 ) ;
#569 = ORIENTED_EDGE ( 'NONE', *, *, #177, .F. ) ;
#570 = ADVANCED_FACE ( 'NONE', ( #529 ), #477, .T. ) ;
#571 = DIRECTION ( 'NONE',  ( 0.0000000000000000000, 0.0000000000000000000, -1.000000000000000000 ) ) ;
#572 = CARTESIAN_POINT ( 'NONE',  ( 0.0000000000000000000, 0.2500000000000000000, 0.1250000000000000000 ) ) ;
#573 = ORIENTED_EDGE ( 'NONE', *, *, #289, .T. ) ;
#574 = ORIENTED_EDGE ( 'NONE', *, *, #307, .T. ) ;
#575 = EDGE_LOOP ( 'NONE', ( #393, #382, #134, #455 ) ) ;
#576 = CARTESIAN_POINT ( 'NONE',  ( 11.00000000000000000, 0.0000000000000000000, 0.0000000000000000000 ) ) ;
#577 = CARTESIAN_POINT ( 'NONE',  ( 11.00000000000000000, 0.7500000000000001110, 0.7500000000000001110 ) ) ;
#578 = AXIS2_PLACEMENT_3D ( 'NONE', #817, #262, #764 ) ;
#579 = DIRECTION ( 'NONE',  ( 0.0000000000000000000, -0.7071067811865475727, 0.7071067811865476838 ) ) ;
#580 = EDGE_CURVE ( 'NONE', #874, #303, #887, .T. ) ;
#581 = DIRECTION ( 'NONE',  ( 1.000000000000000000, 0.0000000000000000000, 0.0000000000000000000 ) ) ;
#582 = CIRCLE ( 'NONE', #110, 0.1250000000000000833 ) ;
#583 = LINE ( 'NONE', #553, #830 ) ;
#584 = DIRECTION ( 'NONE',  ( 0.0000000000000000000, 0.7071067811865474617, -0.7071067811865474617 ) ) ;
#585 = ORIENTED_EDGE ( 'NONE', *, *, #248, .T. ) ;
#586 = ORIENTED_EDGE ( 'NONE', *, *, #13, .F. ) ;
#587 = DIMENSIONAL_EXPONENTS ( 1.000000000000000000, 0.0000000000000000000, 0.0000000000000000000, 0.0000000000000000000, 0.0000000000000000000, 0.0000000000000000000, 0.0000000000000000000 ) ;
#588 =( NAMED_UNIT ( * ) SI_UNIT ( $, .STERADIAN. ) SOLID_ANGLE_UNIT ( ) );
#589 = AXIS2_PLACEMENT_3D ( 'NONE', #321, #825, #691 ) ;
#590 = FILL_AREA_STYLE_COLOUR ( '', #711 ) ;
#591 = EDGE_CURVE ( 'NONE', #52, #677, #754, .T. ) ;
#592 = VECTOR ( 'NONE', #828, 39.37007874015748143 ) ;
#593 =( LENGTH_UNIT ( ) NAMED_UNIT ( * ) SI_UNIT ( $, .METRE. ) );
#594 = VERTEX_POINT ( 'NONE', #116 ) ;
#595 = ORIENTED_EDGE ( 'NONE', *, *, #598, .F. ) ;
#596 = ORIENTED_EDGE ( 'NONE', *, *, #81, .T. ) ;
#597 = CIRCLE ( 'NONE', #87, 0.1250000000000001110 ) ;
#598 = EDGE_CURVE ( 'NONE', #399, #811, #251, .T. ) ;
#599 = UNCERTAINTY_MEASURE_WITH_UNIT (LENGTH_MEASURE( 1.000000000000000082E-05 ), #308, 'distance_accuracy_value', 'NONE');
#600 = LINE ( 'NONE', #331, #541 ) ;
#601 = CYLINDRICAL_SURFACE ( 'NONE', #415, 0.1250000000000001110 ) ;
#602 = AXIS2_PLACEMENT_3D ( 'NONE', #74, #561, #144 ) ;
#603 = CARTESIAN_POINT ( 'NONE',  ( 0.0000000000000000000, 0.1250000000000000000, 0.8750000000000001110 ) ) ;
#604 = ORIENTED_EDGE ( 'NONE', *, *, #790, .F. ) ;
#605 = VERTEX_POINT ( 'NONE', #420 ) ;
#606 = DIRECTION ( 'NONE',  ( 0.0000000000000000000, -0.7071067811865475727, -0.7071067811865475727 ) ) ;
#607 = EDGE_CURVE ( 'NONE', #202, #347, #789, .T. ) ;
#608 = DIRECTION ( 'NONE',  ( 0.0000000000000000000, 0.0000000000000000000, -1.000000000000000000 ) ) ;
#609 = SURFACE_STYLE_USAGE ( .BOTH. , #757 ) ;
#610 = EDGE_CURVE ( 'NONE', #303, #399, #221, .T. ) ;
#611 = VECTOR ( 'NONE', #490, 39.37007874015748143 ) ;
#612 = PLANE ( 'NONE',  #246 ) ;
#613 = DIRECTION ( 'NONE',  ( 0.0000000000000000000, 0.0000000000000000000, -1.000000000000000000 ) ) ;
#614 = FACE_OUTER_BOUND ( 'NONE', #803, .T. ) ;
#615 = ORIENTED_EDGE ( 'NONE', *, *, #873, .T. ) ;
#616 = AXIS2_PLACEMENT_3D ( 'NONE', #75, #702, #496 ) ;
#617 = ORIENTED_EDGE ( 'NONE', *, *, #494, .F. ) ;
#618 = VECTOR ( 'NONE', #227, 39.37007874015748143 ) ;
#619 = CARTESIAN_POINT ( 'NONE',  ( 0.0000000000000000000, 0.0000000000000000000, 0.8750000000000001110 ) ) ;
#620 = ORIENTED_EDGE ( 'NONE', *, *, #13, .T. ) ;
#621 = CARTESIAN_POINT ( 'NONE',  ( 0.0000000000000000000, 0.8750000000000001110, 0.8750000000000001110 ) ) ;
#622 = CARTESIAN_POINT ( 'NONE',  ( 0.0000000000000000000, 1.000000000000000000, 0.1250000000000000000 ) ) ;
#623 = LINE ( 'NONE', #765, #363 ) ;
#624 = DIRECTION ( 'NONE',  ( -1.000000000000000000, 0.0000000000000000000, 0.0000000000000000000 ) ) ;
#625 = CIRCLE ( 'NONE', #660, 0.1250000000000000833 ) ;
#626 = VECTOR ( 'NONE', #500, 39.37007874015748143 ) ;
#627 = EDGE_CURVE ( 'NONE', #481, #384, #31, .T. ) ;
#628 = ORIENTED_EDGE ( 'NONE', *, *, #607, .F. ) ;
#629 = ADVANCED_FACE ( 'NONE', ( #694 ), #767, .T. ) ;
#630 = DIRECTION ( 'NONE',  ( 0.0000000000000000000, -0.7071067811865474617, 0.7071067811865474617 ) ) ;
#631 = ORIENTED_EDGE ( 'NONE', *, *, #418, .T. ) ;
#632 = CARTESIAN_POINT ( 'NONE',  ( 0.0000000000000000000, 1.000000000000000000, 0.8750000000000001110 ) ) ;
#633 = ORIENTED_EDGE ( 'NONE', *, *, #610, .F. ) ;
#634 = ORIENTED_EDGE ( 'NONE', *, *, #678, .F. ) ;
#635 = CARTESIAN_POINT ( 'NONE',  ( 0.0000000000000000000, 0.7500000000000001110, 0.8750000000000001110 ) ) ;
#636 = EDGE_CURVE ( 'NONE', #594, #375, #582, .T. ) ;
#637 = CARTESIAN_POINT ( 'NONE',  ( 0.0000000000000000000, 0.9633883476483185992, 0.03661165235168150484 ) ) ;
#638 = AXIS2_PLACEMENT_3D ( 'NONE', #359, #209, #579 ) ;
#639 = PLANE ( 'NONE',  #519 ) ;
#640 = DIRECTION ( 'NONE',  ( 0.0000000000000000000, 0.7071067811865476838, -0.7071067811865475727 ) ) ;
#641 = PRESENTATION_STYLE_ASSIGNMENT (( #609 ) ) ;
#642 = FACE_OUTER_BOUND ( 'NONE', #361, .T. ) ;
#643 = UNCERTAINTY_MEASURE_WITH_UNIT (LENGTH_MEASURE( 1.000000000000000082E-05 ), #183, 'distance_accuracy_value', 'NONE');
#644 = EDGE_CURVE ( 'NONE', #677, #658, #178, .T. ) ;
#645 = ORIENTED_EDGE ( 'NONE', *, *, #901, .F. ) ;
#646 = CARTESIAN_POINT ( 'NONE',  ( 11.00000000000000000, 0.8750000000000001110, 0.1250000000000000000 ) ) ;
#647 = CARTESIAN_POINT ( 'NONE',  ( 0.0000000000000000000, 0.1250000000000000000, 0.1250000000000000000 ) ) ;
#648 = VERTEX_POINT ( 'NONE', #565 ) ;
#649 = ADVANCED_FACE ( 'NONE', ( #125 ), #568, .T. ) ;
#650 = CARTESIAN_POINT ( 'NONE',  ( 0.0000000000000000000, 0.1616116523516814840, 0.8383883476483185992 ) ) ;
#651 = DIRECTION ( 'NONE',  ( 0.0000000000000000000, 0.7071067811865474617, 0.7071067811865474617 ) ) ;
#652 = EDGE_CURVE ( 'NONE', #54, #181, #717, .T. ) ;
#653 = CIRCLE ( 'NONE', #378, 0.1250000000000001110 ) ;
#654 = FACE_OUTER_BOUND ( 'NONE', #796, .T. ) ;
#655 = DIRECTION ( 'NONE',  ( 0.0000000000000000000, -1.000000000000000000, 5.827942386483758821E-17 ) ) ;
#656 = CARTESIAN_POINT ( 'NONE',  ( 11.00000000000000000, 0.5000000000000000000, 0.5000000000000000000 ) ) ;
#657 = ORIENTED_EDGE ( 'NONE', *, *, #259, .T. ) ;
#658 = VERTEX_POINT ( 'NONE', #149 ) ;
#659 = CARTESIAN_POINT ( 'NONE',  ( 11.00000000000000000, 1.000000000000000000, 1.000000000000000000 ) ) ;
#660 = AXIS2_PLACEMENT_3D ( 'NONE', #250, #326, #395 ) ;
#661 = DIRECTION ( 'NONE',  ( 0.0000000000000000000, 0.0000000000000000000, 1.000000000000000000 ) ) ;
#662 = LINE ( 'NONE', #838, #469 ) ;
#663 = AXIS2_PLACEMENT_3D ( 'NONE', #603, #176, #877 ) ;
#664 = CIRCLE ( 'NONE', #523, 0.1250000000000001110 ) ;
#665 = EDGE_LOOP ( 'NONE', ( #90, #879, #645, #585 ) ) ;
#666 =( LENGTH_UNIT ( ) NAMED_UNIT ( * ) SI_UNIT ( $, .METRE. ) );
#667 = EDGE_LOOP ( 'NONE', ( #489, #573, #345, #615 ) ) ;
#668 = EDGE_CURVE ( 'NONE', #181, #231, #327, .T. ) ;
#669 = ORIENTED_EDGE ( 'NONE', *, *, #390, .F. ) ;
#670 = DIRECTION ( 'NONE',  ( 0.0000000000000000000, -1.000000000000000000, 0.0000000000000000000 ) ) ;
#671 = AXIS2_PLACEMENT_3D ( 'NONE', #760, #329, #701 ) ;
#672 = APPLICATION_PROTOCOL_DEFINITION ( 'draft international standard', 'automotive_design', 1998, #306 ) ;
#673 = AXIS2_PLACEMENT_3D ( 'NONE', #793, #91, #651 ) ;
#674 = FACE_OUTER_BOUND ( 'NONE', #439, .T. ) ;
#675 = ORIENTED_EDGE ( 'NONE', *, *, #104, .F. ) ;
#676 = VERTEX_POINT ( 'NONE', #845 ) ;
#677 = VERTEX_POINT ( 'NONE', #198 ) ;
#678 = EDGE_CURVE ( 'NONE', #375, #648, #86, .T. ) ;
#679 = CARTESIAN_POINT ( 'NONE',  ( 11.00000000000000000, 0.7500000000000001110, 0.8750000000000001110 ) ) ;
#680 = DIRECTION ( 'NONE',  ( 1.000000000000000000, 0.0000000000000000000, 0.0000000000000000000 ) ) ;
#681 = CIRCLE ( 'NONE', #733, 0.1250000000000001110 ) ;
#682 = VERTEX_POINT ( 'NONE', #263 ) ;
#683 = AXIS2_PLACEMENT_3D ( 'NONE', #781, #787, #348 ) ;
#684 = DIRECTION ( 'NONE',  ( -1.000000000000000000, 0.0000000000000000000, 0.0000000000000000000 ) ) ;
#685 = CARTESIAN_POINT ( 'NONE',  ( 11.00000000000000000, 0.1616116523516815395, 0.8383883476483185992 ) ) ;
#686 = ORIENTED_EDGE ( 'NONE', *, *, #42, .F. ) ;
#687 = CARTESIAN_POINT ( 'NONE',  ( 11.00000000000000000, 0.2500000000000000000, 0.8750000000000001110 ) ) ;
#688 = ORIENTED_EDGE ( 'NONE', *, *, #196, .T. ) ;
#689 = DIRECTION ( 'NONE',  ( 0.0000000000000000000, 0.7071067811865474617, 0.7071067811865474617 ) ) ;
#690 = EDGE_CURVE ( 'NONE', #166, #466, #388, .T. ) ;
#691 = DIRECTION ( 'NONE',  ( 0.0000000000000000000, -0.7071067811865474617, 0.7071067811865474617 ) ) ;
#692 = DIRECTION ( 'NONE',  ( 0.0000000000000000000, 0.7071067811865476838, -0.7071067811865475727 ) ) ;
#693 = EDGE_CURVE ( 'NONE', #373, #783, #8, .T. ) ;
#694 = FACE_OUTER_BOUND ( 'NONE', #56, .T. ) ;
#695 = CARTESIAN_POINT ( 'NONE',  ( 0.0000000000000000000, 0.1250000000000000000, 0.8750000000000001110 ) ) ;
#696 = LINE ( 'NONE', #824, #718 ) ;
#697 = EDGE_LOOP ( 'NONE', ( #482, #809, #831, #204, #317, #569, #252, #226, #12, #743, #780, #107 ) ) ;
#698 = PRODUCT_DEFINITION ( 'UNKNOWN', '', #41, #566 ) ;
#699 = EDGE_LOOP ( 'NONE', ( #736, #808, #843, #709, #802, #604, #547, #50, #319, #92, #772, #669 ) ) ;
#700 = DIRECTION ( 'NONE',  ( 0.0000000000000000000, 1.000000000000000000, 0.0000000000000000000 ) ) ;
#701 = DIRECTION ( 'NONE',  ( 0.0000000000000000000, 0.7071067811865474617, 0.7071067811865474617 ) ) ;
#702 = DIRECTION ( 'NONE',  ( -1.000000000000000000, 0.0000000000000000000, 0.0000000000000000000 ) ) ;
#703 = AXIS2_PLACEMENT_3D ( 'NONE', #646, #211, #28 ) ;
#704 = DIRECTION ( 'NONE',  ( -1.000000000000000000, 0.0000000000000000000, 0.0000000000000000000 ) ) ;
#705 = LINE ( 'NONE', #777, #742 ) ;
#706 = EDGE_CURVE ( 'NONE', #896, #54, #623, .T. ) ;
#707 = ORIENTED_EDGE ( 'NONE', *, *, #137, .F. ) ;
#708 = CARTESIAN_POINT ( 'NONE',  ( 11.00000000000000000, 0.7500000000000001110, 0.1250000000000000000 ) ) ;
#709 = ORIENTED_EDGE ( 'NONE', *, *, #527, .T. ) ;
#710 = ORIENTED_EDGE ( 'NONE', *, *, #839, .F. ) ;
#711 = COLOUR_RGB ( '',0.7921568627450980005, 0.8196078431372548767, 0.9333333333333333481 ) ;
#712 = CARTESIAN_POINT ( 'NONE',  ( 11.00000000000000000, 0.8750000000000001110, 0.1250000000000000000 ) ) ;
#713 = EDGE_CURVE ( 'NONE', #466, #677, #662, .T. ) ;
#714 = ADVANCED_FACE ( 'NONE', ( #281 ), #430, .T. ) ;
#715 = DIRECTION ( 'NONE',  ( 0.0000000000000000000, 5.827942386483758821E-17, 1.000000000000000000 ) ) ;
#716 = CARTESIAN_POINT ( 'NONE',  ( 0.0000000000000000000, 0.0000000000000000000, 1.000000000000000000 ) ) ;
#717 = LINE ( 'NONE', #899, #520 ) ;
#718 = VECTOR ( 'NONE', #551, 39.37007874015748143 ) ;
#719 = ORIENTED_EDGE ( 'NONE', *, *, #333, .T. ) ;
#720 = CARTESIAN_POINT ( 'NONE',  ( 0.0000000000000000000, 0.1250000000000000000, 0.8750000000000001110 ) ) ;
#721 = PLANE ( 'NONE',  #854 ) ;
#722 = VERTEX_POINT ( 'NONE', #336 ) ;
#723 = AXIS2_PLACEMENT_3D ( 'NONE', #145, #562, #778 ) ;
#724 = DIMENSIONAL_EXPONENTS ( 1.000000000000000000, 0.0000000000000000000, 0.0000000000000000000, 0.0000000000000000000, 0.0000000000000000000, 0.0000000000000000000, 0.0000000000000000000 ) ;
#725 = EDGE_CURVE ( 'NONE', #542, #34, #293, .T. ) ;
#726 = LINE ( 'NONE', #695, #421 ) ;
#727 = VECTOR ( 'NONE', #154, 39.37007874015748143 ) ;
#728 = DIRECTION ( 'NONE',  ( 0.0000000000000000000, 0.0000000000000000000, 1.000000000000000000 ) ) ;
#729 = LINE ( 'NONE', #320, #64 ) ;
#730 = EDGE_CURVE ( 'NONE', #101, #278, #1, .T. ) ;
#731 = ORIENTED_EDGE ( 'NONE', *, *, #530, .F. ) ;
#732 = CARTESIAN_POINT ( 'NONE',  ( 0.0000000000000000000, 0.0000000000000000000, 0.0000000000000000000 ) ) ;
#733 = AXIS2_PLACEMENT_3D ( 'NONE', #342, #127, #70 ) ;
#734 = APPLICATION_CONTEXT ( 'automotive_design' ) ;
#735 = CIRCLE ( 'NONE', #323, 0.1250000000000001110 ) ;
#736 = ORIENTED_EDGE ( 'NONE', *, *, #652, .T. ) ;
#737 = EDGE_CURVE ( 'NONE', #783, #682, #109, .T. ) ;
#738 = ORIENTED_EDGE ( 'NONE', *, *, #591, .T. ) ;
#739 = EDGE_CURVE ( 'NONE', #427, #89, #102, .T. ) ;
#740 = FACE_OUTER_BOUND ( 'NONE', #575, .T. ) ;
#741 = AXIS2_PLACEMENT_3D ( 'NONE', #365, #286, #497 ) ;
#742 = VECTOR ( 'NONE', #429, 39.37007874015748143 ) ;
#743 = ORIENTED_EDGE ( 'NONE', *, *, #238, .F. ) ;
#744 = ORIENTED_EDGE ( 'NONE', *, *, #480, .F. ) ;
#745 = ORIENTED_EDGE ( 'NONE', *, *, #156, .T. ) ;
#746 = CARTESIAN_POINT ( 'NONE',  ( 0.0000000000000000000, 0.1616116523516815395, 0.1616116523516815395 ) ) ;
#747 = EDGE_CURVE ( 'NONE', #451, #166, #882, .T. ) ;
#748 = DIRECTION ( 'NONE',  ( 0.0000000000000000000, 0.7071067811865474617, 0.7071067811865474617 ) ) ;
#749 = CARTESIAN_POINT ( 'NONE',  ( 0.0000000000000000000, 0.8383883476483185992, 0.8383883476483185992 ) ) ;
#750 = DIRECTION ( 'NONE',  ( -1.000000000000000000, 0.0000000000000000000, 0.0000000000000000000 ) ) ;
#751 = EDGE_CURVE ( 'NONE', #896, #231, #493, .T. ) ;
#752 = CARTESIAN_POINT ( 'NONE',  ( 0.0000000000000000000, 0.8750000000000001110, 0.8750000000000001110 ) ) ;
#753 = DIRECTION ( 'NONE',  ( 0.0000000000000000000, 1.000000000000000000, 0.0000000000000000000 ) ) ;
#754 = CIRCLE ( 'NONE', #616, 0.1250000000000000833 ) ;
#755 = VERTEX_POINT ( 'NONE', #360 ) ;
#756 = DIRECTION ( 'NONE',  ( -1.000000000000000000, 0.0000000000000000000, 0.0000000000000000000 ) ) ;
#757 = SURFACE_SIDE_STYLE ('',( #126 ) ) ;
#758 = EDGE_LOOP ( 'NONE', ( #275, #631, #400, #846 ) ) ;
#759 = ORIENTED_EDGE ( 'NONE', *, *, #448, .T. ) ;
#760 = CARTESIAN_POINT ( 'NONE',  ( 11.00000000000000000, 0.8750000000000001110, 0.8750000000000001110 ) ) ;
#761 = CARTESIAN_POINT ( 'NONE',  ( 0.0000000000000000000, 0.2500000000000000000, 0.7500000000000001110 ) ) ;
#762 = AXIS2_PLACEMENT_3D ( 'NONE', #417, #355, #640 ) ;
#763 = CARTESIAN_POINT ( 'NONE',  ( 0.0000000000000000000, 0.8750000000000001110, 1.000000000000000000 ) ) ;
#764 = DIRECTION ( 'NONE',  ( 0.0000000000000000000, 0.7071067811865476838, -0.7071067811865475727 ) ) ;
#765 = CARTESIAN_POINT ( 'NONE',  ( 0.0000000000000000000, 0.1250000000000000000, 0.2500000000000000000 ) ) ;
#766 = EDGE_CURVE ( 'NONE', #384, #181, #834, .T. ) ;
#767 = CYLINDRICAL_SURFACE ( 'NONE', #723, 0.1250000000000001110 ) ;
#768 = CARTESIAN_POINT ( 'NONE',  ( 11.00000000000000000, 0.8383883476483185992, 0.8383883476483185992 ) ) ;
#769 = CARTESIAN_POINT ( 'NONE',  ( 11.00000000000000000, 0.1250000000000000000, 0.1250000000000000000 ) ) ;
#770 = VECTOR ( 'NONE', #608, 39.37007874015748143 ) ;
#771 = ADVANCED_FACE ( 'NONE', ( #120, #217 ), #721, .T. ) ;
#772 = ORIENTED_EDGE ( 'NONE', *, *, #693, .F. ) ;
#773 = CARTESIAN_POINT ( 'NONE',  ( 11.00000000000000000, 0.1250000000000000000, 0.7500000000000001110 ) ) ;
#774 = CARTESIAN_POINT ( 'NONE',  ( 0.0000000000000000000, 0.8750000000000001110, 0.0000000000000000000 ) ) ;
#775 = LINE ( 'NONE', #168, #269 ) ;
#776 = CARTESIAN_POINT ( 'NONE',  ( 11.00000000000000000, 0.9633883476483184882, 0.9633883476483184882 ) ) ;
#777 = CARTESIAN_POINT ( 'NONE',  ( 0.0000000000000000000, 0.8383883476483185992, 0.1616116523516814840 ) ) ;
#778 = DIRECTION ( 'NONE',  ( 0.0000000000000000000, 0.7071067811865474617, 0.7071067811865474617 ) ) ;
#779 = VECTOR ( 'NONE', #822, 39.37007874015748143 ) ;
#780 = ORIENTED_EDGE ( 'NONE', *, *, #270, .T. ) ;
#781 = CARTESIAN_POINT ( 'NONE',  ( 0.0000000000000000000, 0.8750000000000001110, 0.1250000000000000000 ) ) ;
#782 = ORIENTED_EDGE ( 'NONE', *, *, #798, .F. ) ;
#783 = VERTEX_POINT ( 'NONE', #219 ) ;
#784 = FACE_OUTER_BOUND ( 'NONE', #332, .T. ) ;
#785 = CARTESIAN_POINT ( 'NONE',  ( 11.00000000000000000, 0.1250000000000000000, 0.0000000000000000000 ) ) ;
#786 = EDGE_CURVE ( 'NONE', #811, #101, #35, .T. ) ;
#787 = DIRECTION ( 'NONE',  ( 0.0000000000000000000, 5.827942386483758821E-17, 1.000000000000000000 ) ) ;
#788 = DIRECTION ( 'NONE',  ( 0.0000000000000000000, -1.000000000000000000, 0.0000000000000000000 ) ) ;
#789 = LINE ( 'NONE', #632, #309 ) ;
#790 = EDGE_CURVE ( 'NONE', #676, #117, #55, .T. ) ;
#791 = LINE ( 'NONE', #637, #264 ) ;
#792 = CIRCLE ( 'NONE', #38, 0.1250000000000001110 ) ;
#793 = CARTESIAN_POINT ( 'NONE',  ( 0.0000000000000000000, 0.8750000000000001110, 0.8750000000000001110 ) ) ;
#794 = ORIENTED_EDGE ( 'NONE', *, *, #177, .T. ) ;
#795 = AXIS2_PLACEMENT_3D ( 'NONE', #445, #868, #232 ) ;
#796 = EDGE_LOOP ( 'NONE', ( #492, #688, #312, #503 ) ) ;
#797 = PLANE ( 'NONE',  #205 ) ;
#798 = EDGE_CURVE ( 'NONE', #833, #9, #305, .T. ) ;
#799 = DIRECTION ( 'NONE',  ( 0.0000000000000000000, 0.7071067811865474617, -0.7071067811865474617 ) ) ;
#800 = PRODUCT_CONTEXT ( 'NONE', #306, 'mechanical' ) ;
#801 = CYLINDRICAL_SURFACE ( 'NONE', #858, 0.1250000000000001110 ) ;
#802 = ORIENTED_EDGE ( 'NONE', *, *, #448, .F. ) ;
#803 = EDGE_LOOP ( 'NONE', ( #235, #143, #190, #267 ) ) ;
#804 = DIRECTION ( 'NONE',  ( 0.0000000000000000000, 0.0000000000000000000, 1.000000000000000000 ) ) ;
#805 = AXIS2_PLACEMENT_3D ( 'NONE', #853, #850, #19 ) ;
#806 = VECTOR ( 'NONE', #139, 39.37007874015748143 ) ;
#807 = LINE ( 'NONE', #285, #626 ) ;
#808 = ORIENTED_EDGE ( 'NONE', *, *, #766, .F. ) ;
#809 = ORIENTED_EDGE ( 'NONE', *, *, #610, .T. ) ;
#810 = AXIS2_PLACEMENT_3D ( 'NONE', #752, #182, #821 ) ;
#811 = VERTEX_POINT ( 'NONE', #84 ) ;
#812 = FACE_OUTER_BOUND ( 'NONE', #25, .T. ) ;
#813 = EDGE_CURVE ( 'NONE', #119, #202, #83, .T. ) ;
#814 = AXIS2_PLACEMENT_3D ( 'NONE', #140, #63, #136 ) ;
#815 = LINE ( 'NONE', #635, #88 ) ;
#816 = CARTESIAN_POINT ( 'NONE',  ( 11.00000000000000000, 0.1250000000000000000, 0.2500000000000000000 ) ) ;
#817 = CARTESIAN_POINT ( 'NONE',  ( 11.00000000000000000, 0.8750000000000001110, 0.1250000000000000000 ) ) ;
#818 = CIRCLE ( 'NONE', #810, 0.1250000000000001110 ) ;
#819 = ORIENTED_EDGE ( 'NONE', *, *, #270, .F. ) ;
#820 = ORIENTED_EDGE ( 'NONE', *, *, #59, .F. ) ;
#821 = DIRECTION ( 'NONE',  ( 0.0000000000000000000, 0.7071067811865474617, 0.7071067811865474617 ) ) ;
#822 = DIRECTION ( 'NONE',  ( -1.000000000000000000, 0.0000000000000000000, 0.0000000000000000000 ) ) ;
#823 = DIRECTION ( 'NONE',  ( 0.0000000000000000000, 0.7071067811865474617, 0.7071067811865474617 ) ) ;
#824 = CARTESIAN_POINT ( 'NONE',  ( 0.0000000000000000000, 0.8750000000000001110, 0.2500000000000000000 ) ) ;
#825 = DIRECTION ( 'NONE',  ( -1.000000000000000000, 0.0000000000000000000, 0.0000000000000000000 ) ) ;
#826 = EDGE_CURVE ( 'NONE', #303, #594, #258, .T. ) ;
#827 = CARTESIAN_POINT ( 'NONE',  ( 0.0000000000000000000, 0.1250000000000000000, 0.8750000000000001110 ) ) ;
#828 = DIRECTION ( 'NONE',  ( 1.000000000000000000, 0.0000000000000000000, 0.0000000000000000000 ) ) ;
#829 = VECTOR ( 'NONE', #700, 39.37007874015748143 ) ;
#830 = VECTOR ( 'NONE', #544, 39.37007874015748143 ) ;
#831 = ORIENTED_EDGE ( 'NONE', *, *, #418, .F. ) ;
#832 = DIRECTION ( 'NONE',  ( 1.000000000000000000, 0.0000000000000000000, 0.0000000000000000000 ) ) ;
#833 = VERTEX_POINT ( 'NONE', #356 ) ;
#834 = CIRCLE ( 'NONE', #4, 0.1250000000000001110 ) ;
#835 = ADVANCED_FACE ( 'NONE', ( #784 ), #797, .T. ) ;
#836 = DIRECTION ( 'NONE',  ( -1.000000000000000000, 0.0000000000000000000, 0.0000000000000000000 ) ) ;
#837 = AXIS2_PLACEMENT_3D ( 'NONE', #621, #888, #486 ) ;
#838 = CARTESIAN_POINT ( 'NONE',  ( 11.00000000000000000, 0.0000000000000000000, 1.000000000000000000 ) ) ;
#839 = EDGE_CURVE ( 'NONE', #682, #98, #597, .T. ) ;
#840 = DIRECTION ( 'NONE',  ( -1.000000000000000000, 0.0000000000000000000, 0.0000000000000000000 ) ) ;
#841 = CYLINDRICAL_SURFACE ( 'NONE', #99, 0.1250000000000001110 ) ;
#842 = ORIENTED_EDGE ( 'NONE', *, *, #839, .T. ) ;
#843 = ORIENTED_EDGE ( 'NONE', *, *, #627, .F. ) ;
#844 = CARTESIAN_POINT ( 'NONE',  ( 0.0000000000000000000, 0.9633883476483185992, 0.9633883476483185992 ) ) ;
#845 = CARTESIAN_POINT ( 'NONE',  ( 11.00000000000000000, 0.8750000000000001110, 0.7500000000000001110 ) ) ;
#846 = ORIENTED_EDGE ( 'NONE', *, *, #786, .T. ) ;
#847 = CARTESIAN_POINT ( 'NONE',  ( 0.0000000000000000000, 0.8750000000000001110, 0.1250000000000000000 ) ) ;
#848 = DIRECTION ( 'NONE',  ( 0.0000000000000000000, 0.0000000000000000000, -1.000000000000000000 ) ) ;
#849 = CARTESIAN_POINT ( 'NONE',  ( 0.0000000000000000000, 1.000000000000000000, 0.8750000000000001110 ) ) ;
#850 = DIRECTION ( 'NONE',  ( 1.000000000000000000, 0.0000000000000000000, 0.0000000000000000000 ) ) ;
#851 = VECTOR ( 'NONE', #655, 39.37007874015748143 ) ;
#852 = CARTESIAN_POINT ( 'NONE',  ( 0.0000000000000000000, 1.000000000000000000, 0.1250000000000000000 ) ) ;
#853 = CARTESIAN_POINT ( 'NONE',  ( 0.0000000000000000000, 0.8750000000000001110, 0.1250000000000000000 ) ) ;
#854 = AXIS2_PLACEMENT_3D ( 'NONE', #656, #291, #367 ) ;
#855 = ORIENTED_EDGE ( 'NONE', *, *, #563, .T. ) ;
#856 = ORIENTED_EDGE ( 'NONE', *, *, #563, .F. ) ;
#857 = DIRECTION ( 'NONE',  ( -1.000000000000000000, 0.0000000000000000000, 0.0000000000000000000 ) ) ;
#858 = AXIS2_PLACEMENT_3D ( 'NONE', #114, #188, #539 ) ;
#859 = DIRECTION ( 'NONE',  ( -1.000000000000000000, 0.0000000000000000000, 0.0000000000000000000 ) ) ;
#860 = CARTESIAN_POINT ( 'NONE',  ( 0.0000000000000000000, 1.000000000000000000, 1.000000000000000000 ) ) ;
#861 = FACE_OUTER_BOUND ( 'NONE', #665, .T. ) ;
#862 = ORIENTED_EDGE ( 'NONE', *, *, #730, .T. ) ;
#863 = CARTESIAN_POINT ( 'NONE',  ( 0.0000000000000000000, 1.000000000000000000, 0.0000000000000000000 ) ) ;
#864 = ORIENTED_EDGE ( 'NONE', *, *, #747, .T. ) ;
#865 = AXIS2_PLACEMENT_3D ( 'NONE', #509, #857, #584 ) ;
#866 = ORIENTED_EDGE ( 'NONE', *, *, #27, .F. ) ;
#867 = VECTOR ( 'NONE', #220, 39.37007874015748143 ) ;
#868 = DIRECTION ( 'NONE',  ( -1.000000000000000000, 0.0000000000000000000, 0.0000000000000000000 ) ) ;
#869 = DIRECTION ( 'NONE',  ( -1.000000000000000000, 0.0000000000000000000, 0.0000000000000000000 ) ) ;
#870 = APPLICATION_PROTOCOL_DEFINITION ( 'draft international standard', 'automotive_design', 1998, #734 ) ;
#871 = CIRCLE ( 'NONE', #424, 0.1250000000000001110 ) ;
#872 = LINE ( 'NONE', #650, #179 ) ;
#873 = EDGE_CURVE ( 'NONE', #362, #481, #775, .T. ) ;
#874 = VERTEX_POINT ( 'NONE', #103 ) ;
#875 = ORIENTED_EDGE ( 'NONE', *, *, #644, .T. ) ;
#876 = ORIENTED_EDGE ( 'NONE', *, *, #543, .T. ) ;
#877 = DIRECTION ( 'NONE',  ( 0.0000000000000000000, -0.7071067811865475727, 0.7071067811865476838 ) ) ;
#878 = CIRCLE ( 'NONE', #671, 0.1250000000000001110 ) ;
#879 = ORIENTED_EDGE ( 'NONE', *, *, #314, .F. ) ;
#880 = EDGE_CURVE ( 'NONE', #722, #427, #402, .T. ) ;
#881 = ORIENTED_EDGE ( 'NONE', *, *, #196, .F. ) ;
#882 = CIRCLE ( 'NONE', #673, 0.1250000000000001110 ) ;
#883 = DIRECTION ( 'NONE',  ( -1.000000000000000000, 0.0000000000000000000, 0.0000000000000000000 ) ) ;
#884 = CARTESIAN_POINT ( 'NONE',  ( 0.0000000000000000000, 0.1616116523516815395, 0.8383883476483185992 ) ) ;
#885 = DIRECTION ( 'NONE',  ( 0.0000000000000000000, 0.0000000000000000000, 1.000000000000000000 ) ) ;
#886 = DIRECTION ( 'NONE',  ( 0.0000000000000000000, -0.7071067811865475727, -0.7071067811865475727 ) ) ;
#887 = LINE ( 'NONE', #537, #396 ) ;
#888 = DIRECTION ( 'NONE',  ( -1.000000000000000000, 0.0000000000000000000, 0.0000000000000000000 ) ) ;
#889 = CARTESIAN_POINT ( 'NONE',  ( 11.00000000000000000, 0.8750000000000001110, 1.000000000000000000 ) ) ;
#890 = FACE_OUTER_BOUND ( 'NONE', #667, .T. ) ;
#891 = ORIENTED_EDGE ( 'NONE', *, *, #354, .F. ) ;
#892 = EDGE_LOOP ( 'NONE', ( #881, #389, #517, #842 ) ) ;
#893 = CARTESIAN_POINT ( 'NONE',  ( 11.00000000000000000, 0.8750000000000001110, 0.8750000000000001110 ) ) ;
#894 = FILL_AREA_STYLE ('',( #406 ) ) ;
#895 = CARTESIAN_POINT ( 'NONE',  ( 11.00000000000000000, 0.8383883476483185992, 0.1616116523516815395 ) ) ;
#896 = VERTEX_POINT ( 'NONE', #297 ) ;
#897 = AXIS2_PLACEMENT_3D ( 'NONE', #30, #518, #169 ) ;
#898 = DIRECTION ( 'NONE',  ( 0.0000000000000000000, 0.7071067811865474617, 0.7071067811865474617 ) ) ;
#899 = CARTESIAN_POINT ( 'NONE',  ( 11.00000000000000000, 0.1250000000000000000, 0.1250000000000000000 ) ) ;
#900 = ADVANCED_FACE ( 'NONE', ( #812 ), #377, .T. ) ;
#901 = EDGE_CURVE ( 'NONE', #89, #100, #206, .T. ) ;
#902 = CARTESIAN_POINT ( 'NONE',  ( 0.0000000000000000000, 0.1250000000000000000, 0.8750000000000001110 ) ) ;
#903 = CYLINDRICAL_SURFACE ( 'NONE', #589, 0.1250000000000001110 ) ;
#904 = LINE ( 'NONE', #712, #521 ) ;
#905 = FACE_OUTER_BOUND ( 'NONE', #165, .T. ) ;
#906 = DIRECTION ( 'NONE',  ( 0.0000000000000000000, 1.000000000000000000, -5.827942386483758821E-17 ) ) ;
#907 = ORIENTED_EDGE ( 'NONE', *, *, #739, .T. ) ;
ENDSEC;
END-ISO-10303-21;
