ISO-10303-21;
HEADER;
FILE_DESCRIPTION (( 'STEP AP214' ),
    '1' );
FILE_NAME ('Tread.step',
    '2018-09-03T05:32:47',
    ( '' ),
    ( '' ),
    'SwSTEP 2.0',
    'SolidWorks 2018',
    '' );
FILE_SCHEMA (( 'AUTOMOTIVE_DESIGN' ));
ENDSEC;

DATA;
#1 = CARTESIAN_POINT ( 'NONE',  ( 0.0000000000000000000, 0.0000000000000000000, 0.0000000000000000000 ) ) ;
#2 = CARTESIAN_POINT ( 'NONE',  ( -0.7500000319142972049, 0.0000000000000000000, 0.0000000000000000000 ) ) ;
#3 = VERTEX_POINT ( 'NONE', #301 ) ;
#4 = SURFACE_STYLE_USAGE ( .BOTH. , #164 ) ;
#5 = DIRECTION ( 'NONE',  ( 1.000000000000000000, 0.0000000000000000000, 0.0000000000000000000 ) ) ;
#6 = DIRECTION ( 'NONE',  ( 0.0000000000000000000, 0.0000000000000000000, -1.000000000000000000 ) ) ;
#7 = VERTEX_POINT ( 'NONE', #46 ) ;
#8 = ADVANCED_BREP_SHAPE_REPRESENTATION ( 'Tread', ( #93, #130 ), #153 ) ;
#9 = CIRCLE ( 'NONE', #197, 2.750000095742893613 ) ;
#10 = DIRECTION ( 'NONE',  ( 0.0000000000000000000, -1.000000000000000000, 0.0000000000000000000 ) ) ;
#11 = ORIENTED_EDGE ( 'NONE', *, *, #170, .T. ) ;
#12 = ORIENTED_EDGE ( 'NONE', *, *, #170, .F. ) ;
#13 = AXIS2_PLACEMENT_3D ( 'NONE', #213, #327, #100 ) ;
#14 = ORIENTED_EDGE ( 'NONE', *, *, #321, .F. ) ;
#15 = TOROIDAL_SURFACE ( 'NONE', #201, 2.750000095742893613, 0.2500000000000000000 ) ;
#16 = PRESENTATION_LAYER_ASSIGNMENT (  '', '', ( #186 ) ) ;
#17 = VECTOR ( 'NONE', #62, 39.37007874015748143 ) ;
#18 = DIRECTION ( 'NONE',  ( 0.0000000000000000000, 1.000000000000000000, -1.224646799147353207E-16 ) ) ;
#19 = AXIS2_PLACEMENT_3D ( 'NONE', #223, #363, #332 ) ;
#20 = CARTESIAN_POINT ( 'NONE',  ( 1.000000031914299203, 3.520859664799868793E-16, 2.750000095742893613 ) ) ;
#21 = EDGE_CURVE ( 'NONE', #358, #189, #247, .T. ) ;
#22 = VERTEX_POINT ( 'NONE', #344 ) ;
#23 = DIRECTION ( 'NONE',  ( 0.0000000000000000000, 1.000000000000000000, 0.0000000000000000000 ) ) ;
#24 = DIRECTION ( 'NONE',  ( 0.0000000000000000000, 0.0000000000000000000, -1.000000000000000000 ) ) ;
#25 = APPLICATION_PROTOCOL_DEFINITION ( 'draft international standard', 'automotive_design', 1998, #83 ) ;
#26 = DIRECTION ( 'NONE',  ( 1.000000000000000000, 0.0000000000000000000, 0.0000000000000000000 ) ) ;
#27 = DIRECTION ( 'NONE',  ( -1.000000000000000000, 0.0000000000000000000, 0.0000000000000000000 ) ) ;
#28 = DIRECTION ( 'NONE',  ( 0.0000000000000000000, 0.0000000000000000000, -1.000000000000000000 ) ) ;
#29 = FACE_OUTER_BOUND ( 'NONE', #167, .T. ) ;
#30 = DIRECTION ( 'NONE',  ( 1.000000000000000000, 0.0000000000000000000, 0.0000000000000000000 ) ) ;
#31 = DIRECTION ( 'NONE',  ( 0.0000000000000000000, 0.0000000000000000000, -1.000000000000000000 ) ) ;
#32 = STYLED_ITEM ( 'NONE', ( #325 ), #93 ) ;
#33 = CARTESIAN_POINT ( 'NONE',  ( -1.000000031914299203, 2.750000095742893613, 0.0000000000000000000 ) ) ;
#34 = VERTEX_POINT ( 'NONE', #226 ) ;
#35 = CIRCLE ( 'NONE', #261, 0.2499999999999998057 ) ;
#36 =( CONVERSION_BASED_UNIT ( 'INCH', #103 ) LENGTH_UNIT ( ) NAMED_UNIT ( #91 ) );
#37 = AXIS2_PLACEMENT_3D ( 'NONE', #79, #136, #338 ) ;
#38 = ADVANCED_FACE ( 'NONE', ( #160 ), #92, .T. ) ;
#39 = FACE_BOUND ( 'NONE', #41, .T. ) ;
#40 = FACE_OUTER_BOUND ( 'NONE', #101, .T. ) ;
#41 = EDGE_LOOP ( 'NONE', ( #11, #296 ) ) ;
#42 = CIRCLE ( 'NONE', #289, 3.000000095742893169 ) ;
#43 = AXIS2_PLACEMENT_3D ( 'NONE', #288, #86, #313 ) ;
#44 = ORIENTED_EDGE ( 'NONE', *, *, #365, .T. ) ;
#45 = EDGE_CURVE ( 'NONE', #7, #300, #236, .T. ) ;
#46 = CARTESIAN_POINT ( 'NONE',  ( 0.7500000319142972049, -3.000000095742893169, -3.673940514693287236E-16 ) ) ;
#47 = CIRCLE ( 'NONE', #206, 3.000000095742893169 ) ;
#48 = AXIS2_PLACEMENT_3D ( 'NONE', #277, #163, #80 ) ;
#49 = DIRECTION ( 'NONE',  ( 0.0000000000000000000, 1.000000000000000000, -1.224646799147353207E-16 ) ) ;
#50 = ORIENTED_EDGE ( 'NONE', *, *, #21, .T. ) ;
#51 = SURFACE_STYLE_FILL_AREA ( #282 ) ;
#52 = DIRECTION ( 'NONE',  ( 0.0000000000000000000, 0.0000000000000000000, -1.000000000000000000 ) ) ;
#53 = CARTESIAN_POINT ( 'NONE',  ( -0.7500000319142972049, 0.0000000000000000000, -3.000000095742893169 ) ) ;
#54 =( NAMED_UNIT ( * ) SI_UNIT ( $, .STERADIAN. ) SOLID_ANGLE_UNIT ( ) );
#55 = ORIENTED_EDGE ( 'NONE', *, *, #255, .T. ) ;
#56 = CARTESIAN_POINT ( 'NONE',  ( 1.000000031914297205, 2.500000079785743790, 0.0000000000000000000 ) ) ;
#57 = CYLINDRICAL_SURFACE ( 'NONE', #19, 2.500000079785743790 ) ;
#58 = ADVANCED_FACE ( 'NONE', ( #320 ), #177, .T. ) ;
#59 = CARTESIAN_POINT ( 'NONE',  ( 1.000000031914299203, 0.0000000000000000000, 0.0000000000000000000 ) ) ;
#60 = ORIENTED_EDGE ( 'NONE', *, *, #321, .T. ) ;
#61 = DIRECTION ( 'NONE',  ( 1.000000000000000000, 0.0000000000000000000, 0.0000000000000000000 ) ) ;
#62 = DIRECTION ( 'NONE',  ( -1.000000000000000000, 0.0000000000000000000, 0.0000000000000000000 ) ) ;
#63 = AXIS2_PLACEMENT_3D ( 'NONE', #230, #10, #200 ) ;
#64 = CARTESIAN_POINT ( 'NONE',  ( -0.7500000319142972049, 0.0000000000000000000, 0.0000000000000000000 ) ) ;
#65 = ORIENTED_EDGE ( 'NONE', *, *, #266, .T. ) ;
#66 = CIRCLE ( 'NONE', #158, 3.000000095742893169 ) ;
#67 = AXIS2_PLACEMENT_3D ( 'NONE', #307, #134, #366 ) ;
#68 = AXIS2_PLACEMENT_3D ( 'NONE', #188, #221, #285 ) ;
#69 = PRODUCT ( 'Tread', 'Tread', '', ( #339 ) ) ;
#70 = ORIENTED_EDGE ( 'NONE', *, *, #173, .F. ) ;
#71 = EDGE_CURVE ( 'NONE', #72, #180, #333, .T. ) ;
#72 = VERTEX_POINT ( 'NONE', #89 ) ;
#73 = CIRCLE ( 'NONE', #298, 3.000000095742893169 ) ;
#74 = DIRECTION ( 'NONE',  ( -1.000000000000000000, 0.0000000000000000000, 0.0000000000000000000 ) ) ;
#75 = ORIENTED_EDGE ( 'NONE', *, *, #365, .F. ) ;
#76 = DIRECTION ( 'NONE',  ( 0.0000000000000000000, 0.0000000000000000000, -1.000000000000000000 ) ) ;
#77 = EDGE_LOOP ( 'NONE', ( #75, #204 ) ) ;
#78 = VECTOR ( 'NONE', #139, 39.37007874015748143 ) ;
#79 = CARTESIAN_POINT ( 'NONE',  ( 1.000000031914299203, 0.0000000000000000000, 0.0000000000000000000 ) ) ;
#80 = DIRECTION ( 'NONE',  ( 0.0000000000000000000, 0.0000000000000000000, -1.000000000000000000 ) ) ;
#81 = CARTESIAN_POINT ( 'NONE',  ( -1.000000031914297205, -2.500000079785743790, -3.061617095577738623E-16 ) ) ;
#82 = ORIENTED_EDGE ( 'NONE', *, *, #173, .T. ) ;
#83 = APPLICATION_CONTEXT ( 'automotive_design' ) ;
#84 = DIRECTION ( 'NONE',  ( 1.000000000000000000, 0.0000000000000000000, 0.0000000000000000000 ) ) ;
#85 =( NAMED_UNIT ( * ) SI_UNIT ( $, .STERADIAN. ) SOLID_ANGLE_UNIT ( ) );
#86 = DIRECTION ( 'NONE',  ( -1.000000000000000000, 0.0000000000000000000, 0.0000000000000000000 ) ) ;
#87 = ADVANCED_FACE ( 'NONE', ( #39, #174 ), #171, .T. ) ;
#88 = MECHANICAL_DESIGN_GEOMETRIC_PRESENTATION_REPRESENTATION (  '', ( #32 ), #231 ) ;
#89 = CARTESIAN_POINT ( 'NONE',  ( 0.7500000319142972049, 0.0000000000000000000, -3.000000095742893169 ) ) ;
#90 = VERTEX_POINT ( 'NONE', #113 ) ;
#91 = DIMENSIONAL_EXPONENTS ( 1.000000000000000000, 0.0000000000000000000, 0.0000000000000000000, 0.0000000000000000000, 0.0000000000000000000, 0.0000000000000000000, 0.0000000000000000000 ) ;
#92 = TOROIDAL_SURFACE ( 'NONE', #126, 2.750000095742893613, 0.2500000000000000000 ) ;
#93 = MANIFOLD_SOLID_BREP ( 'Imported1', #254 ) ;
#94 = ORIENTED_EDGE ( 'NONE', *, *, #348, .T. ) ;
#95 = EDGE_CURVE ( 'NONE', #300, #189, #47, .T. ) ;
#96 = COLOUR_RGB ( '',0.5647058823529411686, 0.5647058823529411686, 0.5647058823529411686 ) ;
#97 = FACE_BOUND ( 'NONE', #238, .T. ) ;
#98 = DIRECTION ( 'NONE',  ( 1.000000000000000000, 0.0000000000000000000, 0.0000000000000000000 ) ) ;
#99 = DIRECTION ( 'NONE',  ( -1.000000000000000000, 0.0000000000000000000, 0.0000000000000000000 ) ) ;
#100 = DIRECTION ( 'NONE',  ( 0.0000000000000000000, 0.0000000000000000000, -1.000000000000000000 ) ) ;
#101 = EDGE_LOOP ( 'NONE', ( #175, #286, #82, #292, #214 ) ) ;
#102 = DIRECTION ( 'NONE',  ( 1.000000000000000000, 0.0000000000000000000, 0.0000000000000000000 ) ) ;
#103 = LENGTH_MEASURE_WITH_UNIT ( LENGTH_MEASURE( 0.02539999999999999897 ), #199 );
#104 =( LENGTH_UNIT ( ) NAMED_UNIT ( * ) SI_UNIT ( $, .METRE. ) );
#105 = SURFACE_STYLE_FILL_AREA ( #142 ) ;
#106 = LINE ( 'NONE', #334, #190 ) ;
#107 = CARTESIAN_POINT ( 'NONE',  ( 1.000000031914297205, -2.500000079785743790, -3.061617095577738623E-16 ) ) ;
#108 = CARTESIAN_POINT ( 'NONE',  ( 1.000000031914297205, 2.500000079785743790, 0.0000000000000000000 ) ) ;
#109 =( CONVERSION_BASED_UNIT ( 'INCH', #294 ) LENGTH_UNIT ( ) NAMED_UNIT ( #140 ) );
#110 = CARTESIAN_POINT ( 'NONE',  ( -0.7500000319142972049, 0.0000000000000000000, -2.750000095742893613 ) ) ;
#111 = VERTEX_POINT ( 'NONE', #357 ) ;
#112 = ORIENTED_EDGE ( 'NONE', *, *, #154, .F. ) ;
#113 = CARTESIAN_POINT ( 'NONE',  ( 0.7500000319142972049, 3.673940514693287236E-16, 3.000000095742893169 ) ) ;
#114 = EDGE_CURVE ( 'NONE', #72, #111, #259, .T. ) ;
#115 = DIRECTION ( 'NONE',  ( 0.0000000000000000000, 0.0000000000000000000, -1.000000000000000000 ) ) ;
#116 = EDGE_CURVE ( 'NONE', #145, #34, #35, .T. ) ;
#117 = ADVANCED_FACE ( 'NONE', ( #29 ), #120, .T. ) ;
#118 = EDGE_LOOP ( 'NONE', ( #196, #137, #14, #297, #242 ) ) ;
#119 = ORIENTED_EDGE ( 'NONE', *, *, #246, .F. ) ;
#120 = CYLINDRICAL_SURFACE ( 'NONE', #235, 3.000000095742893169 ) ;
#121 = EDGE_CURVE ( 'NONE', #189, #3, #267, .T. ) ;
#122 = AXIS2_PLACEMENT_3D ( 'NONE', #2, #244, #28 ) ;
#123 = VERTEX_POINT ( 'NONE', #20 ) ;
#124 = CIRCLE ( 'NONE', #280, 2.750000095742893613 ) ;
#125 = CARTESIAN_POINT ( 'NONE',  ( 0.0000000000000000000, 0.0000000000000000000, 0.0000000000000000000 ) ) ;
#126 = AXIS2_PLACEMENT_3D ( 'NONE', #64, #61, #115 ) ;
#127 = COLOUR_RGB ( '',0.7921568627450980005, 0.8196078431372548767, 0.9333333333333333481 ) ;
#128 = CARTESIAN_POINT ( 'NONE',  ( -0.7500000319142972049, 3.367778814906449365E-16, 2.750000095742893613 ) ) ;
#129 = DIRECTION ( 'NONE',  ( -1.000000000000000000, 0.0000000000000000000, 0.0000000000000000000 ) ) ;
#130 = AXIS2_PLACEMENT_3D ( 'NONE', #1, #194, #312 ) ;
#131 = EDGE_LOOP ( 'NONE', ( #44, #147, #202, #328, #234 ) ) ;
#132 = CARTESIAN_POINT ( 'NONE',  ( -1.000000031914299203, 0.0000000000000000000, 0.0000000000000000000 ) ) ;
#133 = TOROIDAL_SURFACE ( 'NONE', #227, 2.750000095742893613, 0.2500000000000000000 ) ;
#134 = DIRECTION ( 'NONE',  ( 1.000000000000000000, 0.0000000000000000000, 0.0000000000000000000 ) ) ;
#135 = DIRECTION ( 'NONE',  ( 0.0000000000000000000, 0.0000000000000000000, -1.000000000000000000 ) ) ;
#136 = DIRECTION ( 'NONE',  ( 1.000000000000000000, 0.0000000000000000000, 0.0000000000000000000 ) ) ;
#137 = ORIENTED_EDGE ( 'NONE', *, *, #198, .T. ) ;
#138 = DIRECTION ( 'NONE',  ( 0.0000000000000000000, 0.0000000000000000000, -1.000000000000000000 ) ) ;
#139 = DIRECTION ( 'NONE',  ( -1.000000000000000000, 0.0000000000000000000, 0.0000000000000000000 ) ) ;
#140 = DIMENSIONAL_EXPONENTS ( 1.000000000000000000, 0.0000000000000000000, 0.0000000000000000000, 0.0000000000000000000, 0.0000000000000000000, 0.0000000000000000000, 0.0000000000000000000 ) ;
#141 = CARTESIAN_POINT ( 'NONE',  ( 0.0000000000000000000, -3.000000095742893169, -3.673940514693287236E-16 ) ) ;
#142 = FILL_AREA_STYLE ('',( #314 ) ) ;
#143 = EDGE_LOOP ( 'NONE', ( #329, #295, #345, #356 ) ) ;
#144 = SHAPE_DEFINITION_REPRESENTATION ( #323, #8 ) ;
#145 = VERTEX_POINT ( 'NONE', #217 ) ;
#146 = EDGE_CURVE ( 'NONE', #111, #90, #73, .T. ) ;
#147 = ORIENTED_EDGE ( 'NONE', *, *, #116, .T. ) ;
#148 = CIRCLE ( 'NONE', #122, 3.000000095742893169 ) ;
#149 = PRODUCT_DEFINITION_FORMATION_WITH_SPECIFIED_SOURCE ( 'ANY', '', #69, .NOT_KNOWN. ) ;
#150 = CYLINDRICAL_SURFACE ( 'NONE', #330, 2.500000079785743790 ) ;
#151 = CARTESIAN_POINT ( 'NONE',  ( 0.0000000000000000000, 2.500000079785743790, 0.0000000000000000000 ) ) ;
#152 = DIRECTION ( 'NONE',  ( 0.0000000000000000000, 0.0000000000000000000, -1.000000000000000000 ) ) ;
#153 =( GEOMETRIC_REPRESENTATION_CONTEXT ( 3 ) GLOBAL_UNCERTAINTY_ASSIGNED_CONTEXT ( ( #349 ) ) GLOBAL_UNIT_ASSIGNED_CONTEXT ( ( #367, #337, #54 ) ) REPRESENTATION_CONTEXT ( 'NONE', 'WORKASPACE' ) );
#154 = EDGE_CURVE ( 'NONE', #222, #22, #293, .T. ) ;
#155 = CARTESIAN_POINT ( 'NONE',  ( -1.000000031914297205, 0.0000000000000000000, 0.0000000000000000000 ) ) ;
#156 = ORIENTED_EDGE ( 'NONE', *, *, #121, .T. ) ;
#157 = DIRECTION ( 'NONE',  ( 0.0000000000000000000, 1.224646799147352961E-16, 1.000000000000000000 ) ) ;
#158 = AXIS2_PLACEMENT_3D ( 'NONE', #195, #248, #31 ) ;
#159 = DIRECTION ( 'NONE',  ( 1.000000000000000000, 0.0000000000000000000, 0.0000000000000000000 ) ) ;
#160 = FACE_OUTER_BOUND ( 'NONE', #361, .T. ) ;
#161 = CARTESIAN_POINT ( 'NONE',  ( -0.7500000319142972049, 0.0000000000000000000, 0.0000000000000000000 ) ) ;
#162 = ADVANCED_FACE ( 'NONE', ( #303 ), #150, .F. ) ;
#163 = DIRECTION ( 'NONE',  ( 1.000000000000000000, 0.0000000000000000000, 0.0000000000000000000 ) ) ;
#164 = SURFACE_SIDE_STYLE ('',( #51 ) ) ;
#165 = PRESENTATION_LAYER_ASSIGNMENT (  '', '', ( #32 ) ) ;
#166 = AXIS2_PLACEMENT_3D ( 'NONE', #56, #191, #6 ) ;
#167 = EDGE_LOOP ( 'NONE', ( #278, #119, #208, #322, #355, #55 ) ) ;
#168 = CIRCLE ( 'NONE', #352, 2.500000079785743790 ) ;
#169 = SURFACE_STYLE_USAGE ( .BOTH. , #343 ) ;
#170 = EDGE_CURVE ( 'NONE', #22, #262, #260, .T. ) ;
#171 = PLANE ( 'NONE',  #210 ) ;
#172 = UNCERTAINTY_MEASURE_WITH_UNIT (LENGTH_MEASURE( 1.000000000000000082E-05 ), #109, 'distance_accuracy_value', 'NONE');
#173 = EDGE_CURVE ( 'NONE', #7, #72, #237, .T. ) ;
#174 = FACE_OUTER_BOUND ( 'NONE', #77, .T. ) ;
#175 = ORIENTED_EDGE ( 'NONE', *, *, #198, .F. ) ;
#176 = EDGE_LOOP ( 'NONE', ( #60, #65 ) ) ;
#177 = CYLINDRICAL_SURFACE ( 'NONE', #43, 3.000000095742893169 ) ;
#178 = CARTESIAN_POINT ( 'NONE',  ( 0.0000000000000000000, 0.0000000000000000000, 0.0000000000000000000 ) ) ;
#179 = DIRECTION ( 'NONE',  ( 1.000000000000000000, 0.0000000000000000000, 0.0000000000000000000 ) ) ;
#180 = VERTEX_POINT ( 'NONE', #269 ) ;
#181 = CARTESIAN_POINT ( 'NONE',  ( 1.000000031914297205, 0.0000000000000000000, 0.0000000000000000000 ) ) ;
#182 = LENGTH_MEASURE_WITH_UNIT ( LENGTH_MEASURE( 0.02539999999999999897 ), #306 );
#183 = ORIENTED_EDGE ( 'NONE', *, *, #95, .F. ) ;
#184 = DIRECTION ( 'NONE',  ( 1.000000000000000000, 0.0000000000000000000, 0.0000000000000000000 ) ) ;
#185 = DIRECTION ( 'NONE',  ( 1.000000000000000000, 0.0000000000000000000, 0.0000000000000000000 ) ) ;
#186 = STYLED_ITEM ( 'NONE', ( #308 ), #8 ) ;
#187 = EDGE_CURVE ( 'NONE', #222, #228, #168, .T. ) ;
#188 = CARTESIAN_POINT ( 'NONE',  ( 1.000000031914297205, 0.0000000000000000000, 0.0000000000000000000 ) ) ;
#189 = VERTEX_POINT ( 'NONE', #53 ) ;
#190 = VECTOR ( 'NONE', #27, 39.37007874015748143 ) ;
#191 = DIRECTION ( 'NONE',  ( 1.000000000000000000, 0.0000000000000000000, 0.0000000000000000000 ) ) ;
#192 = APPLICATION_CONTEXT ( 'automotive_design' ) ;
#193 = CARTESIAN_POINT ( 'NONE',  ( -0.7500000319142972049, -3.000000095742893169, -3.673940514693287236E-16 ) ) ;
#194 = DIRECTION ( 'NONE',  ( 0.0000000000000000000, 0.0000000000000000000, 1.000000000000000000 ) ) ;
#195 = CARTESIAN_POINT ( 'NONE',  ( -0.7500000319142972049, 0.0000000000000000000, 0.0000000000000000000 ) ) ;
#196 = ORIENTED_EDGE ( 'NONE', *, *, #146, .T. ) ;
#197 = AXIS2_PLACEMENT_3D ( 'NONE', #364, #159, #138 ) ;
#198 = EDGE_CURVE ( 'NONE', #90, #123, #335, .T. ) ;
#199 =( LENGTH_UNIT ( ) NAMED_UNIT ( * ) SI_UNIT ( $, .METRE. ) );
#200 = DIRECTION ( 'NONE',  ( 0.0000000000000000000, 0.0000000000000000000, -1.000000000000000000 ) ) ;
#201 = AXIS2_PLACEMENT_3D ( 'NONE', #161, #281, #135 ) ;
#202 = ORIENTED_EDGE ( 'NONE', *, *, #207, .F. ) ;
#203 = FACE_OUTER_BOUND ( 'NONE', #212, .T. ) ;
#204 = ORIENTED_EDGE ( 'NONE', *, *, #348, .F. ) ;
#205 = ORIENTED_EDGE ( 'NONE', *, *, #224, .T. ) ;
#206 = AXIS2_PLACEMENT_3D ( 'NONE', #272, #102, #239 ) ;
#207 = EDGE_CURVE ( 'NONE', #3, #34, #148, .T. ) ;
#208 = ORIENTED_EDGE ( 'NONE', *, *, #146, .F. ) ;
#209 = FACE_OUTER_BOUND ( 'NONE', #118, .T. ) ;
#210 = AXIS2_PLACEMENT_3D ( 'NONE', #33, #290, #253 ) ;
#211 = ORIENTED_EDGE ( 'NONE', *, *, #45, .T. ) ;
#212 = EDGE_LOOP ( 'NONE', ( #341, #205, #12, #112 ) ) ;
#213 = CARTESIAN_POINT ( 'NONE',  ( 0.7500000319142972049, 0.0000000000000000000, 0.0000000000000000000 ) ) ;
#214 = ORIENTED_EDGE ( 'NONE', *, *, #266, .F. ) ;
#215 = CARTESIAN_POINT ( 'NONE',  ( 0.7500000319142972049, 3.367778814906449365E-16, 2.750000095742893613 ) ) ;
#216 = AXIS2_PLACEMENT_3D ( 'NONE', #360, #268, #152 ) ;
#217 = CARTESIAN_POINT ( 'NONE',  ( -1.000000031914299203, 3.520859664799868793E-16, 2.750000095742893613 ) ) ;
#218 = EDGE_LOOP ( 'NONE', ( #70, #211, #265, #156, #315, #243 ) ) ;
#219 = CIRCLE ( 'NONE', #37, 2.750000095742893613 ) ;
#220 = CARTESIAN_POINT ( 'NONE',  ( 0.7500000319142972049, 0.0000000000000000000, 0.0000000000000000000 ) ) ;
#221 = DIRECTION ( 'NONE',  ( 1.000000000000000000, 0.0000000000000000000, 0.0000000000000000000 ) ) ;
#222 = VERTEX_POINT ( 'NONE', #108 ) ;
#223 = CARTESIAN_POINT ( 'NONE',  ( 0.0000000000000000000, 0.0000000000000000000, 0.0000000000000000000 ) ) ;
#224 = EDGE_CURVE ( 'NONE', #228, #262, #229, .T. ) ;
#225 = DIRECTION ( 'NONE',  ( 0.0000000000000000000, 0.0000000000000000000, -1.000000000000000000 ) ) ;
#226 = CARTESIAN_POINT ( 'NONE',  ( -0.7500000319142972049, 3.673940514693287236E-16, 3.000000095742893169 ) ) ;
#227 = AXIS2_PLACEMENT_3D ( 'NONE', #220, #5, #279 ) ;
#228 = VERTEX_POINT ( 'NONE', #107 ) ;
#229 = LINE ( 'NONE', #271, #78 ) ;
#230 = CARTESIAN_POINT ( 'NONE',  ( 0.7500000319142972049, 0.0000000000000000000, -2.750000095742893613 ) ) ;
#231 =( GEOMETRIC_REPRESENTATION_CONTEXT ( 3 ) GLOBAL_UNCERTAINTY_ASSIGNED_CONTEXT ( ( #304 ) ) GLOBAL_UNIT_ASSIGNED_CONTEXT ( ( #36, #256, #291 ) ) REPRESENTATION_CONTEXT ( 'NONE', 'WORKASPACE' ) );
#232 = ADVANCED_FACE ( 'NONE', ( #209 ), #133, .T. ) ;
#233 = FACE_OUTER_BOUND ( 'NONE', #176, .T. ) ;
#234 = ORIENTED_EDGE ( 'NONE', *, *, #21, .F. ) ;
#235 = AXIS2_PLACEMENT_3D ( 'NONE', #178, #74, #23 ) ;
#236 = LINE ( 'NONE', #141, #17 ) ;
#237 = CIRCLE ( 'NONE', #13, 3.000000095742893169 ) ;
#238 = EDGE_LOOP ( 'NONE', ( #353, #270 ) ) ;
#239 = DIRECTION ( 'NONE',  ( 0.0000000000000000000, 0.0000000000000000000, -1.000000000000000000 ) ) ;
#240 = PRODUCT_RELATED_PRODUCT_CATEGORY ( 'part', '', ( #69 ) ) ;
#241 = CARTESIAN_POINT ( 'NONE',  ( -0.7500000319142972049, 0.0000000000000000000, 0.0000000000000000000 ) ) ;
#242 = ORIENTED_EDGE ( 'NONE', *, *, #114, .T. ) ;
#243 = ORIENTED_EDGE ( 'NONE', *, *, #114, .F. ) ;
#244 = DIRECTION ( 'NONE',  ( 1.000000000000000000, 0.0000000000000000000, 0.0000000000000000000 ) ) ;
#245 =( GEOMETRIC_REPRESENTATION_CONTEXT ( 3 ) GLOBAL_UNCERTAINTY_ASSIGNED_CONTEXT ( ( #172 ) ) GLOBAL_UNIT_ASSIGNED_CONTEXT ( ( #109, #284, #85 ) ) REPRESENTATION_CONTEXT ( 'NONE', 'WORKASPACE' ) );
#246 = EDGE_CURVE ( 'NONE', #90, #7, #42, .T. ) ;
#247 = CIRCLE ( 'NONE', #359, 0.2499999999999998057 ) ;
#248 = DIRECTION ( 'NONE',  ( 1.000000000000000000, 0.0000000000000000000, 0.0000000000000000000 ) ) ;
#249 = CIRCLE ( 'NONE', #257, 2.750000095742893613 ) ;
#250 = FILL_AREA_STYLE_COLOUR ( '', #127 ) ;
#251 = CARTESIAN_POINT ( 'NONE',  ( 0.7500000319142972049, 0.0000000000000000000, 0.0000000000000000000 ) ) ;
#252 = ORIENTED_EDGE ( 'NONE', *, *, #116, .F. ) ;
#253 = DIRECTION ( 'NONE',  ( 0.0000000000000000000, 0.0000000000000000000, 1.000000000000000000 ) ) ;
#254 = CLOSED_SHELL ( 'NONE', ( #232, #58, #318, #258, #346, #162, #87, #38, #117, #283 ) ) ;
#255 = EDGE_CURVE ( 'NONE', #34, #300, #66, .T. ) ;
#256 =( NAMED_UNIT ( * ) PLANE_ANGLE_UNIT ( ) SI_UNIT ( $, .RADIAN. ) );
#257 = AXIS2_PLACEMENT_3D ( 'NONE', #132, #26, #52 ) ;
#258 = ADVANCED_FACE ( 'NONE', ( #203 ), #57, .F. ) ;
#259 = CIRCLE ( 'NONE', #216, 3.000000095742893169 ) ;
#260 = CIRCLE ( 'NONE', #342, 2.500000079785743790 ) ;
#261 = AXIS2_PLACEMENT_3D ( 'NONE', #128, #49, #157 ) ;
#262 = VERTEX_POINT ( 'NONE', #81 ) ;
#263 = AXIS2_PLACEMENT_3D ( 'NONE', #215, #18, #340 ) ;
#264 = FACE_OUTER_BOUND ( 'NONE', #131, .T. ) ;
#265 = ORIENTED_EDGE ( 'NONE', *, *, #95, .T. ) ;
#266 = EDGE_CURVE ( 'NONE', #123, #180, #124, .T. ) ;
#267 = CIRCLE ( 'NONE', #287, 3.000000095742893169 ) ;
#268 = DIRECTION ( 'NONE',  ( 1.000000000000000000, 0.0000000000000000000, 0.0000000000000000000 ) ) ;
#269 = CARTESIAN_POINT ( 'NONE',  ( 1.000000031914299203, 0.0000000000000000000, -2.750000095742893613 ) ) ;
#270 = ORIENTED_EDGE ( 'NONE', *, *, #316, .F. ) ;
#271 = CARTESIAN_POINT ( 'NONE',  ( 0.0000000000000000000, -2.500000079785743790, -3.061617095577738623E-16 ) ) ;
#272 = CARTESIAN_POINT ( 'NONE',  ( -0.7500000319142972049, 0.0000000000000000000, 0.0000000000000000000 ) ) ;
#273 = MECHANICAL_DESIGN_GEOMETRIC_PRESENTATION_REPRESENTATION (  '', ( #186 ), #245 ) ;
#274 = EDGE_CURVE ( 'NONE', #111, #3, #106, .T. ) ;
#275 = CARTESIAN_POINT ( 'NONE',  ( 0.7500000319142972049, 0.0000000000000000000, 0.0000000000000000000 ) ) ;
#276 = PRODUCT_DEFINITION_CONTEXT ( 'detailed design', #83, 'design' ) ;
#277 = CARTESIAN_POINT ( 'NONE',  ( 0.7500000319142972049, 0.0000000000000000000, 0.0000000000000000000 ) ) ;
#278 = ORIENTED_EDGE ( 'NONE', *, *, #45, .F. ) ;
#279 = DIRECTION ( 'NONE',  ( 0.0000000000000000000, 0.0000000000000000000, -1.000000000000000000 ) ) ;
#280 = AXIS2_PLACEMENT_3D ( 'NONE', #59, #84, #305 ) ;
#281 = DIRECTION ( 'NONE',  ( 1.000000000000000000, 0.0000000000000000000, 0.0000000000000000000 ) ) ;
#282 = FILL_AREA_STYLE ('',( #250 ) ) ;
#283 = ADVANCED_FACE ( 'NONE', ( #40 ), #309, .T. ) ;
#284 =( NAMED_UNIT ( * ) PLANE_ANGLE_UNIT ( ) SI_UNIT ( $, .RADIAN. ) );
#285 = DIRECTION ( 'NONE',  ( 0.0000000000000000000, 0.0000000000000000000, -1.000000000000000000 ) ) ;
#286 = ORIENTED_EDGE ( 'NONE', *, *, #246, .T. ) ;
#287 = AXIS2_PLACEMENT_3D ( 'NONE', #241, #184, #76 ) ;
#288 = CARTESIAN_POINT ( 'NONE',  ( 0.0000000000000000000, 0.0000000000000000000, 0.0000000000000000000 ) ) ;
#289 = AXIS2_PLACEMENT_3D ( 'NONE', #251, #30, #336 ) ;
#290 = DIRECTION ( 'NONE',  ( -1.000000000000000000, 0.0000000000000000000, 0.0000000000000000000 ) ) ;
#291 =( NAMED_UNIT ( * ) SI_UNIT ( $, .STERADIAN. ) SOLID_ANGLE_UNIT ( ) );
#292 = ORIENTED_EDGE ( 'NONE', *, *, #71, .T. ) ;
#293 = LINE ( 'NONE', #151, #362 ) ;
#294 = LENGTH_MEASURE_WITH_UNIT ( LENGTH_MEASURE( 0.02539999999999999897 ), #104 );
#295 = ORIENTED_EDGE ( 'NONE', *, *, #316, .T. ) ;
#296 = ORIENTED_EDGE ( 'NONE', *, *, #324, .T. ) ;
#297 = ORIENTED_EDGE ( 'NONE', *, *, #71, .F. ) ;
#298 = AXIS2_PLACEMENT_3D ( 'NONE', #275, #98, #331 ) ;
#299 = DIRECTION ( 'NONE',  ( 0.0000000000000000000, 0.0000000000000000000, -1.000000000000000000 ) ) ;
#300 = VERTEX_POINT ( 'NONE', #193 ) ;
#301 = CARTESIAN_POINT ( 'NONE',  ( -0.7500000319142972049, 3.000000095742893169, 0.0000000000000000000 ) ) ;
#302 = DIRECTION ( 'NONE',  ( 0.0000000000000000000, 1.000000000000000000, 0.0000000000000000000 ) ) ;
#303 = FACE_OUTER_BOUND ( 'NONE', #143, .T. ) ;
#304 = UNCERTAINTY_MEASURE_WITH_UNIT (LENGTH_MEASURE( 1.000000000000000082E-05 ), #36, 'distance_accuracy_value', 'NONE');
#305 = DIRECTION ( 'NONE',  ( 0.0000000000000000000, 0.0000000000000000000, -1.000000000000000000 ) ) ;
#306 =( LENGTH_UNIT ( ) NAMED_UNIT ( * ) SI_UNIT ( $, .METRE. ) );
#307 = CARTESIAN_POINT ( 'NONE',  ( -1.000000031914297205, 0.0000000000000000000, 0.0000000000000000000 ) ) ;
#308 = PRESENTATION_STYLE_ASSIGNMENT (( #4 ) ) ;
#309 = TOROIDAL_SURFACE ( 'NONE', #48, 2.750000095742893613, 0.2500000000000000000 ) ;
#310 = APPLICATION_PROTOCOL_DEFINITION ( 'draft international standard', 'automotive_design', 1998, #192 ) ;
#311 = PLANE ( 'NONE',  #166 ) ;
#312 = DIRECTION ( 'NONE',  ( 1.000000000000000000, 0.0000000000000000000, 0.0000000000000000000 ) ) ;
#313 = DIRECTION ( 'NONE',  ( 0.0000000000000000000, 1.000000000000000000, 0.0000000000000000000 ) ) ;
#314 = FILL_AREA_STYLE_COLOUR ( '', #96 ) ;
#315 = ORIENTED_EDGE ( 'NONE', *, *, #274, .F. ) ;
#316 = EDGE_CURVE ( 'NONE', #228, #222, #347, .T. ) ;
#317 = DIRECTION ( 'NONE',  ( 0.0000000000000000000, -1.000000000000000000, 0.0000000000000000000 ) ) ;
#318 = ADVANCED_FACE ( 'NONE', ( #264 ), #15, .T. ) ;
#319 = DIMENSIONAL_EXPONENTS ( 1.000000000000000000, 0.0000000000000000000, 0.0000000000000000000, 0.0000000000000000000, 0.0000000000000000000, 0.0000000000000000000, 0.0000000000000000000 ) ;
#320 = FACE_OUTER_BOUND ( 'NONE', #218, .T. ) ;
#321 = EDGE_CURVE ( 'NONE', #180, #123, #219, .T. ) ;
#322 = ORIENTED_EDGE ( 'NONE', *, *, #274, .T. ) ;
#323 = PRODUCT_DEFINITION_SHAPE ( 'NONE', 'NONE',  #351 ) ;
#324 = EDGE_CURVE ( 'NONE', #262, #22, #326, .T. ) ;
#325 = PRESENTATION_STYLE_ASSIGNMENT (( #169 ) ) ;
#326 = CIRCLE ( 'NONE', #67, 2.500000079785743790 ) ;
#327 = DIRECTION ( 'NONE',  ( 1.000000000000000000, 0.0000000000000000000, 0.0000000000000000000 ) ) ;
#328 = ORIENTED_EDGE ( 'NONE', *, *, #121, .F. ) ;
#329 = ORIENTED_EDGE ( 'NONE', *, *, #224, .F. ) ;
#330 = AXIS2_PLACEMENT_3D ( 'NONE', #125, #129, #302 ) ;
#331 = DIRECTION ( 'NONE',  ( 0.0000000000000000000, 0.0000000000000000000, -1.000000000000000000 ) ) ;
#332 = DIRECTION ( 'NONE',  ( 0.0000000000000000000, 1.000000000000000000, 0.0000000000000000000 ) ) ;
#333 = CIRCLE ( 'NONE', #63, 0.2499999999999998057 ) ;
#334 = CARTESIAN_POINT ( 'NONE',  ( 0.0000000000000000000, 3.000000095742893169, 0.0000000000000000000 ) ) ;
#335 = CIRCLE ( 'NONE', #263, 0.2499999999999998057 ) ;
#336 = DIRECTION ( 'NONE',  ( 0.0000000000000000000, 0.0000000000000000000, -1.000000000000000000 ) ) ;
#337 =( NAMED_UNIT ( * ) PLANE_ANGLE_UNIT ( ) SI_UNIT ( $, .RADIAN. ) );
#338 = DIRECTION ( 'NONE',  ( 0.0000000000000000000, 0.0000000000000000000, -1.000000000000000000 ) ) ;
#339 = PRODUCT_CONTEXT ( 'NONE', #192, 'mechanical' ) ;
#340 = DIRECTION ( 'NONE',  ( 0.0000000000000000000, 1.224646799147352961E-16, 1.000000000000000000 ) ) ;
#341 = ORIENTED_EDGE ( 'NONE', *, *, #187, .T. ) ;
#342 = AXIS2_PLACEMENT_3D ( 'NONE', #155, #185, #24 ) ;
#343 = SURFACE_SIDE_STYLE ('',( #105 ) ) ;
#344 = CARTESIAN_POINT ( 'NONE',  ( -1.000000031914297205, 2.500000079785743790, 0.0000000000000000000 ) ) ;
#345 = ORIENTED_EDGE ( 'NONE', *, *, #154, .T. ) ;
#346 = ADVANCED_FACE ( 'NONE', ( #233, #97 ), #311, .T. ) ;
#347 = CIRCLE ( 'NONE', #68, 2.500000079785743790 ) ;
#348 = EDGE_CURVE ( 'NONE', #145, #358, #249, .T. ) ;
#349 = UNCERTAINTY_MEASURE_WITH_UNIT (LENGTH_MEASURE( 1.000000000000000082E-05 ), #367, 'distance_accuracy_value', 'NONE');
#350 = ORIENTED_EDGE ( 'NONE', *, *, #255, .F. ) ;
#351 = PRODUCT_DEFINITION ( 'UNKNOWN', '', #149, #276 ) ;
#352 = AXIS2_PLACEMENT_3D ( 'NONE', #181, #179, #299 ) ;
#353 = ORIENTED_EDGE ( 'NONE', *, *, #187, .F. ) ;
#354 = CARTESIAN_POINT ( 'NONE',  ( -1.000000031914299203, 0.0000000000000000000, -2.750000095742893613 ) ) ;
#355 = ORIENTED_EDGE ( 'NONE', *, *, #207, .T. ) ;
#356 = ORIENTED_EDGE ( 'NONE', *, *, #324, .F. ) ;
#357 = CARTESIAN_POINT ( 'NONE',  ( 0.7500000319142972049, 3.000000095742893169, 0.0000000000000000000 ) ) ;
#358 = VERTEX_POINT ( 'NONE', #354 ) ;
#359 = AXIS2_PLACEMENT_3D ( 'NONE', #110, #317, #225 ) ;
#360 = CARTESIAN_POINT ( 'NONE',  ( 0.7500000319142972049, 0.0000000000000000000, 0.0000000000000000000 ) ) ;
#361 = EDGE_LOOP ( 'NONE', ( #252, #94, #50, #183, #350 ) ) ;
#362 = VECTOR ( 'NONE', #99, 39.37007874015748143 ) ;
#363 = DIRECTION ( 'NONE',  ( -1.000000000000000000, 0.0000000000000000000, 0.0000000000000000000 ) ) ;
#364 = CARTESIAN_POINT ( 'NONE',  ( -1.000000031914299203, 0.0000000000000000000, 0.0000000000000000000 ) ) ;
#365 = EDGE_CURVE ( 'NONE', #358, #145, #9, .T. ) ;
#366 = DIRECTION ( 'NONE',  ( 0.0000000000000000000, 0.0000000000000000000, -1.000000000000000000 ) ) ;
#367 =( CONVERSION_BASED_UNIT ( 'INCH', #182 ) LENGTH_UNIT ( ) NAMED_UNIT ( #319 ) );
ENDSEC;
END-ISO-10303-21;
