ISO-10303-21;
HEADER;
FILE_DESCRIPTION (( 'STEP AP214' ),
    '1' );
FILE_NAME ('Front Leaf Plate.step',
    '2018-09-03T05:52:09',
    ( '' ),
    ( '' ),
    'SwSTEP 2.0',
    'SolidWorks 2018',
    '' );
FILE_SCHEMA (( 'AUTOMOTIVE_DESIGN' ));
ENDSEC;

DATA;
#1 = STYLED_ITEM ( 'NONE', ( #16 ), #60 ) ;
#2 = ORIENTED_EDGE ( 'NONE', *, *, #103, .T. ) ;
#3 = PRODUCT_DEFINITION_CONTEXT ( 'detailed design', #33, 'design' ) ;
#4 =( CONVERSION_BASED_UNIT ( 'INCH', #165 ) LENGTH_UNIT ( ) NAMED_UNIT ( #128 ) );
#5 = VECTOR ( 'NONE', #71, 39.37007874015748143 ) ;
#6 = AXIS2_PLACEMENT_3D ( 'NONE', #15, #169, #83 ) ;
#7 = VERTEX_POINT ( 'NONE', #109 ) ;
#8 = APPLICATION_PROTOCOL_DEFINITION ( 'draft international standard', 'automotive_design', 1998, #32 ) ;
#9 = AXIS2_PLACEMENT_3D ( 'NONE', #90, #29, #43 ) ;
#10 = LINE ( 'NONE', #79, #88 ) ;
#11 = LINE ( 'NONE', #36, #77 ) ;
#12 = PRODUCT_RELATED_PRODUCT_CATEGORY ( 'part', '', ( #176 ) ) ;
#13 = DIRECTION ( 'NONE',  ( 0.0000000000000000000, 0.0000000000000000000, 1.000000000000000000 ) ) ;
#14 = DIRECTION ( 'NONE',  ( -1.000000000000000000, 0.0000000000000000000, 0.0000000000000000000 ) ) ;
#15 = CARTESIAN_POINT ( 'NONE',  ( 0.0000000000000000000, 0.0000000000000000000, 0.0000000000000000000 ) ) ;
#16 = PRESENTATION_STYLE_ASSIGNMENT (( #65 ) ) ;
#17 = ORIENTED_EDGE ( 'NONE', *, *, #151, .T. ) ;
#18 = ORIENTED_EDGE ( 'NONE', *, *, #179, .T. ) ;
#19 =( NAMED_UNIT ( * ) PLANE_ANGLE_UNIT ( ) SI_UNIT ( $, .RADIAN. ) );
#20 = EDGE_CURVE ( 'NONE', #34, #7, #98, .T. ) ;
#21 = AXIS2_PLACEMENT_3D ( 'NONE', #130, #99, #40 ) ;
#22 =( CONVERSION_BASED_UNIT ( 'INCH', #196 ) LENGTH_UNIT ( ) NAMED_UNIT ( #167 ) );
#23 = CARTESIAN_POINT ( 'NONE',  ( 12.12500000000000000, 0.1250000000000000000, -56.50000000000000000 ) ) ;
#24 = PRESENTATION_LAYER_ASSIGNMENT (  '', '', ( #1 ) ) ;
#25 = CARTESIAN_POINT ( 'NONE',  ( 12.12500000000000000, 0.1250000000000000000, 0.0000000000000000000 ) ) ;
#26 = ORIENTED_EDGE ( 'NONE', *, *, #137, .F. ) ;
#27 = ORIENTED_EDGE ( 'NONE', *, *, #103, .F. ) ;
#28 = PLANE ( 'NONE',  #44 ) ;
#29 = DIRECTION ( 'NONE',  ( -0.0000000000000000000, 1.000000000000000000, 0.0000000000000000000 ) ) ;
#30 = VECTOR ( 'NONE', #136, 39.37007874015748143 ) ;
#31 = PRESENTATION_STYLE_ASSIGNMENT (( #86 ) ) ;
#32 = APPLICATION_CONTEXT ( 'automotive_design' ) ;
#33 = APPLICATION_CONTEXT ( 'automotive_design' ) ;
#34 = VERTEX_POINT ( 'NONE', #114 ) ;
#35 = FACE_OUTER_BOUND ( 'NONE', #105, .T. ) ;
#36 = CARTESIAN_POINT ( 'NONE',  ( 12.12500000000000000, 0.1250000000000000000, 0.0000000000000000000 ) ) ;
#37 = VECTOR ( 'NONE', #149, 39.37007874015748143 ) ;
#38 = DIRECTION ( 'NONE',  ( -1.000000000000000000, 0.0000000000000000000, 0.0000000000000000000 ) ) ;
#39 = DIRECTION ( 'NONE',  ( 1.000000000000000000, 0.0000000000000000000, 0.0000000000000000000 ) ) ;
#40 = DIRECTION ( 'NONE',  ( 0.0000000000000000000, 0.0000000000000000000, 1.000000000000000000 ) ) ;
#41 = EDGE_CURVE ( 'NONE', #7, #64, #10, .T. ) ;
#42 = VECTOR ( 'NONE', #39, 39.37007874015748143 ) ;
#43 = DIRECTION ( 'NONE',  ( 1.000000000000000000, 0.0000000000000000000, 0.0000000000000000000 ) ) ;
#44 = AXIS2_PLACEMENT_3D ( 'NONE', #141, #63, #198 ) ;
#45 = VECTOR ( 'NONE', #168, 39.37007874015748143 ) ;
#46 = ORIENTED_EDGE ( 'NONE', *, *, #41, .T. ) ;
#47 = VECTOR ( 'NONE', #101, 39.37007874015748143 ) ;
#48 = FACE_OUTER_BOUND ( 'NONE', #74, .T. ) ;
#49 =( CONVERSION_BASED_UNIT ( 'INCH', #89 ) LENGTH_UNIT ( ) NAMED_UNIT ( #150 ) );
#50 = SURFACE_SIDE_STYLE ('',( #55 ) ) ;
#51 = CLOSED_SHELL ( 'NONE', ( #80, #186, #96, #82, #133, #192 ) ) ;
#52 = DIRECTION ( 'NONE',  ( 0.0000000000000000000, 1.000000000000000000, 0.0000000000000000000 ) ) ;
#53 = PLANE ( 'NONE',  #76 ) ;
#54 = CARTESIAN_POINT ( 'NONE',  ( 0.0000000000000000000, 0.0000000000000000000, 0.0000000000000000000 ) ) ;
#55 = SURFACE_STYLE_FILL_AREA ( #126 ) ;
#56 = CARTESIAN_POINT ( 'NONE',  ( 12.12500000000000000, 0.0000000000000000000, 0.0000000000000000000 ) ) ;
#57 = PLANE ( 'NONE',  #68 ) ;
#58 = ORIENTED_EDGE ( 'NONE', *, *, #78, .T. ) ;
#59 = EDGE_CURVE ( 'NONE', #121, #172, #11, .T. ) ;
#60 = ADVANCED_BREP_SHAPE_REPRESENTATION ( 'Front Leaf Plate', ( #122, #156 ), #184 ) ;
#61 = PLANE ( 'NONE',  #9 ) ;
#62 = CARTESIAN_POINT ( 'NONE',  ( 0.0000000000000000000, 0.0000000000000000000, 0.0000000000000000000 ) ) ;
#63 = DIRECTION ( 'NONE',  ( 1.000000000000000000, 0.0000000000000000000, 0.0000000000000000000 ) ) ;
#64 = VERTEX_POINT ( 'NONE', #146 ) ;
#65 = SURFACE_STYLE_USAGE ( .BOTH. , #50 ) ;
#66 = LINE ( 'NONE', #152, #5 ) ;
#67 = DIRECTION ( 'NONE',  ( -1.000000000000000000, 0.0000000000000000000, 0.0000000000000000000 ) ) ;
#68 = AXIS2_PLACEMENT_3D ( 'NONE', #100, #191, #171 ) ;
#69 = ORIENTED_EDGE ( 'NONE', *, *, #59, .F. ) ;
#70 = CARTESIAN_POINT ( 'NONE',  ( 0.0000000000000000000, 0.0000000000000000000, -56.50000000000000000 ) ) ;
#71 = DIRECTION ( 'NONE',  ( 0.0000000000000000000, 1.000000000000000000, 0.0000000000000000000 ) ) ;
#72 = SURFACE_STYLE_FILL_AREA ( #134 ) ;
#73 = ORIENTED_EDGE ( 'NONE', *, *, #142, .T. ) ;
#74 = EDGE_LOOP ( 'NONE', ( #46, #58, #202, #107 ) ) ;
#75 = EDGE_LOOP ( 'NONE', ( #205, #18, #69, #26 ) ) ;
#76 = AXIS2_PLACEMENT_3D ( 'NONE', #131, #38, #13 ) ;
#77 = VECTOR ( 'NONE', #148, 39.37007874015748143 ) ;
#78 = EDGE_CURVE ( 'NONE', #64, #81, #66, .T. ) ;
#79 = CARTESIAN_POINT ( 'NONE',  ( 12.12500000000000000, 0.0000000000000000000, -56.50000000000000000 ) ) ;
#80 = ADVANCED_FACE ( 'NONE', ( #48 ), #57, .T. ) ;
#81 = VERTEX_POINT ( 'NONE', #208 ) ;
#82 = ADVANCED_FACE ( 'NONE', ( #175 ), #53, .T. ) ;
#83 = DIRECTION ( 'NONE',  ( 1.000000000000000000, 0.0000000000000000000, 0.0000000000000000000 ) ) ;
#84 = MECHANICAL_DESIGN_GEOMETRIC_PRESENTATION_REPRESENTATION (  '', ( #1 ), #104 ) ;
#85 = VECTOR ( 'NONE', #14, 39.37007874015748143 ) ;
#86 = SURFACE_STYLE_USAGE ( .BOTH. , #118 ) ;
#87 = VECTOR ( 'NONE', #190, 39.37007874015748143 ) ;
#88 = VECTOR ( 'NONE', #67, 39.37007874015748143 ) ;
#89 = LENGTH_MEASURE_WITH_UNIT ( LENGTH_MEASURE( 0.02539999999999999897 ), #144 );
#90 = CARTESIAN_POINT ( 'NONE',  ( 6.062500000000000000, 0.0000000000000000000, -28.25000000000000000 ) ) ;
#91 = FILL_AREA_STYLE_COLOUR ( '', #110 ) ;
#92 =( GEOMETRIC_REPRESENTATION_CONTEXT ( 3 ) GLOBAL_UNCERTAINTY_ASSIGNED_CONTEXT ( ( #95 ) ) GLOBAL_UNIT_ASSIGNED_CONTEXT ( ( #22, #135, #193 ) ) REPRESENTATION_CONTEXT ( 'NONE', 'WORKASPACE' ) );
#93 = ORIENTED_EDGE ( 'NONE', *, *, #140, .T. ) ;
#94 = LINE ( 'NONE', #173, #45 ) ;
#95 = UNCERTAINTY_MEASURE_WITH_UNIT (LENGTH_MEASURE( 1.000000000000000082E-05 ), #22, 'distance_accuracy_value', 'NONE');
#96 = ADVANCED_FACE ( 'NONE', ( #35 ), #113, .T. ) ;
#97 = LINE ( 'NONE', #23, #85 ) ;
#98 = LINE ( 'NONE', #56, #37 ) ;
#99 = DIRECTION ( 'NONE',  ( 0.0000000000000000000, 1.000000000000000000, 0.0000000000000000000 ) ) ;
#100 = CARTESIAN_POINT ( 'NONE',  ( 12.12500000000000000, 0.0000000000000000000, -56.50000000000000000 ) ) ;
#101 = DIRECTION ( 'NONE',  ( 1.000000000000000000, 0.0000000000000000000, 0.0000000000000000000 ) ) ;
#102 = CARTESIAN_POINT ( 'NONE',  ( 12.12500000000000000, 0.0000000000000000000, 0.0000000000000000000 ) ) ;
#103 = EDGE_CURVE ( 'NONE', #143, #34, #125, .T. ) ;
#104 =( GEOMETRIC_REPRESENTATION_CONTEXT ( 3 ) GLOBAL_UNCERTAINTY_ASSIGNED_CONTEXT ( ( #158 ) ) GLOBAL_UNIT_ASSIGNED_CONTEXT ( ( #49, #19, #160 ) ) REPRESENTATION_CONTEXT ( 'NONE', 'WORKASPACE' ) );
#105 = EDGE_LOOP ( 'NONE', ( #2, #200, #166, #183 ) ) ;
#106 = APPLICATION_PROTOCOL_DEFINITION ( 'draft international standard', 'automotive_design', 1998, #33 ) ;
#107 = ORIENTED_EDGE ( 'NONE', *, *, #179, .F. ) ;
#108 = PRODUCT_DEFINITION_SHAPE ( 'NONE', 'NONE',  #127 ) ;
#109 = CARTESIAN_POINT ( 'NONE',  ( 12.12500000000000000, 0.0000000000000000000, -56.50000000000000000 ) ) ;
#110 = COLOUR_RGB ( '',0.7921568627450980005, 0.8196078431372548767, 0.9333333333333333481 ) ;
#111 = COLOUR_RGB ( '',0.7490196078431372584, 0.7490196078431372584, 0.7490196078431372584 ) ;
#112 = ORIENTED_EDGE ( 'NONE', *, *, #59, .T. ) ;
#113 = PLANE ( 'NONE',  #6 ) ;
#114 = CARTESIAN_POINT ( 'NONE',  ( 12.12500000000000000, 0.0000000000000000000, 0.0000000000000000000 ) ) ;
#115 = CARTESIAN_POINT ( 'NONE',  ( 0.0000000000000000000, 0.0000000000000000000, 0.0000000000000000000 ) ) ;
#116 = FACE_OUTER_BOUND ( 'NONE', #159, .T. ) ;
#117 = ORIENTED_EDGE ( 'NONE', *, *, #41, .F. ) ;
#118 = SURFACE_SIDE_STYLE ('',( #72 ) ) ;
#119 = VERTEX_POINT ( 'NONE', #170 ) ;
#120 = LINE ( 'NONE', #62, #138 ) ;
#121 = VERTEX_POINT ( 'NONE', #25 ) ;
#122 = MANIFOLD_SOLID_BREP ( 'Imported1', #51 ) ;
#123 =( NAMED_UNIT ( * ) SI_UNIT ( $, .STERADIAN. ) SOLID_ANGLE_UNIT ( ) );
#124 = PRODUCT_CONTEXT ( 'NONE', #32, 'mechanical' ) ;
#125 = LINE ( 'NONE', #54, #42 ) ;
#126 = FILL_AREA_STYLE ('',( #91 ) ) ;
#127 = PRODUCT_DEFINITION ( 'UNKNOWN', '', #207, #3 ) ;
#128 = DIMENSIONAL_EXPONENTS ( 1.000000000000000000, 0.0000000000000000000, 0.0000000000000000000, 0.0000000000000000000, 0.0000000000000000000, 0.0000000000000000000, 0.0000000000000000000 ) ;
#129 = ORIENTED_EDGE ( 'NONE', *, *, #188, .T. ) ;
#130 = CARTESIAN_POINT ( 'NONE',  ( 6.062500000000000000, 0.1250000000000000000, -28.25000000000000000 ) ) ;
#131 = CARTESIAN_POINT ( 'NONE',  ( 0.0000000000000000000, 0.0000000000000000000, -56.50000000000000000 ) ) ;
#132 = CARTESIAN_POINT ( 'NONE',  ( 12.12500000000000000, 0.1250000000000000000, -56.50000000000000000 ) ) ;
#133 = ADVANCED_FACE ( 'NONE', ( #116 ), #204, .T. ) ;
#134 = FILL_AREA_STYLE ('',( #194 ) ) ;
#135 =( NAMED_UNIT ( * ) PLANE_ANGLE_UNIT ( ) SI_UNIT ( $, .RADIAN. ) );
#136 = DIRECTION ( 'NONE',  ( 0.0000000000000000000, 1.000000000000000000, 0.0000000000000000000 ) ) ;
#137 = EDGE_CURVE ( 'NONE', #34, #121, #153, .T. ) ;
#138 = VECTOR ( 'NONE', #180, 39.37007874015748143 ) ;
#139 = EDGE_LOOP ( 'NONE', ( #17, #129, #154, #162 ) ) ;
#140 = EDGE_CURVE ( 'NONE', #119, #121, #185, .T. ) ;
#141 = CARTESIAN_POINT ( 'NONE',  ( 12.12500000000000000, 0.0000000000000000000, 0.0000000000000000000 ) ) ;
#142 = EDGE_CURVE ( 'NONE', #172, #81, #97, .T. ) ;
#143 = VERTEX_POINT ( 'NONE', #115 ) ;
#144 =( LENGTH_UNIT ( ) NAMED_UNIT ( * ) SI_UNIT ( $, .METRE. ) );
#145 = PRESENTATION_LAYER_ASSIGNMENT (  '', '', ( #164 ) ) ;
#146 = CARTESIAN_POINT ( 'NONE',  ( 0.0000000000000000000, 0.0000000000000000000, -56.50000000000000000 ) ) ;
#147 = ORIENTED_EDGE ( 'NONE', *, *, #161, .T. ) ;
#148 = DIRECTION ( 'NONE',  ( 0.0000000000000000000, 0.0000000000000000000, -1.000000000000000000 ) ) ;
#149 = DIRECTION ( 'NONE',  ( 0.0000000000000000000, 0.0000000000000000000, -1.000000000000000000 ) ) ;
#150 = DIMENSIONAL_EXPONENTS ( 1.000000000000000000, 0.0000000000000000000, 0.0000000000000000000, 0.0000000000000000000, 0.0000000000000000000, 0.0000000000000000000, 0.0000000000000000000 ) ;
#151 = EDGE_CURVE ( 'NONE', #64, #143, #182, .T. ) ;
#152 = CARTESIAN_POINT ( 'NONE',  ( 0.0000000000000000000, 0.0000000000000000000, -56.50000000000000000 ) ) ;
#153 = LINE ( 'NONE', #102, #187 ) ;
#154 = ORIENTED_EDGE ( 'NONE', *, *, #161, .F. ) ;
#155 = EDGE_LOOP ( 'NONE', ( #203, #117, #211, #27 ) ) ;
#156 = AXIS2_PLACEMENT_3D ( 'NONE', #157, #201, #163 ) ;
#157 = CARTESIAN_POINT ( 'NONE',  ( 0.0000000000000000000, 0.0000000000000000000, 0.0000000000000000000 ) ) ;
#158 = UNCERTAINTY_MEASURE_WITH_UNIT (LENGTH_MEASURE( 1.000000000000000082E-05 ), #49, 'distance_accuracy_value', 'NONE');
#159 = EDGE_LOOP ( 'NONE', ( #147, #93, #112, #73 ) ) ;
#160 =( NAMED_UNIT ( * ) SI_UNIT ( $, .STERADIAN. ) SOLID_ANGLE_UNIT ( ) );
#161 = EDGE_CURVE ( 'NONE', #81, #119, #94, .T. ) ;
#162 = ORIENTED_EDGE ( 'NONE', *, *, #78, .F. ) ;
#163 = DIRECTION ( 'NONE',  ( 1.000000000000000000, 0.0000000000000000000, 0.0000000000000000000 ) ) ;
#164 = STYLED_ITEM ( 'NONE', ( #31 ), #122 ) ;
#165 = LENGTH_MEASURE_WITH_UNIT ( LENGTH_MEASURE( 0.02539999999999999897 ), #178 );
#166 = ORIENTED_EDGE ( 'NONE', *, *, #140, .F. ) ;
#167 = DIMENSIONAL_EXPONENTS ( 1.000000000000000000, 0.0000000000000000000, 0.0000000000000000000, 0.0000000000000000000, 0.0000000000000000000, 0.0000000000000000000, 0.0000000000000000000 ) ;
#168 = DIRECTION ( 'NONE',  ( 0.0000000000000000000, 0.0000000000000000000, 1.000000000000000000 ) ) ;
#169 = DIRECTION ( 'NONE',  ( 0.0000000000000000000, 0.0000000000000000000, 1.000000000000000000 ) ) ;
#170 = CARTESIAN_POINT ( 'NONE',  ( 0.0000000000000000000, 0.1250000000000000000, 0.0000000000000000000 ) ) ;
#171 = DIRECTION ( 'NONE',  ( -1.000000000000000000, 0.0000000000000000000, 0.0000000000000000000 ) ) ;
#172 = VERTEX_POINT ( 'NONE', #132 ) ;
#173 = CARTESIAN_POINT ( 'NONE',  ( 0.0000000000000000000, 0.1250000000000000000, -56.50000000000000000 ) ) ;
#174 = FACE_OUTER_BOUND ( 'NONE', #155, .T. ) ;
#175 = FACE_OUTER_BOUND ( 'NONE', #139, .T. ) ;
#176 = PRODUCT ( 'Front Leaf Plate', 'Front Leaf Plate', '', ( #124 ) ) ;
#177 = FACE_OUTER_BOUND ( 'NONE', #75, .T. ) ;
#178 =( LENGTH_UNIT ( ) NAMED_UNIT ( * ) SI_UNIT ( $, .METRE. ) );
#179 = EDGE_CURVE ( 'NONE', #7, #172, #209, .T. ) ;
#180 = DIRECTION ( 'NONE',  ( 0.0000000000000000000, 1.000000000000000000, 0.0000000000000000000 ) ) ;
#181 =( NAMED_UNIT ( * ) PLANE_ANGLE_UNIT ( ) SI_UNIT ( $, .RADIAN. ) );
#182 = LINE ( 'NONE', #70, #87 ) ;
#183 = ORIENTED_EDGE ( 'NONE', *, *, #188, .F. ) ;
#184 =( GEOMETRIC_REPRESENTATION_CONTEXT ( 3 ) GLOBAL_UNCERTAINTY_ASSIGNED_CONTEXT ( ( #195 ) ) GLOBAL_UNIT_ASSIGNED_CONTEXT ( ( #4, #181, #123 ) ) REPRESENTATION_CONTEXT ( 'NONE', 'WORKASPACE' ) );
#185 = LINE ( 'NONE', #206, #47 ) ;
#186 = ADVANCED_FACE ( 'NONE', ( #177 ), #28, .T. ) ;
#187 = VECTOR ( 'NONE', #52, 39.37007874015748143 ) ;
#188 = EDGE_CURVE ( 'NONE', #143, #119, #120, .T. ) ;
#189 = CARTESIAN_POINT ( 'NONE',  ( 12.12500000000000000, 0.0000000000000000000, -56.50000000000000000 ) ) ;
#190 = DIRECTION ( 'NONE',  ( 0.0000000000000000000, 0.0000000000000000000, 1.000000000000000000 ) ) ;
#191 = DIRECTION ( 'NONE',  ( 0.0000000000000000000, 0.0000000000000000000, -1.000000000000000000 ) ) ;
#192 = ADVANCED_FACE ( 'NONE', ( #174 ), #61, .F. ) ;
#193 =( NAMED_UNIT ( * ) SI_UNIT ( $, .STERADIAN. ) SOLID_ANGLE_UNIT ( ) );
#194 = FILL_AREA_STYLE_COLOUR ( '', #111 ) ;
#195 = UNCERTAINTY_MEASURE_WITH_UNIT (LENGTH_MEASURE( 1.000000000000000082E-05 ), #4, 'distance_accuracy_value', 'NONE');
#196 = LENGTH_MEASURE_WITH_UNIT ( LENGTH_MEASURE( 0.02539999999999999897 ), #210 );
#197 = MECHANICAL_DESIGN_GEOMETRIC_PRESENTATION_REPRESENTATION (  '', ( #164 ), #92 ) ;
#198 = DIRECTION ( 'NONE',  ( 0.0000000000000000000, 0.0000000000000000000, -1.000000000000000000 ) ) ;
#199 = SHAPE_DEFINITION_REPRESENTATION ( #108, #60 ) ;
#200 = ORIENTED_EDGE ( 'NONE', *, *, #137, .T. ) ;
#201 = DIRECTION ( 'NONE',  ( 0.0000000000000000000, 0.0000000000000000000, 1.000000000000000000 ) ) ;
#202 = ORIENTED_EDGE ( 'NONE', *, *, #142, .F. ) ;
#203 = ORIENTED_EDGE ( 'NONE', *, *, #151, .F. ) ;
#204 = PLANE ( 'NONE',  #21 ) ;
#205 = ORIENTED_EDGE ( 'NONE', *, *, #20, .T. ) ;
#206 = CARTESIAN_POINT ( 'NONE',  ( 0.0000000000000000000, 0.1250000000000000000, 0.0000000000000000000 ) ) ;
#207 = PRODUCT_DEFINITION_FORMATION_WITH_SPECIFIED_SOURCE ( 'ANY', '', #176, .NOT_KNOWN. ) ;
#208 = CARTESIAN_POINT ( 'NONE',  ( 0.0000000000000000000, 0.1250000000000000000, -56.50000000000000000 ) ) ;
#209 = LINE ( 'NONE', #189, #30 ) ;
#210 =( LENGTH_UNIT ( ) NAMED_UNIT ( * ) SI_UNIT ( $, .METRE. ) );
#211 = ORIENTED_EDGE ( 'NONE', *, *, #20, .F. ) ;
ENDSEC;
END-ISO-10303-21;
