ISO-10303-21;
HEADER;
FILE_DESCRIPTION (( 'STEP AP214' ),
    '1' );
FILE_NAME ('Hinge Pin.step',
    '2018-09-03T05:51:04',
    ( '' ),
    ( '' ),
    'SwSTEP 2.0',
    'SolidWorks 2018',
    '' );
FILE_SCHEMA (( 'AUTOMOTIVE_DESIGN' ));
ENDSEC;

DATA;
#1 = FACE_OUTER_BOUND ( 'NONE', #2, .T. ) ;
#2 = EDGE_LOOP ( 'NONE', ( #170, #138, #176, #103 ) ) ;
#3 =( CONVERSION_BASED_UNIT ( 'INCH', #203 ) LENGTH_UNIT ( ) NAMED_UNIT ( #244 ) );
#4 =( NAMED_UNIT ( * ) PLANE_ANGLE_UNIT ( ) SI_UNIT ( $, .RADIAN. ) );
#5 = EDGE_LOOP ( 'NONE', ( #151, #217 ) ) ;
#6 = EDGE_CURVE ( 'NONE', #158, #99, #182, .T. ) ;
#7 = CARTESIAN_POINT ( 'NONE',  ( 0.1000000000000000056, 0.0000000000000000000, -4.268512490100407427E-18 ) ) ;
#8 = CIRCLE ( 'NONE', #251, 0.1250000000000000000 ) ;
#9 = ORIENTED_EDGE ( 'NONE', *, *, #123, .T. ) ;
#10 = PRODUCT_RELATED_PRODUCT_CATEGORY ( 'part', '', ( #49 ) ) ;
#11 =( NAMED_UNIT ( * ) PLANE_ANGLE_UNIT ( ) SI_UNIT ( $, .RADIAN. ) );
#12 = EDGE_CURVE ( 'NONE', #219, #31, #118, .T. ) ;
#13 = CIRCLE ( 'NONE', #63, 0.07499999999999999722 ) ;
#14 = DIRECTION ( 'NONE',  ( -0.0000000000000000000, 1.000000000000000000, 0.0000000000000000000 ) ) ;
#15 = AXIS2_PLACEMENT_3D ( 'NONE', #214, #242, #105 ) ;
#16 = FACE_OUTER_BOUND ( 'NONE', #243, .T. ) ;
#17 = SURFACE_STYLE_USAGE ( .BOTH. , #109 ) ;
#18 = VERTEX_POINT ( 'NONE', #83 ) ;
#19 = DIRECTION ( 'NONE',  ( 1.092739197465703932E-16, 0.0000000000000000000, 1.000000000000000000 ) ) ;
#20 = CARTESIAN_POINT ( 'NONE',  ( -3.297690042041192987E-19, 0.0000000000000000000, 1.092739197465704702E-17 ) ) ;
#21 = FACE_OUTER_BOUND ( 'NONE', #132, .T. ) ;
#22 = UNCERTAINTY_MEASURE_WITH_UNIT (LENGTH_MEASURE( 1.000000000000000082E-05 ), #199, 'distance_accuracy_value', 'NONE');
#23 = CYLINDRICAL_SURFACE ( 'NONE', #106, 0.07499999999999999722 ) ;
#24 = ORIENTED_EDGE ( 'NONE', *, *, #46, .T. ) ;
#25 = APPLICATION_CONTEXT ( 'automotive_design' ) ;
#26 = CARTESIAN_POINT ( 'NONE',  ( -3.297690042041192987E-19, 0.0000000000000000000, 1.092739197465704702E-17 ) ) ;
#27 = FACE_OUTER_BOUND ( 'NONE', #110, .T. ) ;
#28 = CARTESIAN_POINT ( 'NONE',  ( 0.1000000000000000611, 0.0000000000000000000, 2.000000000000000000 ) ) ;
#29 = CARTESIAN_POINT ( 'NONE',  ( 6.123233935905178038E-18, 0.0000000000000000000, 1.925000000000000044 ) ) ;
#30 = STYLED_ITEM ( 'NONE', ( #126 ), #54 ) ;
#31 = VERTEX_POINT ( 'NONE', #154 ) ;
#32 = DIRECTION ( 'NONE',  ( 1.000000000000000000, 0.0000000000000000000, 0.0000000000000000000 ) ) ;
#33 = DIRECTION ( 'NONE',  ( 1.000000000000000000, 0.0000000000000000000, 0.0000000000000000000 ) ) ;
#34 = ORIENTED_EDGE ( 'NONE', *, *, #6, .T. ) ;
#35 = PRODUCT_DEFINITION_SHAPE ( 'NONE', 'NONE',  #206 ) ;
#36 = EDGE_CURVE ( 'NONE', #198, #259, #8, .T. ) ;
#37 = FILL_AREA_STYLE_COLOUR ( '', #213 ) ;
#38 = SPHERICAL_SURFACE ( 'NONE', #196, 0.1250000000000000000 ) ;
#39 = ORIENTED_EDGE ( 'NONE', *, *, #123, .F. ) ;
#40 =( GEOMETRIC_REPRESENTATION_CONTEXT ( 3 ) GLOBAL_UNCERTAINTY_ASSIGNED_CONTEXT ( ( #93 ) ) GLOBAL_UNIT_ASSIGNED_CONTEXT ( ( #3, #4, #122 ) ) REPRESENTATION_CONTEXT ( 'NONE', 'WORKASPACE' ) );
#41 =( NAMED_UNIT ( * ) PLANE_ANGLE_UNIT ( ) SI_UNIT ( $, .RADIAN. ) );
#42 = SURFACE_STYLE_FILL_AREA ( #220 ) ;
#43 = CARTESIAN_POINT ( 'NONE',  ( 6.123233935905178038E-18, 0.0000000000000000000, 0.07499999999999999722 ) ) ;
#44 =( NAMED_UNIT ( * ) SI_UNIT ( $, .STERADIAN. ) SOLID_ANGLE_UNIT ( ) );
#45 = PRESENTATION_LAYER_ASSIGNMENT (  '', '', ( #30 ) ) ;
#46 = EDGE_CURVE ( 'NONE', #158, #47, #229, .T. ) ;
#47 = VERTEX_POINT ( 'NONE', #258 ) ;
#48 = DIRECTION ( 'NONE',  ( 1.000000000000000000, 0.0000000000000000000, -1.092739197465703932E-16 ) ) ;
#49 = PRODUCT ( 'Hinge Pin', 'Hinge Pin', '', ( #69 ) ) ;
#50 = PLANE ( 'NONE',  #149 ) ;
#51 = CARTESIAN_POINT ( 'NONE',  ( 0.0000000000000000000, 0.0000000000000000000, 0.0000000000000000000 ) ) ;
#52 = FACE_OUTER_BOUND ( 'NONE', #260, .T. ) ;
#53 = DIRECTION ( 'NONE',  ( 0.0000000000000000000, 0.0000000000000000000, -1.000000000000000000 ) ) ;
#54 = MANIFOLD_SOLID_BREP ( 'Imported1', #79 ) ;
#55 = DIRECTION ( 'NONE',  ( 0.0000000000000000000, 0.0000000000000000000, -1.000000000000000000 ) ) ;
#56 = AXIS2_PLACEMENT_3D ( 'NONE', #20, #19, #225 ) ;
#57 = DIRECTION ( 'NONE',  ( 0.0000000000000000000, 0.0000000000000000000, 1.000000000000000000 ) ) ;
#58 = ORIENTED_EDGE ( 'NONE', *, *, #46, .F. ) ;
#59 = EDGE_CURVE ( 'NONE', #31, #219, #13, .T. ) ;
#60 = CARTESIAN_POINT ( 'NONE',  ( 0.0000000000000000000, 0.0000000000000000000, 2.000000000000000000 ) ) ;
#61 = EDGE_LOOP ( 'NONE', ( #232, #234 ) ) ;
#62 = AXIS2_PLACEMENT_3D ( 'NONE', #145, #53, #76 ) ;
#63 = AXIS2_PLACEMENT_3D ( 'NONE', #159, #134, #111 ) ;
#64 = CIRCLE ( 'NONE', #174, 0.1000000000000000056 ) ;
#65 = DIRECTION ( 'NONE',  ( 0.0000000000000000000, -1.000000000000000000, 0.0000000000000000000 ) ) ;
#66 = AXIS2_PLACEMENT_3D ( 'NONE', #257, #209, #81 ) ;
#67 = FACE_BOUND ( 'NONE', #204, .T. ) ;
#68 = EDGE_CURVE ( 'NONE', #198, #179, #197, .T. ) ;
#69 = PRODUCT_CONTEXT ( 'NONE', #25, 'mechanical' ) ;
#70 = ORIENTED_EDGE ( 'NONE', *, *, #68, .T. ) ;
#71 = AXIS2_PLACEMENT_3D ( 'NONE', #222, #235, #240 ) ;
#72 = EDGE_CURVE ( 'NONE', #259, #179, #201, .T. ) ;
#73 = CARTESIAN_POINT ( 'NONE',  ( -0.07499999999999999722, -9.184850993605148746E-18, 0.0000000000000000000 ) ) ;
#74 = FACE_OUTER_BOUND ( 'NONE', #92, .T. ) ;
#75 = DIRECTION ( 'NONE',  ( 1.000000000000000000, 0.0000000000000000000, 0.0000000000000000000 ) ) ;
#76 = DIRECTION ( 'NONE',  ( 1.000000000000000000, 0.0000000000000000000, 0.0000000000000000000 ) ) ;
#77 = AXIS2_PLACEMENT_3D ( 'NONE', #117, #95, #119 ) ;
#78 = ADVANCED_FACE ( 'NONE', ( #74 ), #153, .T. ) ;
#79 = CLOSED_SHELL ( 'NONE', ( #148, #101, #125, #195, #173, #253, #78, #135 ) ) ;
#80 = EDGE_CURVE ( 'NONE', #99, #47, #233, .T. ) ;
#81 = DIRECTION ( 'NONE',  ( 1.000000000000000000, 0.0000000000000000000, -1.092739197465703808E-16 ) ) ;
#82 = AXIS2_PLACEMENT_3D ( 'NONE', #261, #143, #75 ) ;
#83 = CARTESIAN_POINT ( 'NONE',  ( -0.07499999999999999722, -9.184850993605148746E-18, 0.0000000000000000000 ) ) ;
#84 = DIRECTION ( 'NONE',  ( -1.000000000000000000, 1.224646799147353207E-16, 0.0000000000000000000 ) ) ;
#85 = FILL_AREA_STYLE ('',( #37 ) ) ;
#86 = ORIENTED_EDGE ( 'NONE', *, *, #205, .F. ) ;
#87 = DIRECTION ( 'NONE',  ( 1.000000000000000000, 0.0000000000000000000, 0.0000000000000000000 ) ) ;
#88 = DIRECTION ( 'NONE',  ( 0.0000000000000000000, 0.0000000000000000000, -1.000000000000000000 ) ) ;
#89 = AXIS2_PLACEMENT_3D ( 'NONE', #102, #162, #184 ) ;
#90 = VECTOR ( 'NONE', #55, 39.37007874015748143 ) ;
#91 = APPLICATION_CONTEXT ( 'automotive_design' ) ;
#92 = EDGE_LOOP ( 'NONE', ( #215, #70, #221 ) ) ;
#93 = UNCERTAINTY_MEASURE_WITH_UNIT (LENGTH_MEASURE( 1.000000000000000082E-05 ), #3, 'distance_accuracy_value', 'NONE');
#94 = MECHANICAL_DESIGN_GEOMETRIC_PRESENTATION_REPRESENTATION (  '', ( #30 ), #127 ) ;
#95 = DIRECTION ( 'NONE',  ( -1.092739197465703932E-16, 0.0000000000000000000, 1.000000000000000000 ) ) ;
#96 = DIRECTION ( 'NONE',  ( 1.000000000000000000, 0.0000000000000000000, 0.0000000000000000000 ) ) ;
#97 = DIRECTION ( 'NONE',  ( 1.000000000000000000, 0.0000000000000000000, 1.092739197465703808E-16 ) ) ;
#98 = CYLINDRICAL_SURFACE ( 'NONE', #62, 0.07499999999999999722 ) ;
#99 = VERTEX_POINT ( 'NONE', #28 ) ;
#100 = DIRECTION ( 'NONE',  ( 1.000000000000000000, 0.0000000000000000000, 0.0000000000000000000 ) ) ;
#101 = ADVANCED_FACE ( 'NONE', ( #52 ), #236, .T. ) ;
#102 = CARTESIAN_POINT ( 'NONE',  ( 0.0000000000000000000, 0.0000000000000000000, 0.0000000000000000000 ) ) ;
#103 = ORIENTED_EDGE ( 'NONE', *, *, #205, .T. ) ;
#104 = EDGE_CURVE ( 'NONE', #47, #99, #223, .T. ) ;
#105 = DIRECTION ( 'NONE',  ( 1.000000000000000000, 1.224646799147353207E-16, 0.0000000000000000000 ) ) ;
#106 = AXIS2_PLACEMENT_3D ( 'NONE', #248, #121, #96 ) ;
#107 = ORIENTED_EDGE ( 'NONE', *, *, #237, .F. ) ;
#108 = DIMENSIONAL_EXPONENTS ( 1.000000000000000000, 0.0000000000000000000, 0.0000000000000000000, 0.0000000000000000000, 0.0000000000000000000, 0.0000000000000000000, 0.0000000000000000000 ) ;
#109 = SURFACE_SIDE_STYLE ('',( #115 ) ) ;
#110 = EDGE_LOOP ( 'NONE', ( #58, #34, #147 ) ) ;
#111 = DIRECTION ( 'NONE',  ( 1.000000000000000000, 0.0000000000000000000, 0.0000000000000000000 ) ) ;
#112 = FACE_BOUND ( 'NONE', #5, .T. ) ;
#113 = VERTEX_POINT ( 'NONE', #181 ) ;
#114 = SURFACE_SIDE_STYLE ('',( #42 ) ) ;
#115 = SURFACE_STYLE_FILL_AREA ( #85 ) ;
#116 = DIRECTION ( 'NONE',  ( 0.0000000000000000000, 1.000000000000000000, 0.0000000000000000000 ) ) ;
#117 = CARTESIAN_POINT ( 'NONE',  ( -3.297690042041192987E-19, 0.0000000000000000000, 2.000000000000000000 ) ) ;
#118 = CIRCLE ( 'NONE', #160, 0.07499999999999999722 ) ;
#119 = DIRECTION ( 'NONE',  ( 1.000000000000000000, 0.0000000000000000000, 0.0000000000000000000 ) ) ;
#120 = AXIS2_PLACEMENT_3D ( 'NONE', #51, #252, #32 ) ;
#121 = DIRECTION ( 'NONE',  ( 0.0000000000000000000, 0.0000000000000000000, -1.000000000000000000 ) ) ;
#122 =( NAMED_UNIT ( * ) SI_UNIT ( $, .STERADIAN. ) SOLID_ANGLE_UNIT ( ) );
#123 = EDGE_CURVE ( 'NONE', #179, #259, #64, .T. ) ;
#124 = PLANE ( 'NONE',  #66 ) ;
#125 = ADVANCED_FACE ( 'NONE', ( #16 ), #146, .T. ) ;
#126 = PRESENTATION_STYLE_ASSIGNMENT (( #17 ) ) ;
#127 =( GEOMETRIC_REPRESENTATION_CONTEXT ( 3 ) GLOBAL_UNCERTAINTY_ASSIGNED_CONTEXT ( ( #22 ) ) GLOBAL_UNIT_ASSIGNED_CONTEXT ( ( #199, #41, #44 ) ) REPRESENTATION_CONTEXT ( 'NONE', 'WORKASPACE' ) );
#128 = PRESENTATION_LAYER_ASSIGNMENT (  '', '', ( #183 ) ) ;
#129 = FACE_OUTER_BOUND ( 'NONE', #241, .T. ) ;
#130 = CARTESIAN_POINT ( 'NONE',  ( 6.123233935905178038E-18, 0.0000000000000000000, 1.925000000000000044 ) ) ;
#131 = DIMENSIONAL_EXPONENTS ( 1.000000000000000000, 0.0000000000000000000, 0.0000000000000000000, 0.0000000000000000000, 0.0000000000000000000, 0.0000000000000000000, 0.0000000000000000000 ) ;
#132 = EDGE_LOOP ( 'NONE', ( #9, #194 ) ) ;
#133 = CARTESIAN_POINT ( 'NONE',  ( 6.123233935905178038E-18, 0.0000000000000000000, 0.07499999999999999722 ) ) ;
#134 = DIRECTION ( 'NONE',  ( 0.0000000000000000000, 0.0000000000000000000, 1.000000000000000000 ) ) ;
#135 = ADVANCED_FACE ( 'NONE', ( #1 ), #98, .T. ) ;
#136 = ORIENTED_EDGE ( 'NONE', *, *, #68, .F. ) ;
#137 = PRODUCT_DEFINITION_FORMATION_WITH_SPECIFIED_SOURCE ( 'ANY', '', #49, .NOT_KNOWN. ) ;
#138 = ORIENTED_EDGE ( 'NONE', *, *, #12, .F. ) ;
#139 = SURFACE_STYLE_USAGE ( .BOTH. , #114 ) ;
#140 = CARTESIAN_POINT ( 'NONE',  ( 0.07499999999999999722, 0.0000000000000000000, 2.000000000000000000 ) ) ;
#141 = PRESENTATION_STYLE_ASSIGNMENT (( #139 ) ) ;
#142 = MECHANICAL_DESIGN_GEOMETRIC_PRESENTATION_REPRESENTATION (  '', ( #183 ), #40 ) ;
#143 = DIRECTION ( 'NONE',  ( 0.0000000000000000000, 1.000000000000000000, 0.0000000000000000000 ) ) ;
#144 = AXIS2_PLACEMENT_3D ( 'NONE', #130, #14, #216 ) ;
#145 = CARTESIAN_POINT ( 'NONE',  ( 0.0000000000000000000, 0.0000000000000000000, 0.0000000000000000000 ) ) ;
#146 = SPHERICAL_SURFACE ( 'NONE', #71, 0.1250000000000000000 ) ;
#147 = ORIENTED_EDGE ( 'NONE', *, *, #80, .T. ) ;
#148 = ADVANCED_FACE ( 'NONE', ( #129 ), #23, .T. ) ;
#149 = AXIS2_PLACEMENT_3D ( 'NONE', #249, #224, #97 ) ;
#150 =( CONVERSION_BASED_UNIT ( 'INCH', #178 ) LENGTH_UNIT ( ) NAMED_UNIT ( #131 ) );
#151 = ORIENTED_EDGE ( 'NONE', *, *, #12, .T. ) ;
#152 = AXIS2_PLACEMENT_3D ( 'NONE', #175, #57, #33 ) ;
#153 = SPHERICAL_SURFACE ( 'NONE', #82, 0.1250000000000000000 ) ;
#154 = CARTESIAN_POINT ( 'NONE',  ( -0.07499999999999999722, -9.184850993605148746E-18, 2.000000000000000000 ) ) ;
#155 =( NAMED_UNIT ( * ) SI_UNIT ( $, .STERADIAN. ) SOLID_ANGLE_UNIT ( ) );
#156 = AXIS2_PLACEMENT_3D ( 'NONE', #157, #65, #88 ) ;
#157 = CARTESIAN_POINT ( 'NONE',  ( 6.123233935905178038E-18, 0.0000000000000000000, 0.07499999999999999722 ) ) ;
#158 = VERTEX_POINT ( 'NONE', #171 ) ;
#159 = CARTESIAN_POINT ( 'NONE',  ( 0.0000000000000000000, 0.0000000000000000000, 2.000000000000000000 ) ) ;
#160 = AXIS2_PLACEMENT_3D ( 'NONE', #60, #212, #87 ) ;
#161 = ORIENTED_EDGE ( 'NONE', *, *, #210, .T. ) ;
#162 = DIRECTION ( 'NONE',  ( 0.0000000000000000000, 0.0000000000000000000, 1.000000000000000000 ) ) ;
#163 =( GEOMETRIC_REPRESENTATION_CONTEXT ( 3 ) GLOBAL_UNCERTAINTY_ASSIGNED_CONTEXT ( ( #254 ) ) GLOBAL_UNIT_ASSIGNED_CONTEXT ( ( #150, #11, #155 ) ) REPRESENTATION_CONTEXT ( 'NONE', 'WORKASPACE' ) );
#164 = ORIENTED_EDGE ( 'NONE', *, *, #104, .T. ) ;
#165 = DIRECTION ( 'NONE',  ( -1.092739197465703932E-16, 0.0000000000000000000, 1.000000000000000000 ) ) ;
#166 = CARTESIAN_POINT ( 'NONE',  ( -3.297690042041192987E-19, 0.0000000000000000000, 2.000000000000000000 ) ) ;
#167 = DIRECTION ( 'NONE',  ( 0.0000000000000000000, 0.0000000000000000000, -1.000000000000000000 ) ) ;
#168 = SHAPE_DEFINITION_REPRESENTATION ( #35, #228 ) ;
#169 = CIRCLE ( 'NONE', #152, 0.07499999999999999722 ) ;
#170 = ORIENTED_EDGE ( 'NONE', *, *, #210, .F. ) ;
#171 = CARTESIAN_POINT ( 'NONE',  ( 1.377727643057613558E-17, 0.0000000000000000000, 2.049999999999999822 ) ) ;
#172 = CARTESIAN_POINT ( 'NONE',  ( 0.07499999999999999722, 0.0000000000000000000, 0.0000000000000000000 ) ) ;
#173 = ADVANCED_FACE ( 'NONE', ( #27 ), #38, .T. ) ;
#174 = AXIS2_PLACEMENT_3D ( 'NONE', #26, #187, #48 ) ;
#175 = CARTESIAN_POINT ( 'NONE',  ( 0.0000000000000000000, 0.0000000000000000000, 0.0000000000000000000 ) ) ;
#176 = ORIENTED_EDGE ( 'NONE', *, *, #237, .T. ) ;
#177 = AXIS2_PLACEMENT_3D ( 'NONE', #166, #165, #239 ) ;
#178 = LENGTH_MEASURE_WITH_UNIT ( LENGTH_MEASURE( 0.02539999999999999897 ), #255 );
#179 = VERTEX_POINT ( 'NONE', #7 ) ;
#180 =( LENGTH_UNIT ( ) NAMED_UNIT ( * ) SI_UNIT ( $, .METRE. ) );
#181 = CARTESIAN_POINT ( 'NONE',  ( 0.07499999999999999722, 0.0000000000000000000, 0.0000000000000000000 ) ) ;
#182 = CIRCLE ( 'NONE', #144, 0.1249999999999999029 ) ;
#183 = STYLED_ITEM ( 'NONE', ( #141 ), #228 ) ;
#184 = DIRECTION ( 'NONE',  ( 1.000000000000000000, 0.0000000000000000000, 0.0000000000000000000 ) ) ;
#185 = APPLICATION_PROTOCOL_DEFINITION ( 'draft international standard', 'automotive_design', 1998, #91 ) ;
#186 = APPLICATION_PROTOCOL_DEFINITION ( 'draft international standard', 'automotive_design', 1998, #25 ) ;
#187 = DIRECTION ( 'NONE',  ( 1.092739197465703932E-16, 0.0000000000000000000, 1.000000000000000000 ) ) ;
#188 = COLOUR_RGB ( '',0.7921568627450980005, 0.8196078431372548767, 0.9333333333333333481 ) ;
#189 = DIRECTION ( 'NONE',  ( 0.0000000000000000000, -1.000000000000000000, 0.0000000000000000000 ) ) ;
#190 = LINE ( 'NONE', #172, #90 ) ;
#191 = CARTESIAN_POINT ( 'NONE',  ( 1.377727643057613558E-17, 0.0000000000000000000, -0.04999999999999999584 ) ) ;
#192 = CARTESIAN_POINT ( 'NONE',  ( -0.1000000000000000056, 1.224646799147353269E-17, 1.946441695485786495E-17 ) ) ;
#193 = FILL_AREA_STYLE_COLOUR ( '', #188 ) ;
#194 = ORIENTED_EDGE ( 'NONE', *, *, #72, .T. ) ;
#195 = ADVANCED_FACE ( 'NONE', ( #227, #112 ), #50, .F. ) ;
#196 = AXIS2_PLACEMENT_3D ( 'NONE', #29, #189, #100 ) ;
#197 = CIRCLE ( 'NONE', #156, 0.1250000000000000000 ) ;
#198 = VERTEX_POINT ( 'NONE', #191 ) ;
#199 =( CONVERSION_BASED_UNIT ( 'INCH', #230 ) LENGTH_UNIT ( ) NAMED_UNIT ( #108 ) );
#200 = LINE ( 'NONE', #73, #207 ) ;
#201 = CIRCLE ( 'NONE', #56, 0.1000000000000000056 ) ;
#202 = AXIS2_PLACEMENT_3D ( 'NONE', #43, #116, #238 ) ;
#203 = LENGTH_MEASURE_WITH_UNIT ( LENGTH_MEASURE( 0.02539999999999999897 ), #226 );
#204 = EDGE_LOOP ( 'NONE', ( #86, #247 ) ) ;
#205 = EDGE_CURVE ( 'NONE', #113, #18, #246, .T. ) ;
#206 = PRODUCT_DEFINITION ( 'UNKNOWN', '', #137, #218 ) ;
#207 = VECTOR ( 'NONE', #167, 39.37007874015748143 ) ;
#208 = ORIENTED_EDGE ( 'NONE', *, *, #6, .F. ) ;
#209 = DIRECTION ( 'NONE',  ( 1.092739197465703808E-16, 0.0000000000000000000, 1.000000000000000000 ) ) ;
#210 = EDGE_CURVE ( 'NONE', #31, #18, #200, .T. ) ;
#211 = ORIENTED_EDGE ( 'NONE', *, *, #245, .T. ) ;
#212 = DIRECTION ( 'NONE',  ( 0.0000000000000000000, 0.0000000000000000000, 1.000000000000000000 ) ) ;
#213 = COLOUR_RGB ( '',0.7490196078431372584, 0.7490196078431372584, 0.7490196078431372584 ) ;
#214 = CARTESIAN_POINT ( 'NONE',  ( 6.123233935905178038E-18, 0.0000000000000000000, 1.925000000000000044 ) ) ;
#215 = ORIENTED_EDGE ( 'NONE', *, *, #36, .F. ) ;
#216 = DIRECTION ( 'NONE',  ( 0.0000000000000000000, 0.0000000000000000000, 1.000000000000000000 ) ) ;
#217 = ORIENTED_EDGE ( 'NONE', *, *, #59, .T. ) ;
#218 = PRODUCT_DEFINITION_CONTEXT ( 'detailed design', #91, 'design' ) ;
#219 = VERTEX_POINT ( 'NONE', #140 ) ;
#220 = FILL_AREA_STYLE ('',( #193 ) ) ;
#221 = ORIENTED_EDGE ( 'NONE', *, *, #72, .F. ) ;
#222 = CARTESIAN_POINT ( 'NONE',  ( 6.123233935905178038E-18, 0.0000000000000000000, 1.925000000000000044 ) ) ;
#223 = CIRCLE ( 'NONE', #77, 0.1000000000000000056 ) ;
#224 = DIRECTION ( 'NONE',  ( -1.092739197465703808E-16, 0.0000000000000000000, 1.000000000000000000 ) ) ;
#225 = DIRECTION ( 'NONE',  ( 1.000000000000000000, 0.0000000000000000000, -1.092739197465703932E-16 ) ) ;
#226 =( LENGTH_UNIT ( ) NAMED_UNIT ( * ) SI_UNIT ( $, .METRE. ) );
#227 = FACE_OUTER_BOUND ( 'NONE', #61, .T. ) ;
#228 = ADVANCED_BREP_SHAPE_REPRESENTATION ( 'Hinge Pin', ( #54, #89 ), #163 ) ;
#229 = CIRCLE ( 'NONE', #15, 0.1250000000000000000 ) ;
#230 = LENGTH_MEASURE_WITH_UNIT ( LENGTH_MEASURE( 0.02539999999999999897 ), #180 );
#231 = DIRECTION ( 'NONE',  ( 1.224646799147353207E-16, 1.000000000000000000, -0.0000000000000000000 ) ) ;
#232 = ORIENTED_EDGE ( 'NONE', *, *, #80, .F. ) ;
#233 = CIRCLE ( 'NONE', #177, 0.1000000000000000056 ) ;
#234 = ORIENTED_EDGE ( 'NONE', *, *, #104, .F. ) ;
#235 = DIRECTION ( 'NONE',  ( 0.0000000000000000000, -1.000000000000000000, 0.0000000000000000000 ) ) ;
#236 = SPHERICAL_SURFACE ( 'NONE', #202, 0.1250000000000000000 ) ;
#237 = EDGE_CURVE ( 'NONE', #219, #113, #190, .T. ) ;
#238 = DIRECTION ( 'NONE',  ( 1.000000000000000000, 0.0000000000000000000, 0.0000000000000000000 ) ) ;
#239 = DIRECTION ( 'NONE',  ( 1.000000000000000000, 0.0000000000000000000, 0.0000000000000000000 ) ) ;
#240 = DIRECTION ( 'NONE',  ( 1.000000000000000000, 0.0000000000000000000, 0.0000000000000000000 ) ) ;
#241 = EDGE_LOOP ( 'NONE', ( #250, #161, #211, #107 ) ) ;
#242 = DIRECTION ( 'NONE',  ( 1.224646799147353207E-16, -1.000000000000000000, 0.0000000000000000000 ) ) ;
#243 = EDGE_LOOP ( 'NONE', ( #208, #24, #164 ) ) ;
#244 = DIMENSIONAL_EXPONENTS ( 1.000000000000000000, 0.0000000000000000000, 0.0000000000000000000, 0.0000000000000000000, 0.0000000000000000000, 0.0000000000000000000, 0.0000000000000000000 ) ;
#245 = EDGE_CURVE ( 'NONE', #18, #113, #169, .T. ) ;
#246 = CIRCLE ( 'NONE', #120, 0.07499999999999999722 ) ;
#247 = ORIENTED_EDGE ( 'NONE', *, *, #245, .F. ) ;
#248 = CARTESIAN_POINT ( 'NONE',  ( 0.0000000000000000000, 0.0000000000000000000, 0.0000000000000000000 ) ) ;
#249 = CARTESIAN_POINT ( 'NONE',  ( 0.0000000000000000000, 0.0000000000000000000, 2.000000000000000000 ) ) ;
#250 = ORIENTED_EDGE ( 'NONE', *, *, #59, .F. ) ;
#251 = AXIS2_PLACEMENT_3D ( 'NONE', #133, #231, #84 ) ;
#252 = DIRECTION ( 'NONE',  ( 0.0000000000000000000, 0.0000000000000000000, 1.000000000000000000 ) ) ;
#253 = ADVANCED_FACE ( 'NONE', ( #21, #67 ), #124, .T. ) ;
#254 = UNCERTAINTY_MEASURE_WITH_UNIT (LENGTH_MEASURE( 1.000000000000000082E-05 ), #150, 'distance_accuracy_value', 'NONE');
#255 =( LENGTH_UNIT ( ) NAMED_UNIT ( * ) SI_UNIT ( $, .METRE. ) );
#256 = ORIENTED_EDGE ( 'NONE', *, *, #36, .T. ) ;
#257 = CARTESIAN_POINT ( 'NONE',  ( 0.0000000000000000000, 0.0000000000000000000, 0.0000000000000000000 ) ) ;
#258 = CARTESIAN_POINT ( 'NONE',  ( -0.1000000000000000611, -1.224646799147353885E-17, 2.000000000000000000 ) ) ;
#259 = VERTEX_POINT ( 'NONE', #192 ) ;
#260 = EDGE_LOOP ( 'NONE', ( #136, #256, #39 ) ) ;
#261 = CARTESIAN_POINT ( 'NONE',  ( 6.123233935905178038E-18, 0.0000000000000000000, 0.07499999999999999722 ) ) ;
ENDSEC;
END-ISO-10303-21;
